%TGIF 4.2.5-QPL
state(0,37,100.000,0,179,0,4,1,9,1,1,1,1,1,0,1,1,'Helvetica',0,103680,0,0,0,10,0,0,0,1,0,16,0,0,1,1,1,0,1088,1408,1,0,2880,0).
%
% @(#)$Header$
% %W%
%
unit("1 pixel/pixel").
color_info(11,65535,0,[
	"magenta", 65535, 0, 65535, 65535, 0, 65535, 1,
	"red", 65535, 0, 0, 65535, 0, 0, 1,
	"green", 0, 65535, 0, 0, 65535, 0, 1,
	"blue", 0, 0, 65535, 0, 0, 65535, 1,
	"yellow", 65535, 65535, 0, 65535, 65535, 0, 1,
	"pink", 65535, 49344, 52171, 65535, 49344, 52171, 1,
	"cyan", 0, 65535, 65535, 0, 65535, 65535, 1,
	"CadetBlue", 24415, 40606, 41120, 24415, 40606, 41120, 1,
	"white", 65535, 65535, 65535, 65535, 65535, 65535, 1,
	"black", 0, 0, 0, 0, 0, 0, 1,
	"DarkSlateGray", 12079, 20303, 20303, 12079, 20303, 20303, 1
]).
script_frac("0.6").
fg_bg_colors('black','white').
dont_reencode("FFDingbests:ZapfDingbats").
objshadow_info('#c0c0c0',2,2).
rotate_pivot(0,0,0,0).
spline_tightness(1).
page(1,"",1,'').
text('black',488,182,2,1,1,81,44,8,18,4,0,0,0,0,2,81,44,0,0,"",0,0,0,0,200,'',[
minilines(81,44,0,0,1,0,0,[
mini_line(49,18,4,0,0,0,[
str_block(0,49,18,4,0,-1,0,0,0,[
str_seg('black','Helvetica',0,103680,49,18,4,0,-1,0,0,0,0,0,
	"KiwiC")])
]),
mini_line(81,18,4,0,0,0,[
str_block(0,81,18,4,0,-1,0,0,0,[
str_seg('black','Helvetica',0,103680,81,18,4,0,-1,0,0,0,0,0,
	"Front End")])
])
])]).
text('black',640,458,2,1,1,95,44,10,18,4,0,0,0,0,2,95,44,0,0,"",0,0,0,0,476,'',[
minilines(95,44,0,0,1,0,0,[
mini_line(60,18,4,0,0,0,[
str_block(0,60,18,4,0,-1,0,0,0,[
str_seg('black','Helvetica',0,103680,60,18,4,0,-1,0,0,0,0,0,
	"Verilog")])
]),
mini_line(95,18,4,0,0,0,[
str_block(0,95,18,4,0,-1,0,0,0,[
str_seg('black','Helvetica',0,103680,95,18,4,0,-1,0,0,0,0,0,
	"Conversion")])
])
])]).
text('black',644,546,2,1,1,95,44,12,18,4,0,0,0,0,2,95,44,0,0,"",0,0,0,0,564,'',[
minilines(95,44,0,0,1,0,0,[
mini_line(76,18,4,0,0,0,[
str_block(0,76,18,4,0,-1,0,0,0,[
str_seg('black','Helvetica',0,103680,76,18,4,0,-1,0,0,0,0,0,
	"SystemC")])
]),
mini_line(95,18,4,0,0,0,[
str_block(0,95,18,4,0,-1,0,0,0,[
str_seg('black','Helvetica',0,103680,95,18,4,0,-1,0,0,0,0,0,
	"Conversion")])
])
])]).
text('black',788,558,2,1,1,76,44,18,18,4,0,0,0,0,2,76,44,0,0,"",0,0,0,0,576,'',[
minilines(76,44,0,0,1,0,0,[
mini_line(76,18,4,0,0,0,[
str_block(0,76,18,4,0,-1,0,0,0,[
str_seg('black','Helvetica',0,103680,76,18,4,0,-1,0,0,0,0,0,
	"SystemC")])
]),
mini_line(46,18,4,0,0,0,[
str_block(0,46,18,4,0,-1,0,0,0,[
str_seg('black','Helvetica',0,103680,46,18,4,0,-1,0,0,0,0,0,
	"(C++)")])
])
])]).
text('black',784,474,2,1,1,97,44,22,18,4,0,0,0,0,2,97,44,0,0,"",0,0,0,0,492,'',[
minilines(97,44,0,0,1,0,0,[
mini_line(97,18,4,0,0,0,[
str_block(0,97,18,4,0,0,0,0,0,[
str_seg('black','Helvetica',0,103680,97,18,4,0,0,0,0,0,0,0,
	"RTL Output")])
]),
mini_line(72,18,4,0,0,0,[
str_block(0,72,18,4,0,-1,0,0,0,[
str_seg('black','Helvetica',0,103680,72,18,4,0,-1,0,0,0,0,0,
	"(Verilog)")])
])
])]).
poly('black','',2,[
	374,182,424,182],1,2,1,1170,0,0,0,0,0,0,0,'2',0,0,
    "0","",[
    0,10,4,0,'10','4','0'],[0,10,4,0,'10','4','0'],[
]).
text('black',492,278,3,1,1,124,51,1481,14,3,0,0,0,0,2,124,51,0,0,"",0,0,0,0,292,'',[
minilines(124,51,0,0,1,0,0,[
mini_line(100,14,3,0,0,0,[
str_block(0,100,14,3,0,0,0,0,0,[
str_seg('black','Helvetica',0,80640,100,14,3,0,0,0,0,0,0,0,
	"Repack: Pointer")])
]),
mini_line(124,14,3,0,0,0,[
str_block(0,124,14,3,0,-1,0,0,0,[
str_seg('black','Helvetica',0,80640,124,14,3,0,-1,0,0,0,0,0,
	"disambiguation and")])
]),
mini_line(111,14,3,0,0,0,[
str_block(0,111,14,3,0,-1,0,0,0,[
str_seg('black','Helvetica',0,80640,111,14,3,0,-1,0,0,0,0,0,
	"Array Partitioning")])
])
])]).
text('black',328,490,3,1,1,77,66,1490,18,4,0,0,0,0,2,77,66,0,0,"",0,0,0,0,508,'',[
minilines(77,66,0,0,1,0,0,[
mini_line(55,18,4,0,0,0,[
str_block(0,55,18,4,0,-1,0,0,0,[
str_seg('black','Helvetica',0,103680,55,18,4,0,-1,0,0,0,0,0,
	"Diosim")])
]),
mini_line(77,18,4,0,0,0,[
str_block(0,77,18,4,0,0,0,0,0,[
str_seg('black','Helvetica',0,103680,77,18,4,0,0,0,0,0,0,0,
	"Simulator")])
]),
mini_line(0,18,4,0,0,0,[
str_block(0,0,18,4,0,0,0,0,0,[
str_seg('black','Helvetica',0,103680,0,18,4,0,0,0,0,0,0,0,
	"")])
])
])]).
text('black',168,498,2,1,1,69,44,1494,18,4,0,0,0,0,2,69,44,0,0,"",0,0,0,0,516,'',[
minilines(69,44,0,0,1,0,0,[
mini_line(69,18,4,0,0,0,[
str_block(0,69,18,4,0,-1,0,0,0,[
str_seg('black','Helvetica',0,103680,69,18,4,0,-1,0,0,0,0,0,
	"Console")])
]),
mini_line(58,18,4,0,0,0,[
str_block(0,58,18,4,0,0,0,0,0,[
str_seg('black','Helvetica',0,103680,58,18,4,0,0,0,0,0,0,0,
	"Output")])
])
])]).
poly('black','',2,[
	496,244,496,272],1,2,1,1617,0,0,0,0,0,0,0,'2',0,0,
    "0","",[
    0,10,4,0,'10','4','0'],[0,10,4,0,'10','4','0'],[
]).
text('black',488,382,3,1,1,90,66,1619,18,4,0,0,0,0,2,90,66,0,0,"",0,0,0,0,400,'',[
minilines(90,66,0,0,1,0,0,[
mini_line(72,18,4,0,0,0,[
str_block(0,72,18,4,0,-2,0,0,0,[
str_seg('black','Helvetica',0,103680,72,18,4,0,-2,0,0,0,0,0,
	"Bevelab:")])
]),
mini_line(40,18,4,0,0,0,[
str_block(0,40,18,4,0,-1,0,0,0,[
str_seg('black','Helvetica',0,103680,40,18,4,0,-1,0,0,0,0,0,
	"FSM")])
]),
mini_line(90,18,4,0,0,0,[
str_block(0,90,18,4,0,-1,0,0,0,[
str_seg('black','Helvetica',0,103680,90,18,4,0,-1,0,0,0,0,0,
	"Generation")])
])
])]).
oval('black','',330,162,374,202,0,2,1,1646,0,0,0,0,0,'2',0,[
]).
text('black',232,166,4,1,1,170,88,1647,18,4,0,0,0,0,2,170,88,0,0,"",0,0,0,0,184,'',[
minilines(170,88,0,0,1,0,0,[
mini_line(165,18,4,0,0,0,[
str_block(0,165,18,4,0,-1,0,0,0,[
str_seg('black','Helvetica',0,103680,165,18,4,0,-1,0,0,0,0,0,
	"Application program")])
]),
mini_line(170,18,4,0,0,0,[
str_block(0,170,18,4,0,-2,0,0,0,[
str_seg('black','Helvetica',0,103680,170,18,4,0,-2,0,0,0,0,0,
	"post C# compilation.")])
]),
mini_line(162,18,4,0,0,0,[
str_block(0,162,18,4,0,-1,0,0,0,[
str_seg('black','Helvetica',0,103680,162,18,4,0,-1,0,0,0,0,0,
	"One or more exe/dll")])
]),
mini_line(167,18,4,0,0,0,[
str_block(0,167,18,4,0,-2,0,0,0,[
str_seg('black','Helvetica',0,103680,167,18,4,0,-2,0,0,0,0,0,
	"portable assemblies.")])
])
])]).
polygon('black','',5,[
	104,548,132,484,236,484,212,548,104,548],0,2,1,0,1711,0,0,0,0,0,'2',0,
    "00",[
]).
text('black',752,174,3,1,1,149,66,1738,18,4,0,0,0,0,2,149,66,0,0,"",0,0,0,0,192,'',[
minilines(149,66,0,0,1,0,0,[
mini_line(132,18,4,0,0,0,[
str_block(0,132,18,4,0,-1,0,0,0,[
str_seg('black','Helvetica',0,103680,132,18,4,0,-1,0,0,0,0,0,
	"Canned libraries")])
]),
mini_line(149,18,4,0,0,0,[
str_block(0,149,18,4,0,-1,0,0,0,[
str_seg('black','Helvetica',0,103680,149,18,4,0,-1,0,0,0,0,0,
	"fed in or built in to")])
]),
mini_line(45,18,4,0,0,0,[
str_block(0,45,18,4,0,-1,0,0,0,[
str_seg('black','Helvetica',0,103680,45,18,4,0,-1,0,0,0,0,0,
	"Kiwic")])
])
])]).
text('black',552,222,1,1,1,10,22,1761,18,4,0,0,0,0,2,10,22,0,0,"",0,0,0,0,240,'',[
minilines(10,22,0,0,1,0,0,[
mini_line(10,18,4,0,0,0,[
str_block(0,10,18,4,0,-3,0,0,0,[
str_seg('black','Helvetica',0,103680,10,18,4,0,-3,0,0,0,0,0,
	"1")])
])
])]).
text('black',552,326,1,1,1,10,22,1763,18,4,0,0,0,0,2,10,22,0,0,"",0,0,0,0,344,'',[
minilines(10,22,0,0,1,0,0,[
mini_line(10,18,4,0,0,0,[
str_block(0,10,18,4,0,-1,0,0,0,[
str_seg('black','Helvetica',0,103680,10,18,4,0,-1,0,0,0,0,0,
	"2")])
])
])]).
text('black',552,426,1,1,1,10,22,1765,18,4,0,0,0,0,2,10,22,0,0,"",0,0,0,0,444,'',[
minilines(10,22,0,0,1,0,0,[
mini_line(10,18,4,0,0,0,[
str_block(0,10,18,4,0,-1,0,0,0,[
str_seg('black','Helvetica',0,103680,10,18,4,0,-1,0,0,0,0,0,
	"3")])
])
])]).
text('black',552,526,1,1,1,10,22,1767,18,4,0,0,0,0,2,10,22,0,0,"",0,0,0,0,544,'',[
minilines(10,22,0,0,1,0,0,[
mini_line(10,18,4,0,0,0,[
str_block(0,10,18,4,0,0,0,0,0,[
str_seg('black','Helvetica',0,103680,10,18,4,0,0,0,0,0,0,0,
	"4")])
])
])]).
rcbox('black','',424,168,564,244,0,2,1,0,16,2108,0,0,0,0,'2',0,[
]).
poly('black','',2,[
	374,234,424,234],1,2,1,2129,0,0,0,0,0,0,0,'2',0,0,
    "0","",[
    0,10,4,0,'10','4','0'],[0,10,4,0,'10','4','0'],[
]).
oval('black','',330,214,374,254,0,2,1,2130,0,0,0,0,0,'2',0,[
]).
oval('black','',616,166,660,206,0,2,1,2131,0,0,0,0,0,'2',0,[
]).
poly('black','',2,[
	616,230,566,230],1,2,1,2132,0,0,0,0,0,0,0,'2',0,0,
    "0","",[
    0,10,4,0,'10','4','0'],[0,10,4,0,'10','4','0'],[
]).
oval('black','',616,210,660,250,0,2,1,2133,0,0,0,0,0,'2',0,[
]).
poly('black','',2,[
	616,190,566,190],1,2,1,2137,0,0,0,0,0,0,0,'2',0,0,
    "0","",[
    0,10,4,0,'10','4','0'],[0,10,4,0,'10','4','0'],[
]).
rcbox('black','',424,272,564,348,0,2,1,0,16,2215,0,0,0,0,'2',0,[
]).
poly('black','',2,[
	496,348,496,376],1,2,1,2228,0,0,0,0,0,0,0,'2',0,0,
    "0","",[
    0,10,4,0,'10','4','0'],[0,10,4,0,'10','4','0'],[
]).
rcbox('black','',424,376,564,452,0,2,1,0,16,2231,0,0,0,0,'2',0,[
]).
poly('black','',2,[
	496,452,496,480],1,2,1,2233,0,0,0,0,0,0,0,'2',0,0,
    "0","",[
    0,10,4,0,'10','4','0'],[0,10,4,0,'10','4','0'],[
]).
rcbox('black','',424,480,564,556,0,2,1,0,16,2236,0,0,0,0,'2',0,[
]).
rcbox('black','',588,452,696,528,0,2,1,0,16,2241,0,0,0,0,'2',0,[
]).
text('black',488,490,3,1,1,113,51,2256,14,3,0,0,0,0,-65534,113,51,0,0,"",0,0,0,0,504,'',[
minilines(113,51,0,0,1,0,0,[
mini_line(78,14,3,0,0,0,[
str_block(0,78,14,3,0,-1,0,0,0,[
str_seg('black','Helvetica',0,80640,78,14,3,0,-1,0,0,0,0,0,
	"Restructure:")])
]),
mini_line(113,14,3,0,0,0,[
str_block(0,113,14,3,0,0,0,0,0,[
str_seg('black','Helvetica',0,80640,113,14,3,0,0,0,0,0,0,0,
	"ALU and Memory")])
]),
mini_line(86,14,3,0,0,0,[
str_block(0,86,14,3,0,-1,0,0,0,[
str_seg('black','Helvetica',0,80640,86,14,3,0,-1,0,0,0,0,0,
	"port mapping.")])
])
])]).
rcbox('black','',256,480,396,556,0,2,1,0,16,2272,0,0,0,0,'2',0,[
]).
text('black',168,422,2,1,1,58,44,2282,18,4,0,0,0,0,2,58,44,0,0,"",0,0,0,0,440,'',[
minilines(58,44,0,0,1,0,0,[
mini_line(41,18,4,0,0,0,[
str_block(0,41,18,4,0,-1,0,0,0,[
str_seg('black','Helvetica',0,103680,41,18,4,0,-1,0,0,0,0,0,
	"VCD")])
]),
mini_line(58,18,4,0,0,0,[
str_block(0,58,18,4,0,0,0,0,0,[
str_seg('black','Helvetica',0,103680,58,18,4,0,0,0,0,0,0,0,
	"Output")])
])
])]).
polygon('black','',5,[
	104,472,132,408,236,408,212,472,104,472],0,2,1,0,2283,0,0,0,0,0,'2',0,
    "00",[
]).
text('black',208,574,2,1,1,58,44,2284,18,4,0,0,0,0,2,58,44,0,0,"",0,0,0,0,592,'',[
minilines(58,44,0,0,1,0,0,[
mini_line(53,18,4,0,0,0,[
str_block(0,53,18,4,0,-1,0,0,0,[
str_seg('black','Helvetica',0,103680,53,18,4,0,-1,0,0,0,0,0,
	"Profile")])
]),
mini_line(58,18,4,0,0,0,[
str_block(0,58,18,4,0,0,0,0,0,[
str_seg('black','Helvetica',0,103680,58,18,4,0,0,0,0,0,0,0,
	"Output")])
])
])]).
oval('black','',720,548,848,612,0,2,1,2288,0,0,0,0,0,'2',0,[
]).
oval('black','',724,460,844,528,0,2,1,2290,0,0,0,0,0,'2',0,[
]).
rcbox('black','',588,540,696,616,0,2,1,0,16,2324,0,0,0,0,'2',0,[
]).
poly('black','',2,[
	424,516,396,516],1,2,1,2327,1,0,0,0,0,0,0,'2',0,0,
    "0","",[
    0,10,4,0,'10','4','0'],[0,10,4,0,'10','4','0'],[
]).
poly('black','',2,[
	564,524,588,552],1,2,1,2328,1,0,0,0,0,0,0,'2',0,0,
    "0","",[
    0,10,4,0,'10','4','0'],[0,10,4,0,'10','4','0'],[
]).
poly('black','',2,[
	696,580,720,580],1,2,1,2329,1,0,0,0,0,0,0,'2',0,0,
    "0","",[
    0,10,4,0,'10','4','0'],[0,10,4,0,'10','4','0'],[
]).
poly('black','',2,[
	252,520,228,520],1,2,1,2330,1,0,0,0,0,0,0,'2',0,0,
    "0","",[
    0,10,4,0,'10','4','0'],[0,10,4,0,'10','4','0'],[
]).
poly('black','',2,[
	564,496,588,496],1,2,1,2331,1,0,0,0,0,0,0,'2',0,0,
    "0","",[
    0,10,4,0,'10','4','0'],[0,10,4,0,'10','4','0'],[
]).
poly('black','',2,[
	696,492,720,492],1,2,1,2334,1,0,0,0,0,0,0,'2',0,0,
    "0","",[
    0,10,4,0,'10','4','0'],[0,10,4,0,'10','4','0'],[
]).
poly('black','',2,[
	256,484,220,452],1,2,1,2339,1,0,0,0,0,0,0,'2',0,0,
    "0","",[
    0,10,4,0,'10','4','0'],[0,10,4,0,'10','4','0'],[
]).
poly('black','',2,[
	260,556,244,572],1,2,1,2341,1,0,0,0,0,0,0,'2',0,0,
    "0","",[
    0,10,4,0,'10','4','0'],[0,10,4,0,'10','4','0'],[
]).
oval('black','',160,560,256,628,0,2,1,2345,0,0,0,0,0,'2',0,[
]).
oval('black','',444,580,548,640,0,2,1,2347,0,0,0,0,0,'2',0,[
]).
text('black',496,586,3,1,1,58,51,2351,14,3,0,0,0,0,-65534,58,51,0,0,"",0,0,0,0,600,'',[
minilines(58,51,0,0,1,0,0,[
mini_line(58,14,3,0,0,0,[
str_block(0,58,14,3,0,0,0,0,0,[
str_seg('black','Helvetica',0,80640,58,14,3,0,0,0,0,0,0,0,
	"Predictor")])
]),
mini_line(44,14,3,0,0,0,[
str_block(0,44,14,3,0,-3,0,0,0,[
str_seg('black','Helvetica',0,80640,44,14,3,0,-3,0,0,0,0,0,
	"Graph ")])
]),
mini_line(43,14,3,0,0,0,[
str_block(0,43,14,3,0,0,0,0,0,[
str_seg('black','Helvetica',0,80640,43,14,3,0,0,0,0,0,0,0,
	"Output")])
])
])]).
poly('black','',2,[
	496,556,496,580],1,2,1,2355,0,0,0,0,0,0,0,'2',0,0,
    "0","",[
    0,10,4,0,'10','4','0'],[0,10,4,0,'10','4','0'],[
]).
text('black',352,222,1,1,1,24,22,2358,18,4,0,0,0,0,-65534,24,22,0,0,"",0,0,0,0,240,'',[
minilines(24,22,0,0,1,0,0,[
mini_line(24,18,4,0,0,0,[
str_block(0,24,18,4,0,-1,0,0,0,[
str_seg('black','Helvetica',0,103680,24,18,4,0,-1,0,0,0,0,0,
	".dll")])
])
])]).
text('black',352,170,1,1,1,35,22,2360,18,4,0,0,0,0,-65534,35,22,0,0,"",0,0,0,0,188,'',[
minilines(35,22,0,0,1,0,0,[
mini_line(35,18,4,0,0,0,[
str_block(0,35,18,4,0,-1,0,0,0,[
str_seg('black','Helvetica',0,103680,35,18,4,0,-1,0,0,0,0,0,
	".exe")])
])
])]).
text('black',636,174,1,1,1,24,22,2362,18,4,0,0,0,0,-65534,24,22,0,0,"",0,0,0,0,192,'',[
minilines(24,22,0,0,1,0,0,[
mini_line(24,18,4,0,0,0,[
str_block(0,24,18,4,0,-1,0,0,0,[
str_seg('black','Helvetica',0,103680,24,18,4,0,-1,0,0,0,0,0,
	".dll")])
])
])]).
text('black',636,218,1,1,1,24,22,2364,18,4,0,0,0,0,-65534,24,22,0,0,"",0,0,0,0,236,'',[
minilines(24,22,0,0,1,0,0,[
mini_line(24,18,4,0,0,0,[
str_block(0,24,18,4,0,-1,0,0,0,[
str_seg('black','Helvetica',0,103680,24,18,4,0,-1,0,0,0,0,0,
	".dll")])
])
])]).
text('black',380,530,1,1,1,19,22,2378,18,4,0,0,0,0,-65534,19,22,0,0,"",0,0,0,0,548,'',[
minilines(19,22,0,0,1,0,0,[
mini_line(19,18,4,0,0,0,[
str_block(0,19,18,4,0,-1,0,0,0,[
str_seg('black','Helvetica',0,103680,19,18,4,0,-1,0,0,0,0,0,
	"5a")])
])
])]).
text('black',676,502,1,1,1,21,22,2380,18,4,0,0,0,0,-65534,21,22,0,0,"",0,0,0,0,520,'',[
minilines(21,22,0,0,1,0,0,[
mini_line(21,18,4,0,0,0,[
str_block(0,21,18,4,0,-1,0,0,0,[
str_seg('black','Helvetica',0,103680,21,18,4,0,-1,0,0,0,0,0,
	"5b")])
])
])]).
text('black',532,598,1,1,1,21,22,2383,18,4,0,0,0,0,-65534,21,22,0,0,"",0,0,0,0,616,'',[
minilines(21,22,0,0,1,0,0,[
mini_line(21,18,4,0,0,0,[
str_block(0,21,18,4,0,-1,0,0,0,[
str_seg('black','Helvetica',0,103680,21,18,4,0,-1,0,0,0,0,0,
	"5d")])
])
])]).
text('black',680,594,1,1,1,20,22,2386,18,4,0,0,0,0,-65534,20,22,0,0,"",0,0,0,0,612,'',[
minilines(20,22,0,0,1,0,0,[
mini_line(20,18,4,0,0,0,[
str_block(0,20,18,4,0,-1,0,0,0,[
str_seg('black','Helvetica',0,103680,20,18,4,0,-1,0,0,0,0,0,
	"5c")])
])
])]).
