%!PS-Adobe-3.0 EPSF-3.0
%%BoundingBox: 56 430 478 702
%%Title: base00
%%CreationDate: Sun Jul 12 17:04:24 2015
%%Creator: Tgif-4.2.5-QPL written by William Chia-Wei Cheng (bill.cheng@acm.org)
%%ProducedBy: (unknown)
%%Pages: 1
%%DocumentFonts: (atend)
%%EndComments
%%BeginProlog

/tgifdict 56 dict def
tgifdict begin

/tgifellipsedict 6 dict def
tgifellipsedict /mtrx matrix put

/TGEL % tgifellipse
 { tgifellipsedict begin
      /yrad exch def
      /xrad exch def
      /y exch def
      /x exch def
      /savematrix mtrx currentmatrix def
      x y translate
      xrad yrad scale
      0 0 1 0 360 arc
      savematrix setmatrix
   end
 } def

/tgifarrowtipdict 8 dict def
tgifarrowtipdict /mtrx matrix put

/TGAT % tgifarrowtip
 { tgifarrowtipdict begin
      /dy exch def
      /dx exch def
      /h exch def
      /w exch def
      /y exch def
      /x exch def
      /savematrix mtrx currentmatrix def
      x y translate
      dy dx atan rotate
      0 0 moveto
      w neg h lineto
      w neg h neg lineto
      savematrix setmatrix
   end
 } def

/TGMAX
 { exch dup 3 1 roll exch dup 3 1 roll gt { pop } { exch pop } ifelse
 } def
/TGMIN
 { exch dup 3 1 roll exch dup 3 1 roll lt { pop } { exch pop } ifelse
 } def
/TGSW { stringwidth pop } def
/tgifstrw 0 def

/bd { bind def } bind def

/GS { gsave } bd
/GR { grestore } bd
/NP { newpath } bd
/CP { closepath } bd
/CHP { charpath } bd
/CT { curveto } bd
/L { lineto } bd
/RL { rlineto } bd
/M { moveto } bd
/RM { rmoveto } bd
/S { stroke } bd
/F { fill } bd
/TR { translate } bd
/RO { rotate } bd
/SC { scale } bd
/MU { mul } bd
/DI { div } bd
/DU { dup } bd
/NE { neg } bd
/AD { add } bd
/SU { sub } bd
/PO { pop } bd
/EX { exch } bd
/CO { concat } bd
/CL { clip } bd
/EC { eoclip } bd
/EF { eofill } bd
/IM { image } bd
/IMM { imagemask } bd
/ARY { array } bd
/SG { setgray } bd
/RG { setrgbcolor } bd
/SD { setdash } bd
/W { setlinewidth } bd
/SM { setmiterlimit } bd
/SLC { setlinecap } bd
/SLJ { setlinejoin } bd
/SH { show } bd
/FF { findfont } bd
/MS { makefont setfont } bd
/AR { arcto 4 {pop} repeat } bd
/CURP { currentpoint } bd
/FLAT { flattenpath strokepath clip newpath } bd
/TGSM { tgiforigctm setmatrix } def
/TGRM { savematrix setmatrix } def

end

%%EndProlog
%%Page: 1 1

%%PageBoundingBox: 56 430 478 702
tgifdict begin
/tgifsavedpage save def

1 SM
1 W

0 SG

72 0 MU 72 11 MU TR
72 128 DI 100.000 MU 100 DI DU NE SC

GS

/tgiforigctm matrix currentmatrix def

% TEXT
NP
0 SG
   GS
      1 W
      488 200 M
      GS
        GS
        0
            /Helvetica FF [18 0 0 -18 0 0] MS
            (KiwiC) TGSW 
        AD
        GR
      2 DI NE 0 RM
            0 SG
            /Helvetica FF [18 0 0 -18 0 0] MS
            (KiwiC) SH
      GR
      0 22 RM
      GS
        GS
        0
            /Helvetica FF [18 0 0 -18 0 0] MS
            (Front End) TGSW 
        AD
        GR
      2 DI NE 0 RM
            0 SG
            /Helvetica FF [18 0 0 -18 0 0] MS
            (Front End) SH
      GR
   GR

% TEXT
NP
0 SG
   GS
      1 W
      640 476 M
      GS
        GS
        0
            /Helvetica FF [18 0 0 -18 0 0] MS
            (Verilog) TGSW 
        AD
        GR
      2 DI NE 0 RM
            0 SG
            /Helvetica FF [18 0 0 -18 0 0] MS
            (Verilog) SH
      GR
      0 22 RM
      GS
        GS
        0
            /Helvetica FF [18 0 0 -18 0 0] MS
            (Conversion) TGSW 
        AD
        GR
      2 DI NE 0 RM
            0 SG
            /Helvetica FF [18 0 0 -18 0 0] MS
            (Conversion) SH
      GR
   GR

% TEXT
NP
0 SG
   GS
      1 W
      644 564 M
      GS
        GS
        0
            /Helvetica FF [18 0 0 -18 0 0] MS
            (SystemC) TGSW 
        AD
        GR
      2 DI NE 0 RM
            0 SG
            /Helvetica FF [18 0 0 -18 0 0] MS
            (SystemC) SH
      GR
      0 22 RM
      GS
        GS
        0
            /Helvetica FF [18 0 0 -18 0 0] MS
            (Conversion) TGSW 
        AD
        GR
      2 DI NE 0 RM
            0 SG
            /Helvetica FF [18 0 0 -18 0 0] MS
            (Conversion) SH
      GR
   GR

% TEXT
NP
0 SG
   GS
      1 W
      788 576 M
      GS
        GS
        0
            /Helvetica FF [18 0 0 -18 0 0] MS
            (SystemC) TGSW 
        AD
        GR
      2 DI NE 0 RM
            0 SG
            /Helvetica FF [18 0 0 -18 0 0] MS
            (SystemC) SH
      GR
      0 22 RM
      GS
        GS
        0
            /Helvetica FF [18 0 0 -18 0 0] MS
            (\(C++\)) TGSW 
        AD
        GR
      2 DI NE 0 RM
            0 SG
            /Helvetica FF [18 0 0 -18 0 0] MS
            (\(C++\)) SH
      GR
   GR

% TEXT
NP
0 SG
   GS
      1 W
      784 492 M
      GS
        GS
        0
            /Helvetica FF [18 0 0 -18 0 0] MS
            (RTL Output) TGSW 
        AD
        GR
      2 DI NE 0 RM
            0 SG
            /Helvetica FF [18 0 0 -18 0 0] MS
            (RTL Output) SH
      GR
      0 22 RM
      GS
        GS
        0
            /Helvetica FF [18 0 0 -18 0 0] MS
            (\(Verilog\)) TGSW 
        AD
        GR
      2 DI NE 0 RM
            0 SG
            /Helvetica FF [18 0 0 -18 0 0] MS
            (\(Verilog\)) SH
      GR
   GR

% POLY/OPEN-SPLINE
0 SG
GS
   NP
      374 182 M
      0 50 atan DU cos 10.000 MU 424 exch SU
      exch sin 10.000 MU 182 exch SU L
   TGSM
   2 W
   S
   1 W
GR
GS
   TGSM
   NP
      424 182 10.000 4.000 50 0 TGAT
   1 SG CP F
   0 SG
   NP
      424 182 10.000 4.000 50 0 TGAT
   CP F
GR

% TEXT
NP
0 SG
   GS
      1 W
      492 292 M
      GS
        GS
        0
            /Helvetica FF [14 0 0 -14 0 0] MS
            (Repack: Pointer) TGSW 
        AD
        GR
      2 DI NE 0 RM
            0 SG
            /Helvetica FF [14 0 0 -14 0 0] MS
            (Repack: Pointer) SH
      GR
      0 17 RM
      GS
        GS
        0
            /Helvetica FF [14 0 0 -14 0 0] MS
            (disambiguation and) TGSW 
        AD
        GR
      2 DI NE 0 RM
            0 SG
            /Helvetica FF [14 0 0 -14 0 0] MS
            (disambiguation and) SH
      GR
      0 17 RM
      GS
        GS
        0
            /Helvetica FF [14 0 0 -14 0 0] MS
            (Array Partitioning) TGSW 
        AD
        GR
      2 DI NE 0 RM
            0 SG
            /Helvetica FF [14 0 0 -14 0 0] MS
            (Array Partitioning) SH
      GR
   GR

% TEXT
NP
0 SG
   GS
      1 W
      328 508 M
      GS
        GS
        0
            /Helvetica FF [18 0 0 -18 0 0] MS
            (Diosim) TGSW 
        AD
        GR
      2 DI NE 0 RM
            0 SG
            /Helvetica FF [18 0 0 -18 0 0] MS
            (Diosim) SH
      GR
      0 22 RM
      GS
        GS
        0
            /Helvetica FF [18 0 0 -18 0 0] MS
            (Simulator) TGSW 
        AD
        GR
      2 DI NE 0 RM
            0 SG
            /Helvetica FF [18 0 0 -18 0 0] MS
            (Simulator) SH
      GR
      0 22 RM
      GS
        GS
        0
            0
        AD
        GR
      2 DI NE 0 RM
      GR
   GR

% TEXT
NP
0 SG
   GS
      1 W
      168 516 M
      GS
        GS
        0
            /Helvetica FF [18 0 0 -18 0 0] MS
            (Console) TGSW 
        AD
        GR
      2 DI NE 0 RM
            0 SG
            /Helvetica FF [18 0 0 -18 0 0] MS
            (Console) SH
      GR
      0 22 RM
      GS
        GS
        0
            /Helvetica FF [18 0 0 -18 0 0] MS
            (Output) TGSW 
        AD
        GR
      2 DI NE 0 RM
            0 SG
            /Helvetica FF [18 0 0 -18 0 0] MS
            (Output) SH
      GR
   GR

% POLY/OPEN-SPLINE
0 SG
GS
   NP
      496 244 M
      28 0 atan DU cos 10.000 MU 496 exch SU
      exch sin 10.000 MU 272 exch SU L
   TGSM
   2 W
   S
   1 W
GR
GS
   TGSM
   NP
      496 272 10.000 4.000 0 28 TGAT
   1 SG CP F
   0 SG
   NP
      496 272 10.000 4.000 0 28 TGAT
   CP F
GR

% TEXT
NP
0 SG
   GS
      1 W
      488 400 M
      GS
        GS
        0
            /Helvetica FF [18 0 0 -18 0 0] MS
            (Bevelab:) TGSW 
        AD
        GR
      2 DI NE 0 RM
            0 SG
            /Helvetica FF [18 0 0 -18 0 0] MS
            (Bevelab:) SH
      GR
      0 22 RM
      GS
        GS
        0
            /Helvetica FF [18 0 0 -18 0 0] MS
            (FSM) TGSW 
        AD
        GR
      2 DI NE 0 RM
            0 SG
            /Helvetica FF [18 0 0 -18 0 0] MS
            (FSM) SH
      GR
      0 22 RM
      GS
        GS
        0
            /Helvetica FF [18 0 0 -18 0 0] MS
            (Generation) TGSW 
        AD
        GR
      2 DI NE 0 RM
            0 SG
            /Helvetica FF [18 0 0 -18 0 0] MS
            (Generation) SH
      GR
   GR

% OVAL
0 SG
GS
   GS
      NP 352 182 22 20 TGEL
      2 W
      S
   GR
GR

% TEXT
NP
0 SG
   GS
      1 W
      232 184 M
      GS
        GS
        0
            /Helvetica FF [18 0 0 -18 0 0] MS
            (Application program) TGSW 
        AD
        GR
      2 DI NE 0 RM
            0 SG
            /Helvetica FF [18 0 0 -18 0 0] MS
            (Application program) SH
      GR
      0 22 RM
      GS
        GS
        0
            /Helvetica FF [18 0 0 -18 0 0] MS
            (post C# compilation.) TGSW 
        AD
        GR
      2 DI NE 0 RM
            0 SG
            /Helvetica FF [18 0 0 -18 0 0] MS
            (post C# compilation.) SH
      GR
      0 22 RM
      GS
        GS
        0
            /Helvetica FF [18 0 0 -18 0 0] MS
            (One or more exe/dll) TGSW 
        AD
        GR
      2 DI NE 0 RM
            0 SG
            /Helvetica FF [18 0 0 -18 0 0] MS
            (One or more exe/dll) SH
      GR
      0 22 RM
      GS
        GS
        0
            /Helvetica FF [18 0 0 -18 0 0] MS
            (portable assemblies.) TGSW 
        AD
        GR
      2 DI NE 0 RM
            0 SG
            /Helvetica FF [18 0 0 -18 0 0] MS
            (portable assemblies.) SH
      GR
   GR

% POLYGON/CLOSED-SPLINE
0 SG
NP
   104 548 M
   132 484 L
   236 484 L
   212 548 L
CP
GS
GR
GS
   2 W
   S
GR

% TEXT
NP
0 SG
   GS
      1 W
      752 192 M
      GS
        GS
        0
            /Helvetica FF [18 0 0 -18 0 0] MS
            (Canned libraries) TGSW 
        AD
        GR
      2 DI NE 0 RM
            0 SG
            /Helvetica FF [18 0 0 -18 0 0] MS
            (Canned libraries) SH
      GR
      0 22 RM
      GS
        GS
        0
            /Helvetica FF [18 0 0 -18 0 0] MS
            (fed in or built in to) TGSW 
        AD
        GR
      2 DI NE 0 RM
            0 SG
            /Helvetica FF [18 0 0 -18 0 0] MS
            (fed in or built in to) SH
      GR
      0 22 RM
      GS
        GS
        0
            /Helvetica FF [18 0 0 -18 0 0] MS
            (Kiwic) TGSW 
        AD
        GR
      2 DI NE 0 RM
            0 SG
            /Helvetica FF [18 0 0 -18 0 0] MS
            (Kiwic) SH
      GR
   GR

% TEXT
NP
0 SG
   GS
      1 W
      552 240 M
      GS
        GS
        0
            /Helvetica FF [18 0 0 -18 0 0] MS
            (1) TGSW 
        AD
        GR
      2 DI NE 0 RM
            0 SG
            /Helvetica FF [18 0 0 -18 0 0] MS
            (1) SH
      GR
   GR

% TEXT
NP
0 SG
   GS
      1 W
      552 344 M
      GS
        GS
        0
            /Helvetica FF [18 0 0 -18 0 0] MS
            (2) TGSW 
        AD
        GR
      2 DI NE 0 RM
            0 SG
            /Helvetica FF [18 0 0 -18 0 0] MS
            (2) SH
      GR
   GR

% TEXT
NP
0 SG
   GS
      1 W
      552 444 M
      GS
        GS
        0
            /Helvetica FF [18 0 0 -18 0 0] MS
            (3) TGSW 
        AD
        GR
      2 DI NE 0 RM
            0 SG
            /Helvetica FF [18 0 0 -18 0 0] MS
            (3) SH
      GR
   GR

% TEXT
NP
0 SG
   GS
      1 W
      552 544 M
      GS
        GS
        0
            /Helvetica FF [18 0 0 -18 0 0] MS
            (4) TGSW 
        AD
        GR
      2 DI NE 0 RM
            0 SG
            /Helvetica FF [18 0 0 -18 0 0] MS
            (4) SH
      GR
   GR

% RCBOX
0 SG
GS
   GS
      NP
         548 168 M
         564 168 564 244 16 AR
         564 228 L
         564 244 424 244 16 AR
         440 244 L
         424 244 424 168 16 AR
         424 184 L
         424 168 564 168 16 AR
      CP
      2 W
      S
   GR
GR

% POLY/OPEN-SPLINE
0 SG
GS
   NP
      374 234 M
      0 50 atan DU cos 10.000 MU 424 exch SU
      exch sin 10.000 MU 234 exch SU L
   TGSM
   2 W
   S
   1 W
GR
GS
   TGSM
   NP
      424 234 10.000 4.000 50 0 TGAT
   1 SG CP F
   0 SG
   NP
      424 234 10.000 4.000 50 0 TGAT
   CP F
GR

% OVAL
0 SG
GS
   GS
      NP 352 234 22 20 TGEL
      2 W
      S
   GR
GR

% OVAL
0 SG
GS
   GS
      NP 638 186 22 20 TGEL
      2 W
      S
   GR
GR

% POLY/OPEN-SPLINE
0 SG
GS
   NP
      616 230 M
      0 -50 atan DU cos 10.000 MU 566 exch SU
      exch sin 10.000 MU 230 exch SU L
   TGSM
   2 W
   S
   1 W
GR
GS
   TGSM
   NP
      566 230 10.000 4.000 -50 0 TGAT
   1 SG CP F
   0 SG
   NP
      566 230 10.000 4.000 -50 0 TGAT
   CP F
GR

% OVAL
0 SG
GS
   GS
      NP 638 230 22 20 TGEL
      2 W
      S
   GR
GR

% POLY/OPEN-SPLINE
0 SG
GS
   NP
      616 190 M
      0 -50 atan DU cos 10.000 MU 566 exch SU
      exch sin 10.000 MU 190 exch SU L
   TGSM
   2 W
   S
   1 W
GR
GS
   TGSM
   NP
      566 190 10.000 4.000 -50 0 TGAT
   1 SG CP F
   0 SG
   NP
      566 190 10.000 4.000 -50 0 TGAT
   CP F
GR

% RCBOX
0 SG
GS
   GS
      NP
         548 272 M
         564 272 564 348 16 AR
         564 332 L
         564 348 424 348 16 AR
         440 348 L
         424 348 424 272 16 AR
         424 288 L
         424 272 564 272 16 AR
      CP
      2 W
      S
   GR
GR

% POLY/OPEN-SPLINE
0 SG
GS
   NP
      496 348 M
      28 0 atan DU cos 10.000 MU 496 exch SU
      exch sin 10.000 MU 376 exch SU L
   TGSM
   2 W
   S
   1 W
GR
GS
   TGSM
   NP
      496 376 10.000 4.000 0 28 TGAT
   1 SG CP F
   0 SG
   NP
      496 376 10.000 4.000 0 28 TGAT
   CP F
GR

% RCBOX
0 SG
GS
   GS
      NP
         548 376 M
         564 376 564 452 16 AR
         564 436 L
         564 452 424 452 16 AR
         440 452 L
         424 452 424 376 16 AR
         424 392 L
         424 376 564 376 16 AR
      CP
      2 W
      S
   GR
GR

% POLY/OPEN-SPLINE
0 SG
GS
   NP
      496 452 M
      28 0 atan DU cos 10.000 MU 496 exch SU
      exch sin 10.000 MU 480 exch SU L
   TGSM
   2 W
   S
   1 W
GR
GS
   TGSM
   NP
      496 480 10.000 4.000 0 28 TGAT
   1 SG CP F
   0 SG
   NP
      496 480 10.000 4.000 0 28 TGAT
   CP F
GR

% RCBOX
0 SG
GS
   GS
      NP
         548 480 M
         564 480 564 556 16 AR
         564 540 L
         564 556 424 556 16 AR
         440 556 L
         424 556 424 480 16 AR
         424 496 L
         424 480 564 480 16 AR
      CP
      2 W
      S
   GR
GR

% RCBOX
0 SG
GS
   GS
      NP
         680 452 M
         696 452 696 528 16 AR
         696 512 L
         696 528 588 528 16 AR
         604 528 L
         588 528 588 452 16 AR
         588 468 L
         588 452 696 452 16 AR
      CP
      2 W
      S
   GR
GR

% TEXT
NP
0 SG
   GS
      1 W
      488 504 M
      GS
        GS
        0
            /Helvetica FF [14 0 0 -14 0 0] MS
            (Restructure:) TGSW 
        AD
        GR
      2 DI NE 0 RM
            0 SG
            /Helvetica FF [14 0 0 -14 0 0] MS
            (Restructure:) SH
      GR
      0 17 RM
      GS
        GS
        0
            /Helvetica FF [14 0 0 -14 0 0] MS
            (ALU and Memory) TGSW 
        AD
        GR
      2 DI NE 0 RM
            0 SG
            /Helvetica FF [14 0 0 -14 0 0] MS
            (ALU and Memory) SH
      GR
      0 17 RM
      GS
        GS
        0
            /Helvetica FF [14 0 0 -14 0 0] MS
            (port mapping.) TGSW 
        AD
        GR
      2 DI NE 0 RM
            0 SG
            /Helvetica FF [14 0 0 -14 0 0] MS
            (port mapping.) SH
      GR
   GR

% RCBOX
0 SG
GS
   GS
      NP
         380 480 M
         396 480 396 556 16 AR
         396 540 L
         396 556 256 556 16 AR
         272 556 L
         256 556 256 480 16 AR
         256 496 L
         256 480 396 480 16 AR
      CP
      2 W
      S
   GR
GR

% TEXT
NP
0 SG
   GS
      1 W
      168 440 M
      GS
        GS
        0
            /Helvetica FF [18 0 0 -18 0 0] MS
            (VCD) TGSW 
        AD
        GR
      2 DI NE 0 RM
            0 SG
            /Helvetica FF [18 0 0 -18 0 0] MS
            (VCD) SH
      GR
      0 22 RM
      GS
        GS
        0
            /Helvetica FF [18 0 0 -18 0 0] MS
            (Output) TGSW 
        AD
        GR
      2 DI NE 0 RM
            0 SG
            /Helvetica FF [18 0 0 -18 0 0] MS
            (Output) SH
      GR
   GR

% POLYGON/CLOSED-SPLINE
0 SG
NP
   104 472 M
   132 408 L
   236 408 L
   212 472 L
CP
GS
GR
GS
   2 W
   S
GR

% TEXT
NP
0 SG
   GS
      1 W
      208 592 M
      GS
        GS
        0
            /Helvetica FF [18 0 0 -18 0 0] MS
            (Profile) TGSW 
        AD
        GR
      2 DI NE 0 RM
            0 SG
            /Helvetica FF [18 0 0 -18 0 0] MS
            (Profile) SH
      GR
      0 22 RM
      GS
        GS
        0
            /Helvetica FF [18 0 0 -18 0 0] MS
            (Output) TGSW 
        AD
        GR
      2 DI NE 0 RM
            0 SG
            /Helvetica FF [18 0 0 -18 0 0] MS
            (Output) SH
      GR
   GR

% OVAL
0 SG
GS
   GS
      NP 784 580 64 32 TGEL
      2 W
      S
   GR
GR

% OVAL
0 SG
GS
   GS
      NP 784 494 60 34 TGEL
      2 W
      S
   GR
GR

% RCBOX
0 SG
GS
   GS
      NP
         680 540 M
         696 540 696 616 16 AR
         696 600 L
         696 616 588 616 16 AR
         604 616 L
         588 616 588 540 16 AR
         588 556 L
         588 540 696 540 16 AR
      CP
      2 W
      S
   GR
GR

% POLY/OPEN-SPLINE
0 SG
GS
   NP
      424 516 M
      0 -28 atan DU cos 10.000 MU 396 exch SU
      exch sin 10.000 MU 516 exch SU L
   TGSM
   2 W
   S
   1 W
GR
GS
   TGSM
   NP
      396 516 10.000 4.000 -28 0 TGAT
   1 SG CP F
   0 SG
   NP
      396 516 10.000 4.000 -28 0 TGAT
   CP F
GR

% POLY/OPEN-SPLINE
0 SG
GS
   NP
      564 524 M
      28 24 atan DU cos 10.000 MU 588 exch SU
      exch sin 10.000 MU 552 exch SU L
   TGSM
   2 W
   S
   1 W
GR
GS
   TGSM
   NP
      588 552 10.000 4.000 24 28 TGAT
   1 SG CP F
   0 SG
   NP
      588 552 10.000 4.000 24 28 TGAT
   CP F
GR

% POLY/OPEN-SPLINE
0 SG
GS
   NP
      696 580 M
      0 24 atan DU cos 10.000 MU 720 exch SU
      exch sin 10.000 MU 580 exch SU L
   TGSM
   2 W
   S
   1 W
GR
GS
   TGSM
   NP
      720 580 10.000 4.000 24 0 TGAT
   1 SG CP F
   0 SG
   NP
      720 580 10.000 4.000 24 0 TGAT
   CP F
GR

% POLY/OPEN-SPLINE
0 SG
GS
   NP
      252 520 M
      0 -24 atan DU cos 10.000 MU 228 exch SU
      exch sin 10.000 MU 520 exch SU L
   TGSM
   2 W
   S
   1 W
GR
GS
   TGSM
   NP
      228 520 10.000 4.000 -24 0 TGAT
   1 SG CP F
   0 SG
   NP
      228 520 10.000 4.000 -24 0 TGAT
   CP F
GR

% POLY/OPEN-SPLINE
0 SG
GS
   NP
      564 496 M
      0 24 atan DU cos 10.000 MU 588 exch SU
      exch sin 10.000 MU 496 exch SU L
   TGSM
   2 W
   S
   1 W
GR
GS
   TGSM
   NP
      588 496 10.000 4.000 24 0 TGAT
   1 SG CP F
   0 SG
   NP
      588 496 10.000 4.000 24 0 TGAT
   CP F
GR

% POLY/OPEN-SPLINE
0 SG
GS
   NP
      696 492 M
      0 24 atan DU cos 10.000 MU 720 exch SU
      exch sin 10.000 MU 492 exch SU L
   TGSM
   2 W
   S
   1 W
GR
GS
   TGSM
   NP
      720 492 10.000 4.000 24 0 TGAT
   1 SG CP F
   0 SG
   NP
      720 492 10.000 4.000 24 0 TGAT
   CP F
GR

% POLY/OPEN-SPLINE
0 SG
GS
   NP
      256 484 M
      -32 -36 atan DU cos 10.000 MU 220 exch SU
      exch sin 10.000 MU 452 exch SU L
   TGSM
   2 W
   S
   1 W
GR
GS
   TGSM
   NP
      220 452 10.000 4.000 -36 -32 TGAT
   1 SG CP F
   0 SG
   NP
      220 452 10.000 4.000 -36 -32 TGAT
   CP F
GR

% POLY/OPEN-SPLINE
0 SG
GS
   NP
      260 556 M
      16 -16 atan DU cos 10.000 MU 244 exch SU
      exch sin 10.000 MU 572 exch SU L
   TGSM
   2 W
   S
   1 W
GR
GS
   TGSM
   NP
      244 572 10.000 4.000 -16 16 TGAT
   1 SG CP F
   0 SG
   NP
      244 572 10.000 4.000 -16 16 TGAT
   CP F
GR

% OVAL
0 SG
GS
   GS
      NP 208 594 48 34 TGEL
      2 W
      S
   GR
GR

% OVAL
0 SG
GS
   GS
      NP 496 610 52 30 TGEL
      2 W
      S
   GR
GR

% TEXT
NP
0 SG
   GS
      1 W
      496 600 M
      GS
        GS
        0
            /Helvetica FF [14 0 0 -14 0 0] MS
            (Predictor) TGSW 
        AD
        GR
      2 DI NE 0 RM
            0 SG
            /Helvetica FF [14 0 0 -14 0 0] MS
            (Predictor) SH
      GR
      0 17 RM
      GS
        GS
        0
            /Helvetica FF [14 0 0 -14 0 0] MS
            (Graph ) TGSW 
        AD
        GR
      2 DI NE 0 RM
            0 SG
            /Helvetica FF [14 0 0 -14 0 0] MS
            (Graph ) SH
      GR
      0 17 RM
      GS
        GS
        0
            /Helvetica FF [14 0 0 -14 0 0] MS
            (Output) TGSW 
        AD
        GR
      2 DI NE 0 RM
            0 SG
            /Helvetica FF [14 0 0 -14 0 0] MS
            (Output) SH
      GR
   GR

% POLY/OPEN-SPLINE
0 SG
GS
   NP
      496 556 M
      24 0 atan DU cos 10.000 MU 496 exch SU
      exch sin 10.000 MU 580 exch SU L
   TGSM
   2 W
   S
   1 W
GR
GS
   TGSM
   NP
      496 580 10.000 4.000 0 24 TGAT
   1 SG CP F
   0 SG
   NP
      496 580 10.000 4.000 0 24 TGAT
   CP F
GR

% TEXT
NP
0 SG
   GS
      1 W
      352 240 M
      GS
        GS
        0
            /Helvetica FF [18 0 0 -18 0 0] MS
            (.dll) TGSW 
        AD
        GR
      2 DI NE 0 RM
            0 SG
            /Helvetica FF [18 0 0 -18 0 0] MS
            (.dll) SH
      GR
   GR

% TEXT
NP
0 SG
   GS
      1 W
      352 188 M
      GS
        GS
        0
            /Helvetica FF [18 0 0 -18 0 0] MS
            (.exe) TGSW 
        AD
        GR
      2 DI NE 0 RM
            0 SG
            /Helvetica FF [18 0 0 -18 0 0] MS
            (.exe) SH
      GR
   GR

% TEXT
NP
0 SG
   GS
      1 W
      636 192 M
      GS
        GS
        0
            /Helvetica FF [18 0 0 -18 0 0] MS
            (.dll) TGSW 
        AD
        GR
      2 DI NE 0 RM
            0 SG
            /Helvetica FF [18 0 0 -18 0 0] MS
            (.dll) SH
      GR
   GR

% TEXT
NP
0 SG
   GS
      1 W
      636 236 M
      GS
        GS
        0
            /Helvetica FF [18 0 0 -18 0 0] MS
            (.dll) TGSW 
        AD
        GR
      2 DI NE 0 RM
            0 SG
            /Helvetica FF [18 0 0 -18 0 0] MS
            (.dll) SH
      GR
   GR

% TEXT
NP
0 SG
   GS
      1 W
      380 548 M
      GS
        GS
        0
            /Helvetica FF [18 0 0 -18 0 0] MS
            (5a) TGSW 
        AD
        GR
      2 DI NE 0 RM
            0 SG
            /Helvetica FF [18 0 0 -18 0 0] MS
            (5a) SH
      GR
   GR

% TEXT
NP
0 SG
   GS
      1 W
      676 520 M
      GS
        GS
        0
            /Helvetica FF [18 0 0 -18 0 0] MS
            (5b) TGSW 
        AD
        GR
      2 DI NE 0 RM
            0 SG
            /Helvetica FF [18 0 0 -18 0 0] MS
            (5b) SH
      GR
   GR

% TEXT
NP
0 SG
   GS
      1 W
      532 616 M
      GS
        GS
        0
            /Helvetica FF [18 0 0 -18 0 0] MS
            (5d) TGSW 
        AD
        GR
      2 DI NE 0 RM
            0 SG
            /Helvetica FF [18 0 0 -18 0 0] MS
            (5d) SH
      GR
   GR

% TEXT
NP
0 SG
   GS
      1 W
      680 612 M
      GS
        GS
        0
            /Helvetica FF [18 0 0 -18 0 0] MS
            (5c) TGSW 
        AD
        GR
      2 DI NE 0 RM
            0 SG
            /Helvetica FF [18 0 0 -18 0 0] MS
            (5c) SH
      GR
   GR

GR
tgifsavedpage restore
end
showpage

%%Trailer
%MatchingCreationDate: Sun Jul 12 17:04:24 2015
%%DocumentFonts: Helvetica
%%EOF
