%!PS-Adobe-3.0 EPSF-3.0
%%BoundingBox: 133 583 451 771
%%Title: ilelaborate
%%CreationDate: Fri May 27 09:02:32 2011
%%Creator: Tgif-4.2.2-QPL written by William Chia-Wei Cheng (bill.cheng@acm.org)
%%ProducedBy: (unknown)
%%Pages: 1
%%DocumentFonts: (atend)
%%EndComments
%%BeginProlog

/tgifdict 56 dict def
tgifdict begin

/tgifellipsedict 6 dict def
tgifellipsedict /mtrx matrix put

/TGEL % tgifellipse
 { tgifellipsedict begin
      /yrad exch def
      /xrad exch def
      /y exch def
      /x exch def
      /savematrix mtrx currentmatrix def
      x y translate
      xrad yrad scale
      0 0 1 0 360 arc
      savematrix setmatrix
   end
 } def

/tgifarrowtipdict 8 dict def
tgifarrowtipdict /mtrx matrix put

/TGAT % tgifarrowtip
 { tgifarrowtipdict begin
      /dy exch def
      /dx exch def
      /h exch def
      /w exch def
      /y exch def
      /x exch def
      /savematrix mtrx currentmatrix def
      x y translate
      dy dx atan rotate
      0 0 moveto
      w neg h lineto
      w neg h neg lineto
      savematrix setmatrix
   end
 } def

/TGMAX
 { exch dup 3 1 roll exch dup 3 1 roll gt { pop } { exch pop } ifelse
 } def
/TGMIN
 { exch dup 3 1 roll exch dup 3 1 roll lt { pop } { exch pop } ifelse
 } def
/TGSW { stringwidth pop } def
/tgifstrw 0 def

/bd { bind def } bind def

/GS { gsave } bd
/GR { grestore } bd
/NP { newpath } bd
/CP { closepath } bd
/CHP { charpath } bd
/CT { curveto } bd
/L { lineto } bd
/RL { rlineto } bd
/M { moveto } bd
/RM { rmoveto } bd
/S { stroke } bd
/F { fill } bd
/TR { translate } bd
/RO { rotate } bd
/SC { scale } bd
/MU { mul } bd
/DI { div } bd
/DU { dup } bd
/NE { neg } bd
/AD { add } bd
/SU { sub } bd
/PO { pop } bd
/EX { exch } bd
/CO { concat } bd
/CL { clip } bd
/EC { eoclip } bd
/EF { eofill } bd
/IM { image } bd
/IMM { imagemask } bd
/ARY { array } bd
/SG { setgray } bd
/RG { setrgbcolor } bd
/SD { setdash } bd
/W { setlinewidth } bd
/SM { setmiterlimit } bd
/SLC { setlinecap } bd
/SLJ { setlinejoin } bd
/SH { show } bd
/FF { findfont } bd
/MS { makefont setfont } bd
/AR { arcto 4 {pop} repeat } bd
/CURP { currentpoint } bd
/FLAT { flattenpath strokepath clip newpath } bd
/TGSM { tgiforigctm setmatrix } def
/TGRM { savematrix setmatrix } def

end

%%EndProlog
%%Page: 1 1

%%PageBoundingBox: 133 583 451 771
tgifdict begin
/tgifsavedpage save def

1 SM
1 W

0 SG

72 0 MU 72 11 MU TR
72 128 DI 100.000 MU 100 DI DU NE SC

GS

/tgiforigctm matrix currentmatrix def

% TEXT
NP
0 SG
   GS
      1 W
      376 192 M
      GS
        GS
        0
            /Helvetica FF [11 0 0 -11 0 0] MS
            (FIRST PASS) TGSW 
        AD
        GR
      2 DI NE 0 RM
            0 SG
            /Helvetica FF [11 0 0 -11 0 0] MS
            (FIRST PASS) SH
      GR
   GR

% TEXT
NP
0 SG
   GS
      1 W
      468 328 M
      GS
        GS
        0
            /Helvetica FF [11 0 0 -11 0 0] MS
            (HEAP) TGSW 
        AD
        GR
      2 DI NE 0 RM
            0 SG
            /Helvetica FF [11 0 0 -11 0 0] MS
            (HEAP) SH
      GR
   GR

% TEXT
NP
0 SG
   GS
      1 W
      332 72 M
      GS
        GS
        0
            /Helvetica FF [11 0 0 -11 0 0] MS
            (.net ) TGSW 
        AD
        GR
      2 DI NE 0 RM
            0 SG
            /Helvetica FF [11 0 0 -11 0 0] MS
            (.net ) SH
      GR
      0 13 RM
      GS
        GS
        0
            /Helvetica FF [11 0 0 -11 0 0] MS
            (AST) TGSW 
        AD
        GR
      2 DI NE 0 RM
            0 SG
            /Helvetica FF [11 0 0 -11 0 0] MS
            (AST) SH
      GR
   GR

% OVAL
0 SG
GS
   GS
      NP 332 72 32 32 TGEL
      S
   GR
GR

% OVAL
0 SG
GS
   GS
      NP 468 332 32 32 TGEL
      S
   GR
GR

% TEXT
NP
0 SG
   GS
      1 W
      540 156 M
      GS
        GS
        0
            /Helvetica FF [11 0 0 -11 0 0] MS
            (Pending) TGSW 
        AD
        GR
      2 DI NE 0 RM
            0 SG
            /Helvetica FF [11 0 0 -11 0 0] MS
            (Pending) SH
      GR
      0 13 RM
      GS
        GS
        0
            /Helvetica FF [11 0 0 -11 0 0] MS
            (thread) TGSW 
        AD
        GR
      2 DI NE 0 RM
            0 SG
            /Helvetica FF [11 0 0 -11 0 0] MS
            (thread) SH
      GR
      0 13 RM
      GS
        GS
        0
            /Helvetica FF [11 0 0 -11 0 0] MS
            (list) TGSW 
        AD
        GR
      2 DI NE 0 RM
            0 SG
            /Helvetica FF [11 0 0 -11 0 0] MS
            (list) SH
      GR
   GR

% OVAL
0 SG
GS
   GS
      NP 540 160 32 32 TGEL
      S
   GR
GR

% POLY/OPEN-SPLINE
0 SG
GS
   NP
      376 156 M
      16 0 atan DU cos 8.000 MU 376 exch SU
      exch sin 8.000 MU 172 exch SU L
   TGSM
   1 W
   S
GR
GS
   TGSM
   NP
      376 172 8.000 3.000 0 16 TGAT
   1 SG CP F
   0 SG
   NP
      376 172 8.000 3.000 0 16 TGAT
   CP F
GR

% POLY/OPEN-SPLINE
0 SG
GS
   NP
      376 204 M
      24 0 atan DU cos 8.000 MU 376 exch SU
      exch sin 8.000 MU 228 exch SU L
   TGSM
   1 W
   S
GR
GS
   TGSM
   NP
      376 228 8.000 3.000 0 24 TGAT
   1 SG CP F
   0 SG
   NP
      376 228 8.000 3.000 0 24 TGAT
   CP F
GR

% POLY/OPEN-SPLINE
0 SG
GS
   NP
      332 108 M
      32 0 atan DU cos 8.000 MU 332 exch SU
      exch sin 8.000 MU 140 exch SU L
   TGSM
   1 W
   S
GR
GS
   TGSM
   NP
      332 140 8.000 3.000 0 32 TGAT
   1 SG CP F
   0 SG
   NP
      332 140 8.000 3.000 0 32 TGAT
   CP F
GR

% TEXT
NP
0 SG
   GS
      1 W
      420 72 M
      GS
        GS
        0
            /Helvetica FF [11 0 0 -11 0 0] MS
            (-root) TGSW 
        AD
        GR
      2 DI NE 0 RM
            0 SG
            /Helvetica FF [11 0 0 -11 0 0] MS
            (-root) SH
      GR
      0 13 RM
      GS
        GS
        0
            /Helvetica FF [11 0 0 -11 0 0] MS
            (list) TGSW 
        AD
        GR
      2 DI NE 0 RM
            0 SG
            /Helvetica FF [11 0 0 -11 0 0] MS
            (list) SH
      GR
   GR

% OVAL
0 SG
GS
   GS
      NP 420 72 32 32 TGEL
      S
   GR
GR

% TEXT
NP
0 SG
   GS
      1 W
      580 300 M
      GS
        GS
        0
            /Helvetica FF [11 0 0 -11 0 0] MS
            (<hname>) TGSW 
        AD
        GR
      2 DI NE 0 RM
            0 SG
            /Helvetica FF [11 0 0 -11 0 0] MS
            (<hname>) SH
      GR
   GR

% TEXT
NP
0 SG
   GS
      1 W
      624 300 M
      GS
        GS
        0
            /Helvetica FF [11 0 0 -11 0 0] MS
            (type) TGSW 
        AD
        GR
      2 DI NE 0 RM
            0 SG
            /Helvetica FF [11 0 0 -11 0 0] MS
            (type) SH
      GR
   GR

% TEXT
NP
0 SG
   GS
      1 W
      688 300 M
      GS
        GS
        0
            /Helvetica FF [11 0 0 -11 0 0] MS
            (Subsume status) TGSW 
        AD
        GR
      2 DI NE 0 RM
            0 SG
            /Helvetica FF [11 0 0 -11 0 0] MS
            (Subsume status) SH
      GR
   GR

% TEXT
NP
0 SG
   GS
      1 W
      768 300 M
      GS
        GS
        0
            /Helvetica FF [11 0 0 -11 0 0] MS
            (value or net) TGSW 
        AD
        GR
      2 DI NE 0 RM
            0 SG
            /Helvetica FF [11 0 0 -11 0 0] MS
            (value or net) SH
      GR
   GR

% BOX
0 SG
GS
   10 SM
   GS
      NP 552 288 M 800 288 L 800 368 L 552 368 L CP
      S
   GR
GR

% POLY/OPEN-SPLINE
0 SG
GS
   NP
      552 308 M
      800 308 L
   TGSM
   1 W
   S
GR

% POLY/OPEN-SPLINE
0 SG
GS
   NP
      732 288 M
      732 364 L
   TGSM
   1 W
   S
GR

% POLY/OPEN-SPLINE
0 SG
GS
   NP
      644 288 M
      644 364 L
   TGSM
   1 W
   S
GR

% POLY/OPEN-SPLINE
0 SG
GS
   NP
      608 288 M
      608 364 L
   TGSM
   1 W
   S
GR

% POLY/OPEN-SPLINE
0 SG
GS
   [2 2] 0 SD
   NP
      500 320 M
      548 288 L
   TGSM
   1 W
   S
   [] 0 SD
GR

% POLY/OPEN-SPLINE
0 SG
GS
   [2 2] 0 SD
   NP
      504 340 M
      552 368 L
   TGSM
   1 W
   S
   [] 0 SD
GR

% TEXT
NP
0 SG
   GS
      1 W
      376 252 M
      GS
        GS
        0
            /Helvetica FF [11 0 0 -11 0 0] MS
            (SECOND PASS) TGSW 
        AD
        GR
      2 DI NE 0 RM
            0 SG
            /Helvetica FF [11 0 0 -11 0 0] MS
            (SECOND PASS) SH
      GR
   GR

% BOX
0 SG
GS
   10 SM
   GS
      NP 324 228 M 428 228 L 428 260 L 324 260 L CP
      S
   GR
GR

% BOX
0 SG
GS
   10 SM
   GS
      NP 324 172 M 428 172 L 428 204 L 324 204 L CP
      S
   GR
GR

% BOX
0 SG
GS
   10 SM
   GS
      NP 252 140 M 452 140 L 452 272 L 252 272 L CP
      S
   GR
GR

% TEXT
NP
0 SG
   GS
      1 W
      324 152 M
      GS
        GS
        0
            /Helvetica FF [11 0 0 -11 0 0] MS
            (Elaborate) TGSW 
        AD
        GR
      2 DI NE 0 RM
            0 SG
            /Helvetica FF [11 0 0 -11 0 0] MS
            (Elaborate) SH
      GR
   GR

% POLY/OPEN-SPLINE
0 SG
GS
   NP
      424 108 M
      32 0 atan DU cos 8.000 MU 424 exch SU
      exch sin 8.000 MU 140 exch SU L
   TGSM
   1 W
   S
GR
GS
   TGSM
   NP
      424 140 8.000 3.000 0 32 TGAT
   1 SG CP F
   0 SG
   NP
      424 140 8.000 3.000 0 32 TGAT
   CP F
GR

% POLY/OPEN-SPLINE
0 SG
GS
   NP
      428 240 M
      484 220 L
      -32 36 atan DU cos 8.000 MU 520 exch SU
      exch sin 8.000 MU 188 exch SU L
   TGSM
   1 W
   S
GR
GS
   TGSM
   NP
      520 188 8.000 3.000 36 -32 TGAT
   1 SG CP F
   0 SG
   NP
      520 188 8.000 3.000 36 -32 TGAT
   CP F
GR

% POLY/OPEN-SPLINE
0 SG
GS
   NP
      516 132 M
      -40 -68 atan DU cos 8.000 MU 448 exch SU
      exch sin 8.000 MU 92 exch SU L
   TGSM
   1 W
   S
GR
GS
   TGSM
   NP
      448 92 8.000 3.000 -68 -40 TGAT
   1 SG CP F
   0 SG
   NP
      448 92 8.000 3.000 -68 -40 TGAT
   CP F
GR

% TEXT
NP
0 SG
   GS
      1 W
      272 332 M
      GS
        GS
        0
            /Helvetica FF [11 0 0 -11 0 0] MS
            (HPR) TGSW 
        AD
        GR
      2 DI NE 0 RM
            0 SG
            /Helvetica FF [11 0 0 -11 0 0] MS
            (HPR) SH
      GR
      0 13 RM
      GS
        GS
        0
            /Helvetica FF [11 0 0 -11 0 0] MS
            (Machine) TGSW 
        AD
        GR
      2 DI NE 0 RM
            0 SG
            /Helvetica FF [11 0 0 -11 0 0] MS
            (Machine) SH
      GR
   GR

% OVAL
0 SG
GS
   GS
      NP 272 336 32 32 TGEL
      S
   GR
GR

% POLY/OPEN-SPLINE
0 SG
GS
   NP
      372 260 M
      372 336 L
      0 -68 atan DU cos 8.000 MU 304 exch SU
      exch sin 8.000 MU 336 exch SU L
   TGSM
   1 W
   S
GR
GS
   TGSM
   NP
      304 336 8.000 3.000 -68 0 TGAT
   1 SG CP F
   0 SG
   NP
      304 336 8.000 3.000 -68 0 TGAT
   CP F
GR

% POLY/OPEN-SPLINE
0 SG
GS
   NP
      400 272 M
      40 40 atan DU cos 8.000 MU exch sin 8.000 MU RM
      40 40 atan DU cos 8.000 MU 440 exch SU
      exch sin 8.000 MU 312 exch SU L
   TGSM
   1 W
   S
GR
GS
   TGSM
   NP
      400 272 8.000 3.000 -40 -40 TGAT
   1 SG CP F
   0 SG
   NP
      400 272 8.000 3.000 -40 -40 TGAT
   CP F
GR
GS
   TGSM
   NP
      440 312 8.000 3.000 40 40 TGAT
   1 SG CP F
   0 SG
   NP
      440 312 8.000 3.000 40 40 TGAT
   CP F
GR

% OVAL
0 SG
GS
   GS
      NP 278 188 18 20 TGEL
      S
   GR
GR

% TEXT
NP
0 SG
   GS
      1 W
      276 192 M
      GS
        GS
        0
            /Helvetica FF [14 0 0 -14 0 0] MS
            (stack) TGSW 
        AD
        GR
      2 DI NE 0 RM
            0 SG
            /Helvetica FF [14 0 0 -14 0 0] MS
            (stack) SH
      GR
   GR

% OVAL
0 SG
GS
   GS
      NP 278 240 18 20 TGEL
      S
   GR
GR

% TEXT
NP
0 SG
   GS
      1 W
      276 244 M
      GS
        GS
        0
            /Helvetica FF [14 0 0 -14 0 0] MS
            (stack) TGSW 
        AD
        GR
      2 DI NE 0 RM
            0 SG
            /Helvetica FF [14 0 0 -14 0 0] MS
            (stack) SH
      GR
   GR

% POLY/OPEN-SPLINE
0 SG
GS
   NP
      296 188 M
      0 28 atan DU cos 8.000 MU exch sin 8.000 MU RM
      0 28 atan DU cos 8.000 MU 324 exch SU
      exch sin 8.000 MU 188 exch SU L
   TGSM
   1 W
   S
GR
GS
   TGSM
   NP
      296 188 8.000 3.000 -28 0 TGAT
   1 SG CP F
   0 SG
   NP
      296 188 8.000 3.000 -28 0 TGAT
   CP F
GR
GS
   TGSM
   NP
      324 188 8.000 3.000 28 0 TGAT
   1 SG CP F
   0 SG
   NP
      324 188 8.000 3.000 28 0 TGAT
   CP F
GR

% POLY/OPEN-SPLINE
0 SG
GS
   NP
      296 244 M
      0 28 atan DU cos 8.000 MU exch sin 8.000 MU RM
      0 28 atan DU cos 8.000 MU 324 exch SU
      exch sin 8.000 MU 244 exch SU L
   TGSM
   1 W
   S
GR
GS
   TGSM
   NP
      296 244 8.000 3.000 -28 0 TGAT
   1 SG CP F
   0 SG
   NP
      296 244 8.000 3.000 -28 0 TGAT
   CP F
GR
GS
   TGSM
   NP
      324 244 8.000 3.000 28 0 TGAT
   1 SG CP F
   0 SG
   NP
      324 244 8.000 3.000 28 0 TGAT
   CP F
GR

GR
tgifsavedpage restore
end
showpage

%%Trailer
%MatchingCreationDate: Fri May 27 09:02:32 2011
%%DocumentFonts: Helvetica
%%EOF
