%!PS-Adobe-3.0 EPSF-3.0
%%BoundingBox: 52 392 483 654
%%Title: kiwi-axi-mastering-example
%%CreationDate: Wed Apr  5 17:04:55 2017
%%Creator: Tgif-4.2.5-QPL written by William Chia-Wei Cheng (bill.cheng@acm.org)
%%ProducedBy: (unknown)
%%Pages: 1
%%DocumentFonts: (atend)
%%EndComments
%%BeginProlog

/tgifdict 54 dict def
tgifdict begin

/tgifarrowtipdict 8 dict def
tgifarrowtipdict /mtrx matrix put

/TGAT % tgifarrowtip
 { tgifarrowtipdict begin
      /dy exch def
      /dx exch def
      /h exch def
      /w exch def
      /y exch def
      /x exch def
      /savematrix mtrx currentmatrix def
      x y translate
      dy dx atan rotate
      0 0 moveto
      w neg h lineto
      w neg h neg lineto
      savematrix setmatrix
   end
 } def

/TGMAX
 { exch dup 3 1 roll exch dup 3 1 roll gt { pop } { exch pop } ifelse
 } def
/TGMIN
 { exch dup 3 1 roll exch dup 3 1 roll lt { pop } { exch pop } ifelse
 } def
/TGSW { stringwidth pop } def
/tgifstrw 0 def

/bd { bind def } bind def

/GS { gsave } bd
/GR { grestore } bd
/NP { newpath } bd
/CP { closepath } bd
/CHP { charpath } bd
/CT { curveto } bd
/L { lineto } bd
/RL { rlineto } bd
/M { moveto } bd
/RM { rmoveto } bd
/S { stroke } bd
/F { fill } bd
/TR { translate } bd
/RO { rotate } bd
/SC { scale } bd
/MU { mul } bd
/DI { div } bd
/DU { dup } bd
/NE { neg } bd
/AD { add } bd
/SU { sub } bd
/PO { pop } bd
/EX { exch } bd
/CO { concat } bd
/CL { clip } bd
/EC { eoclip } bd
/EF { eofill } bd
/IM { image } bd
/IMM { imagemask } bd
/ARY { array } bd
/SG { setgray } bd
/RG { setrgbcolor } bd
/SD { setdash } bd
/W { setlinewidth } bd
/SM { setmiterlimit } bd
/SLC { setlinecap } bd
/SLJ { setlinejoin } bd
/SH { show } bd
/FF { findfont } bd
/MS { makefont setfont } bd
/AR { arcto 4 {pop} repeat } bd
/CURP { currentpoint } bd
/FLAT { flattenpath strokepath clip newpath } bd
/TGSM { tgiforigctm setmatrix } def
/TGRM { savematrix setmatrix } def

end

%%EndProlog
%%Page: 1 1

%%PageBoundingBox: 52 392 483 654
tgifdict begin
/tgifsavedpage save def

1 SM
1 W

0 SG

72 0 MU 72 11.695 MU TR
72 128 DI 100.000 MU 100 DI DU NE SC

GS

/tgiforigctm matrix currentmatrix def

% TEXT
NP
0 SG
   GS
      1 W
      704 444 M
      GS
            0 SG
            /Helvetica FF [20 0 0 -20 0 0] MS
            (S_AXI_ACP) SH
      GR
      0 22 RM
      GS
            0 SG
            /Helvetica FF [20 0 0 -20 0 0] MS
            (Cache-coherent) SH
      GR
      0 22 RM
      GS
            0 SG
            /Helvetica FF [20 0 0 -20 0 0] MS
            (Out-of-order) SH
      GR
      0 22 RM
      GS
            0 SG
            /Helvetica FF [20 0 0 -20 0 0] MS
            (AXI-4) SH
      GR
   GR

% BOX
0 SG
GS
   10 SM
   GS
      NP 328 380 M 540 380 L 540 644 L 328 644 L CP
      2 W
      S
   GR
GR

% RCBOX
0 SG
GS
   GS
      NP
         680 336 M
         696 336 696 796 16 AR
         696 780 L
         696 796 208 796 16 AR
         224 796 L
         208 796 208 336 16 AR
         208 352 L
         208 336 696 336 16 AR
      CP
      S
   GR
GR

% TEXT
NP
0 SG
   GS
      1 W
      432 416 M
      GS
        GS
        0
            /Helvetica FF [20 0 0 -20 0 0] MS
            (Kiwi-HLS-Generated) TGSW 
        AD
        GR
      2 DI NE 0 RM
            0 SG
            /Helvetica FF [20 0 0 -20 0 0] MS
            (Kiwi-HLS-Generated) SH
      GR
      0 22 RM
      GS
        GS
        0
            /Helvetica FF [20 0 0 -20 0 0] MS
            (Hardware Accelerator) TGSW 
        AD
        GR
      2 DI NE 0 RM
            0 SG
            /Helvetica FF [20 0 0 -20 0 0] MS
            (Hardware Accelerator) SH
      GR
      0 22 RM
      GS
        GS
        0
            /Helvetica FF [20 0 0 -20 0 0] MS
            (Design) TGSW 
        AD
        GR
      2 DI NE 0 RM
            0 SG
            /Helvetica FF [20 0 0 -20 0 0] MS
            (Design) SH
      GR
   GR

% POLY/OPEN-SPLINE
0 SG
GS
   NP
      328 616 M
      344 624 L
      328 632 L
   TGSM
   1 W
   S
GR

% POLY/OPEN-SPLINE
0 SG
GS
   NP
      328 624 M
      304 624 L
   TGSM
   1 W
   S
GR

% BOX
0 SG
GS
   10 SM
   GS
      NP 236 684 M 332 684 L 332 780 L 236 780 L CP
      2 W
      S
   GR
GR

% TEXT
NP
0 SG
   GS
      1 W
      284 708 M
      GS
        GS
        0
            /Helvetica FF [20 0 0 -20 0 0] MS
            (Kiwi) TGSW 
        AD
        GR
      2 DI NE 0 RM
            0 SG
            /Helvetica FF [20 0 0 -20 0 0] MS
            (Kiwi) SH
      GR
      0 22 RM
      GS
        GS
        0
            /Helvetica FF [20 0 0 -20 0 0] MS
            (Substrate) TGSW 
        AD
        GR
      2 DI NE 0 RM
            0 SG
            /Helvetica FF [20 0 0 -20 0 0] MS
            (Substrate) SH
      GR
      0 22 RM
      GS
        GS
        0
            /Helvetica FF [20 0 0 -20 0 0] MS
            (Shim) TGSW 
        AD
        GR
      2 DI NE 0 RM
            0 SG
            /Helvetica FF [20 0 0 -20 0 0] MS
            (Shim) SH
      GR
   GR

% TEXT
NP
0 SG
   GS
      1 W
      268 460 M
      GS
        GS
        0
            /Helvetica FF [12 0 0 -12 0 0] MS
            (Programmed) TGSW 
        AD
        GR
      2 DI NE 0 RM
            0 SG
            /Helvetica FF [12 0 0 -12 0 0] MS
            (Programmed) SH
      GR
      0 15 RM
      GS
        GS
        0
            /Helvetica FF [12 0 0 -12 0 0] MS
            (I/O) TGSW 
        AD
        GR
      2 DI NE 0 RM
            0 SG
            /Helvetica FF [12 0 0 -12 0 0] MS
            (I/O) SH
      GR
      0 15 RM
      GS
        GS
        0
            /Helvetica FF [12 0 0 -12 0 0] MS
            (Parameter) TGSW 
        AD
        GR
      2 DI NE 0 RM
            0 SG
            /Helvetica FF [12 0 0 -12 0 0] MS
            (Parameter) SH
      GR
      0 15 RM
      GS
        GS
        0
            /Helvetica FF [12 0 0 -12 0 0] MS
            (File) TGSW 
        AD
        GR
      2 DI NE 0 RM
            0 SG
            /Helvetica FF [12 0 0 -12 0 0] MS
            (File) SH
      GR
   GR

% TEXT
NP
0 SG
   GS
      1 W
      412 668 M
      GS
            0 SG
            /Helvetica FF [12 0 0 -12 0 0] MS
            (Abend) SH
      GR
      0 15 RM
      GS
            0 SG
            /Helvetica FF [12 0 0 -12 0 0] MS
            (syndrome) SH
      GR
      0 15 RM
      GS
      GR
   GR

% TEXT
NP
0 SG
   GS
      1 W
      360 664 M
      GS
        GS
        0
            /Helvetica FF [12 0 0 -12 0 0] MS
            (Start/Stop) TGSW 
        AD
        GR
      2 DI NE 0 RM
            0 SG
            /Helvetica FF [12 0 0 -12 0 0] MS
            (Start/Stop) SH
      GR
      0 15 RM
      GS
        GS
        0
            /Helvetica FF [12 0 0 -12 0 0] MS
            (Control) TGSW 
        AD
        GR
      2 DI NE 0 RM
            0 SG
            /Helvetica FF [12 0 0 -12 0 0] MS
            (Control) SH
      GR
   GR

% BOX
0 SG
GS
   10 SM
   GS
      NP 616 460 M 672 460 L 672 584 L 616 584 L CP
      2 W
      S
   GR
GR

% POLY/OPEN-SPLINE
0 SG
GS
   NP
      620 468 M
      636 468 L
      648 500 L
      664 500 L
   TGSM
   1 W
   S
GR

% POLY/OPEN-SPLINE
0 SG
GS
   NP
      620 500 M
      636 500 L
      648 468 L
      664 468 L
   TGSM
   1 W
   S
GR

% TEXT
NP
0 SG
   GS
      1 W
      640 536 M
      GS
        GS
        0
            /Helvetica FF [12 0 0 -12 0 0] MS
            (AXI) TGSW 
        AD
        GR
      2 DI NE 0 RM
            0 SG
            /Helvetica FF [12 0 0 -12 0 0] MS
            (AXI) SH
      GR
      0 15 RM
      GS
        GS
        0
            /Helvetica FF [12 0 0 -12 0 0] MS
            (Switch) TGSW 
        AD
        GR
      2 DI NE 0 RM
            0 SG
            /Helvetica FF [12 0 0 -12 0 0] MS
            (Switch) SH
      GR
   GR

% TEXT
NP
0 SG
   GS
      1 W
      512 464 M
      GS
        GS
        0
            /Helvetica FF [12 0 0 -12 0 0] MS
            (Load) TGSW 
        AD
        GR
      2 DI NE 0 RM
            0 SG
            /Helvetica FF [12 0 0 -12 0 0] MS
            (Load) SH
      GR
      0 15 RM
      GS
        GS
        0
            /Helvetica FF [12 0 0 -12 0 0] MS
            (Port 0) TGSW 
        AD
        GR
      2 DI NE 0 RM
            0 SG
            /Helvetica FF [12 0 0 -12 0 0] MS
            (Port 0) SH
      GR
   GR

% TEXT
NP
0 SG
   GS
      1 W
      516 524 M
      GS
        GS
        0
            /Helvetica FF [12 0 0 -12 0 0] MS
            (Load) TGSW 
        AD
        GR
      2 DI NE 0 RM
            0 SG
            /Helvetica FF [12 0 0 -12 0 0] MS
            (Load) SH
      GR
      0 15 RM
      GS
        GS
        0
            /Helvetica FF [12 0 0 -12 0 0] MS
            (Port 1) TGSW 
        AD
        GR
      2 DI NE 0 RM
            0 SG
            /Helvetica FF [12 0 0 -12 0 0] MS
            (Port 1) SH
      GR
   GR

% TEXT
NP
0 SG
   GS
      1 W
      516 584 M
      GS
        GS
        0
            /Helvetica FF [12 0 0 -12 0 0] MS
            (Store) TGSW 
        AD
        GR
      2 DI NE 0 RM
            0 SG
            /Helvetica FF [12 0 0 -12 0 0] MS
            (Store) SH
      GR
      0 15 RM
      GS
        GS
        0
            /Helvetica FF [12 0 0 -12 0 0] MS
            (Port) TGSW 
        AD
        GR
      2 DI NE 0 RM
            0 SG
            /Helvetica FF [12 0 0 -12 0 0] MS
            (Port) SH
      GR
   GR

% TEXT
NP
0 SG
   GS
      1 W
      568 656 M
      GS
        GS
        0
            /Helvetica FF [12 0 0 -12 0 0] MS
            (Store) TGSW 
        AD
        GR
      2 DI NE 0 RM
            0 SG
            /Helvetica FF [12 0 0 -12 0 0] MS
            (Store) SH
      GR
      0 15 RM
      GS
        GS
        0
            /Helvetica FF [12 0 0 -12 0 0] MS
            (TieOff) TGSW 
        AD
        GR
      2 DI NE 0 RM
            0 SG
            /Helvetica FF [12 0 0 -12 0 0] MS
            (TieOff) SH
      GR
   GR

% TEXT
NP
0 SG
   GS
      1 W
      368 360 M
      GS
        GS
        0
            /Helvetica FF [20 0 0 -20 0 0] MS
            (FPGA Programmable Logic \(PL\)) TGSW 
        AD
        GR
      2 DI NE 0 RM
            0 SG
            /Helvetica FF [20 0 0 -20 0 0] MS
            (FPGA Programmable Logic \(PL\)) SH
      GR
   GR

% BOX
0 SG
GS
   10 SM
   GS
      NP 560 608 M 568 608 L 568 640 L 560 640 L CP
      S
   GR
GR

% POLY/OPEN-SPLINE
0 SG
GS
   NP
      540 464 M
      0 64 atan DU cos 10.000 MU exch sin 10.000 MU RM
      604 464 L
   TGSM
   2 W
   S
   1 W
GR
GS
   TGSM
   NP
      540 464 10.000 4.000 -64 0 TGAT
   1 SG CP F
   0 SG
   NP
      540 464 10.000 4.000 -64 0 TGAT
   CP F
GR

% POLY/OPEN-SPLINE
0 SG
GS
   NP
      540 584 M
      564 584 L
      580 480 L
      0 24 atan DU cos 10.000 MU 604 exch SU
      exch sin 10.000 MU 480 exch SU L
   TGSM
   2 W
   S
   1 W
GR
GS
   TGSM
   NP
      604 480 10.000 4.000 24 0 TGAT
   1 SG CP F
   0 SG
   NP
      604 480 10.000 4.000 24 0 TGAT
   CP F
GR

% POLY/OPEN-SPLINE
0 SG
GS
   NP
      540 528 M
      0 20 atan DU cos 10.000 MU exch sin 10.000 MU RM
      560 528 L
      588 508 L
      604 508 L
   TGSM
   2 W
   S
   1 W
GR
GS
   TGSM
   NP
      540 528 10.000 4.000 -20 0 TGAT
   1 SG CP F
   0 SG
   NP
      540 528 10.000 4.000 -20 0 TGAT
   CP F
GR

% POLY/OPEN-SPLINE
0 SG
GS
   NP
      568 624 M
      580 624 L
      580 528 L
      0 24 atan DU cos 10.000 MU 604 exch SU
      exch sin 10.000 MU 528 exch SU L
   TGSM
   2 W
   S
   1 W
GR
GS
   TGSM
   NP
      604 528 10.000 4.000 24 0 TGAT
   1 SG CP F
   0 SG
   NP
      604 528 10.000 4.000 24 0 TGAT
   CP F
GR

% POLY/OPEN-SPLINE
0 SG
GS
   NP
      604 504 M
      608 508 L
      608 516 L
      616 520 L
      608 524 L
      608 532 L
      604 536 L
   TGSM
   1 W
   S
GR

% POLY/OPEN-SPLINE
0 SG
GS
   NP
      604 456 M
      608 460 L
      608 468 L
      616 472 L
      608 476 L
      608 484 L
      604 488 L
   TGSM
   1 W
   S
GR

% POLY/OPEN-SPLINE
0 SG
GS
   NP
      672 524 M
      0 108 atan DU cos 14.000 MU exch sin 14.000 MU RM
      0 108 atan DU cos 14.000 MU 780 exch SU
      exch sin 14.000 MU 524 exch SU L
   TGSM
   4 W
   S
   1 W
GR
GS
   TGSM
   NP
      672 524 14.000 6.000 -108 0 TGAT
   1 SG CP F
   0 SG
   NP
      672 524 14.000 6.000 -108 0 TGAT
   CP F
GR
GS
   TGSM
   NP
      780 524 14.000 6.000 108 0 TGAT
   1 SG CP F
   0 SG
   NP
      780 524 14.000 6.000 108 0 TGAT
   CP F
GR

% POLY/OPEN-SPLINE
0 SG
GS
   NP
      104 728 M
      0 132 atan DU cos 14.000 MU exch sin 14.000 MU RM
      0 132 atan DU cos 14.000 MU 236 exch SU
      exch sin 14.000 MU 728 exch SU L
   TGSM
   4 W
   S
   1 W
GR
GS
   TGSM
   NP
      104 728 14.000 6.000 -132 0 TGAT
   1 SG CP F
   0 SG
   NP
      104 728 14.000 6.000 -132 0 TGAT
   CP F
GR
GS
   TGSM
   NP
      236 728 14.000 6.000 132 0 TGAT
   1 SG CP F
   0 SG
   NP
      236 728 14.000 6.000 132 0 TGAT
   CP F
GR

% TEXT
NP
0 SG
   GS
      1 W
      204 688 M
      GS
        GS
        0
            /Helvetica FF [20 0 0 -20 0 0] MS
            (M_AXI_GP0) TGSW 
        AD
        GR
      NE 0 RM
            0 SG
            /Helvetica FF [20 0 0 -20 0 0] MS
            (M_AXI_GP0) SH
      GR
      0 22 RM
      GS
        GS
        0
            /Helvetica FF [20 0 0 -20 0 0] MS
            (\(32 bits\)) TGSW 
        AD
        GR
      NE 0 RM
            0 SG
            /Helvetica FF [20 0 0 -20 0 0] MS
            (\(32 bits\)) SH
      GR
      0 22 RM
      GS
        GS
        0
            0
        AD
        GR
      NE 0 RM
      GR
   GR

% POLY/OPEN-SPLINE
0 SG
GS
   NP
      392 648 M
      56 0 atan DU cos 10.000 MU exch sin 10.000 MU RM
      392 704 L
      332 704 L
   TGSM
   2 W
   S
   1 W
GR
GS
   TGSM
   NP
      392 648 10.000 4.000 0 -56 TGAT
   1 SG CP F
   0 SG
   NP
      392 648 10.000 4.000 0 -56 TGAT
   CP F
GR

% POLY/OPEN-SPLINE
0 SG
GS
   NP
      332 728 M
      0 76 atan DU cos 10.000 MU exch sin 10.000 MU RM
      408 728 L
      408 644 L
   TGSM
   2 W
   S
   1 W
GR
GS
   TGSM
   NP
      332 728 10.000 4.000 -76 0 TGAT
   1 SG CP F
   0 SG
   NP
      332 728 10.000 4.000 -76 0 TGAT
   CP F
GR

% BOX
0 SG
GS
   10 SM
   GS
      NP 256 516 M 288 516 L 288 624 L 256 624 L CP
      2 W
      S
   GR
GR

% POLY/OPEN-SPLINE
0 SG
GS
   NP
      288 536 M
      0 40 atan DU cos 10.000 MU 328 exch SU
      exch sin 10.000 MU 536 exch SU L
   TGSM
   2 W
   S
   1 W
GR
GS
   TGSM
   NP
      328 536 10.000 4.000 40 0 TGAT
   1 SG CP F
   0 SG
   NP
      328 536 10.000 4.000 40 0 TGAT
   CP F
GR

% POLY/OPEN-SPLINE
0 SG
GS
   NP
      288 548 M
      0 40 atan DU cos 10.000 MU 328 exch SU
      exch sin 10.000 MU 548 exch SU L
   TGSM
   2 W
   S
   1 W
GR
GS
   TGSM
   NP
      328 548 10.000 4.000 40 0 TGAT
   1 SG CP F
   0 SG
   NP
      328 548 10.000 4.000 40 0 TGAT
   CP F
GR

% POLY/OPEN-SPLINE
0 SG
GS
   NP
      288 560 M
      0 40 atan DU cos 10.000 MU 328 exch SU
      exch sin 10.000 MU 560 exch SU L
   TGSM
   2 W
   S
   1 W
GR
GS
   TGSM
   NP
      328 560 10.000 4.000 40 0 TGAT
   1 SG CP F
   0 SG
   NP
      328 560 10.000 4.000 40 0 TGAT
   CP F
GR

% POLY/OPEN-SPLINE
0 SG
GS
   NP
      288 572 M
      0 40 atan DU cos 10.000 MU exch sin 10.000 MU RM
      328 572 L
   TGSM
   2 W
   S
   1 W
GR
GS
   TGSM
   NP
      288 572 10.000 4.000 -40 0 TGAT
   1 SG CP F
   0 SG
   NP
      288 572 10.000 4.000 -40 0 TGAT
   CP F
GR

% POLY/OPEN-SPLINE
0 SG
GS
   NP
      288 584 M
      0 40 atan DU cos 10.000 MU exch sin 10.000 MU RM
      328 584 L
   TGSM
   2 W
   S
   1 W
GR
GS
   TGSM
   NP
      288 584 10.000 4.000 -40 0 TGAT
   1 SG CP F
   0 SG
   NP
      288 584 10.000 4.000 -40 0 TGAT
   CP F
GR

% POLY/OPEN-SPLINE
0 SG
GS
   NP
      288 596 M
      0 40 atan DU cos 10.000 MU exch sin 10.000 MU RM
      328 596 L
   TGSM
   2 W
   S
   1 W
GR
GS
   TGSM
   NP
      288 596 10.000 4.000 -40 0 TGAT
   1 SG CP F
   0 SG
   NP
      288 596 10.000 4.000 -40 0 TGAT
   CP F
GR

% POLY/OPEN-SPLINE
0 SG
GS
   NP
      236 748 M
      252 756 L
      236 764 L
   TGSM
   1 W
   S
GR

% POLY/OPEN-SPLINE
0 SG
GS
   NP
      236 756 M
      220 756 L
   TGSM
   1 W
   S
GR

% POLY/OPEN-SPLINE
0 SG
GS
   NP
      616 560 M
      632 568 L
      616 576 L
   TGSM
   1 W
   S
GR

% POLY/OPEN-SPLINE
0 SG
GS
   NP
      616 568 M
      592 568 L
   TGSM
   1 W
   S
GR

% POLY/OPEN-SPLINE
0 SG
GS
   NP
      268 684 M
      -60 0 atan DU cos 10.000 MU exch sin 10.000 MU RM
      -60 0 atan DU cos 10.000 MU 268 exch SU
      exch sin 10.000 MU 624 exch SU L
   TGSM
   2 W
   S
   1 W
GR
GS
   TGSM
   NP
      268 684 10.000 4.000 0 60 TGAT
   1 SG CP F
   0 SG
   NP
      268 684 10.000 4.000 0 60 TGAT
   CP F
GR
GS
   TGSM
   NP
      268 624 10.000 4.000 0 -60 TGAT
   1 SG CP F
   0 SG
   NP
      268 624 10.000 4.000 0 -60 TGAT
   CP F
GR

% POLY/OPEN-SPLINE
0 SG
GS
   NP
      332 756 M
      0 144 atan DU cos 10.000 MU exch sin 10.000 MU RM
      476 756 L
      476 644 L
   TGSM
   2 W
   S
   1 W
GR
GS
   TGSM
   NP
      332 756 10.000 4.000 -144 0 TGAT
   1 SG CP F
   0 SG
   NP
      332 756 10.000 4.000 -144 0 TGAT
   CP F
GR

% TEXT
NP
0 SG
   GS
      1 W
      480 668 M
      GS
            0 SG
            /Helvetica FF [12 0 0 -12 0 0] MS
            (Design) SH
      GR
      0 15 RM
      GS
            0 SG
            /Helvetica FF [12 0 0 -12 0 0] MS
            (Serial) SH
      GR
      0 15 RM
      GS
            0 SG
            /Helvetica FF [12 0 0 -12 0 0] MS
            (Number) SH
      GR
      0 15 RM
      GS
      GR
   GR

% POLY/OPEN-SPLINE
0 SG
GS
   NP
      652 684 M
      0 108 atan DU cos 14.000 MU exch sin 14.000 MU RM
      0 108 atan DU cos 14.000 MU 760 exch SU
      exch sin 14.000 MU 684 exch SU L
   TGSM
   4 W
   S
   1 W
GR
GS
   TGSM
   NP
      652 684 14.000 6.000 -108 0 TGAT
   1 SG CP F
   0 SG
   NP
      652 684 14.000 6.000 -108 0 TGAT
   CP F
GR
GS
   TGSM
   NP
      760 684 14.000 6.000 108 0 TGAT
   1 SG CP F
   0 SG
   NP
      760 684 14.000 6.000 108 0 TGAT
   CP F
GR

% POLY/OPEN-SPLINE
0 SG
GS
   NP
      652 708 M
      0 108 atan DU cos 14.000 MU exch sin 14.000 MU RM
      0 108 atan DU cos 14.000 MU 760 exch SU
      exch sin 14.000 MU 708 exch SU L
   TGSM
   4 W
   S
   1 W
GR
GS
   TGSM
   NP
      652 708 14.000 6.000 -108 0 TGAT
   1 SG CP F
   0 SG
   NP
      652 708 14.000 6.000 -108 0 TGAT
   CP F
GR
GS
   TGSM
   NP
      760 708 14.000 6.000 108 0 TGAT
   1 SG CP F
   0 SG
   NP
      760 708 14.000 6.000 108 0 TGAT
   CP F
GR

% POLY/OPEN-SPLINE
0 SG
GS
   NP
      652 732 M
      0 108 atan DU cos 14.000 MU exch sin 14.000 MU RM
      0 108 atan DU cos 14.000 MU 760 exch SU
      exch sin 14.000 MU 732 exch SU L
   TGSM
   4 W
   S
   1 W
GR
GS
   TGSM
   NP
      652 732 14.000 6.000 -108 0 TGAT
   1 SG CP F
   0 SG
   NP
      652 732 14.000 6.000 -108 0 TGAT
   CP F
GR
GS
   TGSM
   NP
      760 732 14.000 6.000 108 0 TGAT
   1 SG CP F
   0 SG
   NP
      760 732 14.000 6.000 108 0 TGAT
   CP F
GR

% POLY/OPEN-SPLINE
0 SG
GS
   NP
      652 756 M
      0 108 atan DU cos 14.000 MU exch sin 14.000 MU RM
      0 108 atan DU cos 14.000 MU 760 exch SU
      exch sin 14.000 MU 756 exch SU L
   TGSM
   4 W
   S
   1 W
GR
GS
   TGSM
   NP
      652 756 14.000 6.000 -108 0 TGAT
   1 SG CP F
   0 SG
   NP
      652 756 14.000 6.000 -108 0 TGAT
   CP F
GR
GS
   TGSM
   NP
      760 756 14.000 6.000 108 0 TGAT
   1 SG CP F
   0 SG
   NP
      760 756 14.000 6.000 108 0 TGAT
   CP F
GR

% TEXT
NP
0 SG
   GS
      1 W
      704 608 M
      GS
            0 SG
            /Helvetica FF [20 0 0 -20 0 0] MS
            (S_AXI_HP[0:3]) SH
      GR
      0 22 RM
      GS
            0 SG
            /Helvetica FF [20 0 0 -20 0 0] MS
            (High-performance) SH
      GR
      0 22 RM
      GS
            0 SG
            /Helvetica FF [20 0 0 -20 0 0] MS
            (DMA) SH
      GR
      0 22 RM
      GS
            0 SG
            /Helvetica FF [20 0 0 -20 0 0] MS
            (AXI Ports) SH
      GR
   GR

GR
tgifsavedpage restore
end
showpage

%%Trailer
%MatchingCreationDate: Wed Apr  5 17:04:55 2017
%%DocumentFonts: Helvetica
%%EOF
