%!PS-Adobe-3.0 EPSF-3.0
%%BoundingBox: 9 627 186 800
%%Title: lassoos
%%CreationDate: Thu Jul 28 11:56:56 2011
%%Creator: Tgif-4.2.2-QPL written by William Chia-Wei Cheng (bill.cheng@acm.org)
%%ProducedBy: (unknown)
%%Pages: 1
%%DocumentFonts: (atend)
%%EndComments
%%BeginProlog

/tgifdict 56 dict def
tgifdict begin

/tgifellipsedict 6 dict def
tgifellipsedict /mtrx matrix put

/TGEL % tgifellipse
 { tgifellipsedict begin
      /yrad exch def
      /xrad exch def
      /y exch def
      /x exch def
      /savematrix mtrx currentmatrix def
      x y translate
      xrad yrad scale
      0 0 1 0 360 arc
      savematrix setmatrix
   end
 } def

/tgifarrowtipdict 8 dict def
tgifarrowtipdict /mtrx matrix put

/TGAT % tgifarrowtip
 { tgifarrowtipdict begin
      /dy exch def
      /dx exch def
      /h exch def
      /w exch def
      /y exch def
      /x exch def
      /savematrix mtrx currentmatrix def
      x y translate
      dy dx atan rotate
      0 0 moveto
      w neg h lineto
      w neg h neg lineto
      savematrix setmatrix
   end
 } def

/TGMAX
 { exch dup 3 1 roll exch dup 3 1 roll gt { pop } { exch pop } ifelse
 } def
/TGMIN
 { exch dup 3 1 roll exch dup 3 1 roll lt { pop } { exch pop } ifelse
 } def
/TGSW { stringwidth pop } def
/tgifstrw 0 def

/bd { bind def } bind def

/GS { gsave } bd
/GR { grestore } bd
/NP { newpath } bd
/CP { closepath } bd
/CHP { charpath } bd
/CT { curveto } bd
/L { lineto } bd
/RL { rlineto } bd
/M { moveto } bd
/RM { rmoveto } bd
/S { stroke } bd
/F { fill } bd
/TR { translate } bd
/RO { rotate } bd
/SC { scale } bd
/MU { mul } bd
/DI { div } bd
/DU { dup } bd
/NE { neg } bd
/AD { add } bd
/SU { sub } bd
/PO { pop } bd
/EX { exch } bd
/CO { concat } bd
/CL { clip } bd
/EC { eoclip } bd
/EF { eofill } bd
/IM { image } bd
/IMM { imagemask } bd
/ARY { array } bd
/SG { setgray } bd
/RG { setrgbcolor } bd
/SD { setdash } bd
/W { setlinewidth } bd
/SM { setmiterlimit } bd
/SLC { setlinecap } bd
/SLJ { setlinejoin } bd
/SH { show } bd
/FF { findfont } bd
/MS { makefont setfont } bd
/AR { arcto 4 {pop} repeat } bd
/CURP { currentpoint } bd
/FLAT { flattenpath strokepath clip newpath } bd
/TGSM { tgiforigctm setmatrix } def
/TGRM { savematrix setmatrix } def

end

%%EndProlog
%%Page: 1 1

%%PageBoundingBox: 9 627 186 800
tgifdict begin
/tgifsavedpage save def

1 SM
1 W

0 SG

72 0 MU 72 11.695 MU TR
72 128 DI 100.000 MU 100 DI DU NE SC

GS

/tgiforigctm matrix currentmatrix def

% TEXT
NP
0 SG
   GS
      1 W
      120 88 M
      GS
        GS
        0
            /Helvetica FF [11 0 0 -11 0 0] MS
            (Start) TGSW 
        AD
        GR
      2 DI NE 0 RM
            0 SG
            /Helvetica FF [11 0 0 -11 0 0] MS
            (Start) SH
      GR
   GR

% TEXT
NP
0 SG
   GS
      1 W
      288 248 M
      GS
        GS
        0
            /Helvetica FF [11 0 0 -11 0 0] MS
            (Runtime ) TGSW 
        AD
        GR
      2 DI NE 0 RM
            0 SG
            /Helvetica FF [11 0 0 -11 0 0] MS
            (Runtime ) SH
      GR
      0 13 RM
      GS
        GS
        0
            /Helvetica FF [11 0 0 -11 0 0] MS
            (infinite or exiting ) TGSW 
        AD
        GR
      2 DI NE 0 RM
            0 SG
            /Helvetica FF [11 0 0 -11 0 0] MS
            (infinite or exiting ) SH
      GR
      0 13 RM
      GS
        GS
        0
            /Helvetica FF [11 0 0 -11 0 0] MS
            (loop) TGSW 
        AD
        GR
      2 DI NE 0 RM
            0 SG
            /Helvetica FF [11 0 0 -11 0 0] MS
            (loop) SH
      GR
   GR

% TEXT
NP
0 SG
   GS
      1 W
      112 344 M
      GS
        GS
        0
            /Helvetica FF [11 0 0 -11 0 0] MS
            (Possible Exit) TGSW 
        AD
        GR
      2 DI NE 0 RM
            0 SG
            /Helvetica FF [11 0 0 -11 0 0] MS
            (Possible Exit) SH
      GR
   GR

% TEXT
NP
0 SG
   GS
      1 W
      56 152 M
      GS
        GS
        0
            /Helvetica FF [11 0 0 -11 0 0] MS
            (Linear trajectory) TGSW 
        AD
        GR
      2 DI NE 0 RM
            0 SG
            /Helvetica FF [11 0 0 -11 0 0] MS
            (Linear trajectory) SH
      GR
      0 13 RM
      GS
        GS
        0
            /Helvetica FF [11 0 0 -11 0 0] MS
            (from generate) TGSW 
        AD
        GR
      2 DI NE 0 RM
            0 SG
            /Helvetica FF [11 0 0 -11 0 0] MS
            (from generate) SH
      GR
      0 13 RM
      GS
        GS
        0
            /Helvetica FF [11 0 0 -11 0 0] MS
            (unwinds) TGSW 
        AD
        GR
      2 DI NE 0 RM
            0 SG
            /Helvetica FF [11 0 0 -11 0 0] MS
            (unwinds) SH
      GR
   GR

% POLY/OPEN-SPLINE
0 SG
GS
   NP
      88 96 M
      152 96 L
   TGSM
   1 W
   S
GR

% BOX
0 SG
GS
   10 SM
   GS
      NP 128 272 M 160 272 L 160 288 L 128 288 L CP
      S
   GR
GR

% TEXT
NP
0 SG
   GS
      1 W
      200 176 M
      GS
        GS
        0
            /Helvetica FF [11 0 0 -11 0 0] MS
            (Basic Blocks) TGSW 
        AD
        GR
      2 DI NE 0 RM
            0 SG
            /Helvetica FF [11 0 0 -11 0 0] MS
            (Basic Blocks) SH
      GR
   GR

% POLYGON/CLOSED-SPLINE
0 SG
NP
   144 304 M
   128 312 L
   144 320 L
   160 312 L
CP
GS
GR
GS
   S
GR

% POLY/OPEN-SPLINE
0 SG
GS
   NP
      144 288 M
      16 0 atan DU cos 8.000 MU 144 exch SU
      exch sin 8.000 MU 304 exch SU L
   TGSM
   1 W
   S
GR
GS
   TGSM
   NP
      144 304 8.000 3.000 0 16 TGAT
   1 SG CP F
   0 SG
   NP
      144 304 8.000 3.000 0 16 TGAT
   CP F
GR

% BOX
0 SG
GS
   10 SM
   GS
      NP 104 112 M 136 112 L 136 128 L 104 128 L CP
      S
   GR
GR

% POLY/OPEN-SPLINE
0 SG
GS
   NP
      124 128 M
      16 0 atan DU cos 8.000 MU 124 exch SU
      exch sin 8.000 MU 144 exch SU L
   TGSM
   1 W
   S
GR
GS
   TGSM
   NP
      124 144 8.000 3.000 0 16 TGAT
   1 SG CP F
   0 SG
   NP
      124 144 8.000 3.000 0 16 TGAT
   CP F
GR

% BOX
0 SG
GS
   10 SM
   GS
      NP 112 144 M 144 144 L 144 160 L 112 160 L CP
      S
   GR
GR

% POLY/OPEN-SPLINE
0 SG
GS
   NP
      132 160 M
      16 0 atan DU cos 8.000 MU 132 exch SU
      exch sin 8.000 MU 176 exch SU L
   TGSM
   1 W
   S
GR
GS
   TGSM
   NP
      132 176 8.000 3.000 0 16 TGAT
   1 SG CP F
   0 SG
   NP
      132 176 8.000 3.000 0 16 TGAT
   CP F
GR

% BOX
0 SG
GS
   10 SM
   GS
      NP 120 176 M 152 176 L 152 192 L 120 192 L CP
      S
   GR
GR

% POLY/OPEN-SPLINE
0 SG
GS
   NP
      140 192 M
      16 0 atan DU cos 8.000 MU 140 exch SU
      exch sin 8.000 MU 208 exch SU L
   TGSM
   1 W
   S
GR
GS
   TGSM
   NP
      140 208 8.000 3.000 0 16 TGAT
   1 SG CP F
   0 SG
   NP
      140 208 8.000 3.000 0 16 TGAT
   CP F
GR

% BOX
0 SG
GS
   10 SM
   GS
      NP 128 208 M 160 208 L 160 224 L 128 224 L CP
      S
   GR
GR

% POLY/OPEN-SPLINE
0 SG
GS
   NP
      144 224 M
      16 0 atan DU cos 8.000 MU 144 exch SU
      exch sin 8.000 MU 240 exch SU L
   TGSM
   1 W
   S
GR
GS
   TGSM
   NP
      144 240 8.000 3.000 0 16 TGAT
   1 SG CP F
   0 SG
   NP
      144 240 8.000 3.000 0 16 TGAT
   CP F
GR

% POLY/OPEN-SPLINE
0 SG
GS
   NP
      120 96 M
      16 0 atan DU cos 8.000 MU 120 exch SU
      exch sin 8.000 MU 112 exch SU L
   TGSM
   1 W
   S
GR
GS
   TGSM
   NP
      120 112 8.000 3.000 0 16 TGAT
   1 SG CP F
   0 SG
   NP
      120 112 8.000 3.000 0 16 TGAT
   CP F
GR

% OVAL
0 SG
GS
   GS
      NP 144 248 8 8 TGEL
      S
   GR
GR

% POLY/OPEN-SPLINE
0 SG
GS
   NP
      144 256 M
      16 0 atan DU cos 8.000 MU 144 exch SU
      exch sin 8.000 MU 272 exch SU L
   TGSM
   1 W
   S
GR
GS
   TGSM
   NP
      144 272 8.000 3.000 0 16 TGAT
   1 SG CP F
   0 SG
   NP
      144 272 8.000 3.000 0 16 TGAT
   CP F
GR

% POLY/OPEN-SPLINE
0 SG
GS
   NP
      128 312 M
      112 312 L
      16 0 atan DU cos 8.000 MU 112 exch SU
      exch sin 8.000 MU 328 exch SU L
   TGSM
   1 W
   S
GR
GS
   TGSM
   NP
      112 328 8.000 3.000 0 16 TGAT
   1 SG CP F
   0 SG
   NP
      112 328 8.000 3.000 0 16 TGAT
   CP F
GR

% POLY/OPEN-SPLINE
0 SG
GS
   NP
      160 312 M
      0 32 atan DU cos 8.000 MU 192 exch SU
      exch sin 8.000 MU 312 exch SU L
   TGSM
   1 W
   S
GR
GS
   TGSM
   NP
      192 312 8.000 3.000 32 0 TGAT
   1 SG CP F
   0 SG
   NP
      192 312 8.000 3.000 32 0 TGAT
   CP F
GR

% POLY/OPEN-SPLINE
0 SG
GS
   NP
      208 248 M
      0 -56 atan DU cos 8.000 MU 152 exch SU
      exch sin 8.000 MU 248 exch SU L
   TGSM
   1 W
   S
GR
GS
   TGSM
   NP
      152 248 8.000 3.000 -56 0 TGAT
   1 SG CP F
   0 SG
   NP
      152 248 8.000 3.000 -56 0 TGAT
   CP F
GR

% BOX
0 SG
GS
   10 SM
   GS
      NP 192 304 M 224 304 L 224 320 L 192 320 L CP
      S
   GR
GR

% POLY/OPEN-SPLINE
0 SG
GS
   NP
      208 320 M
      16 0 atan DU cos 8.000 MU 208 exch SU
      exch sin 8.000 MU 336 exch SU L
   TGSM
   1 W
   S
GR
GS
   TGSM
   NP
      208 336 8.000 3.000 0 16 TGAT
   1 SG CP F
   0 SG
   NP
      208 336 8.000 3.000 0 16 TGAT
   CP F
GR

% TEXT
NP
0 SG
   GS
      1 W
      176 376 M
      GS
        GS
        0
            /Helvetica FF [11 0 0 -11 0 0] MS
            (Possible Exit) TGSW 
        AD
        GR
      2 DI NE 0 RM
            0 SG
            /Helvetica FF [11 0 0 -11 0 0] MS
            (Possible Exit) SH
      GR
   GR

% POLYGON/CLOSED-SPLINE
0 SG
NP
   208 336 M
   192 344 L
   208 352 L
   224 344 L
CP
GS
GR
GS
   S
GR

% POLY/OPEN-SPLINE
0 SG
GS
   NP
      192 344 M
      176 344 L
      16 0 atan DU cos 8.000 MU 176 exch SU
      exch sin 8.000 MU 360 exch SU L
   TGSM
   1 W
   S
GR
GS
   TGSM
   NP
      176 360 8.000 3.000 0 16 TGAT
   1 SG CP F
   0 SG
   NP
      176 360 8.000 3.000 0 16 TGAT
   CP F
GR

% POLY/OPEN-SPLINE
0 SG
GS
   NP
      224 344 M
      264 344 L
      264 296 L
      -8 -8 atan DU cos 8.000 MU 256 exch SU
      exch sin 8.000 MU 288 exch SU L
   TGSM
   1 W
   S
GR
GS
   TGSM
   NP
      256 288 8.000 3.000 -8 -8 TGAT
   1 SG CP F
   0 SG
   NP
      256 288 8.000 3.000 -8 -8 TGAT
   CP F
GR

% POLY/OPEN-SPLINE
0 SG
GS
   NP
      216 256 M
      -8 -8 atan DU cos 8.000 MU 208 exch SU
      exch sin 8.000 MU 248 exch SU L
   TGSM
   1 W
   S
GR
GS
   TGSM
   NP
      208 248 8.000 3.000 -8 -8 TGAT
   1 SG CP F
   0 SG
   NP
      208 248 8.000 3.000 -8 -8 TGAT
   CP F
GR

% POLY/OPEN-SPLINE
0 SG
GS
   [2 2] 0 SD
   NP
      216 256 M
      256 288 L
   TGSM
   1 W
   S
   [] 0 SD
GR

% TEXT
NP
0 SG
   GS
      1 W
      64 248 M
      GS
        GS
        0
            /Helvetica FF [11 0 0 -11 0 0] MS
            (Articulation Point) TGSW 
        AD
        GR
      2 DI NE 0 RM
            0 SG
            /Helvetica FF [11 0 0 -11 0 0] MS
            (Articulation Point) SH
      GR
   GR

% OVAL
0 SG
GS
   GS
      NP 144 248 4 4 TGEL
      [2 2] 0 SD
      S
   GR
GR

% POLY/OPEN-SPLINE
0 SG
GS
   NP
      108 244 M
      4 16 atan DU cos 8.000 MU 124 exch SU
      exch sin 8.000 MU 248 exch SU L
   TGSM
   1 W
   S
GR
GS
   TGSM
   NP
      124 248 8.000 3.000 16 4 TGAT
   1 SG CP F
   0 SG
   NP
      124 248 8.000 3.000 16 4 TGAT
   CP F
GR

GR
tgifsavedpage restore
end
showpage

%%Trailer
%MatchingCreationDate: Thu Jul 28 11:56:56 2011
%%DocumentFonts: Helvetica
%%EOF
