%!PS-Adobe-3.0 EPSF-3.0
%%BoundingBox: 63 395 485 791
%%Title: orangecilflow
%%CreationDate: Fri May 27 08:55:52 2011
%%Creator: Tgif-4.2.2-QPL written by William Chia-Wei Cheng (bill.cheng@acm.org)
%%ProducedBy: (unknown)
%%Pages: 1
%%DocumentFonts: (atend)
%%EndComments
%%BeginProlog

/tgifdict 89 dict def
tgifdict begin

/tgifellipsedict 6 dict def
tgifellipsedict /mtrx matrix put

/TGEL % tgifellipse
 { tgifellipsedict begin
      /yrad exch def
      /xrad exch def
      /y exch def
      /x exch def
      /savematrix mtrx currentmatrix def
      x y translate
      xrad yrad scale
      0 0 1 0 360 arc
      savematrix setmatrix
   end
 } def

/tgifarrowtipdict 8 dict def
tgifarrowtipdict /mtrx matrix put

/TGAT % tgifarrowtip
 { tgifarrowtipdict begin
      /dy exch def
      /dx exch def
      /h exch def
      /w exch def
      /y exch def
      /x exch def
      /savematrix mtrx currentmatrix def
      x y translate
      dy dx atan rotate
      0 0 moveto
      w neg h lineto
      w neg h neg lineto
      savematrix setmatrix
   end
 } def

/tgifpatdict 12 dict def

/tgifpatbyte
 { currentdict /retstr get exch
   bytesperrow mul
   pat i cellh mod bytesperrow mul bytesperrow getinterval putinterval
 } def

/tgifpatproc
 { 0 1 cells_wd 1 sub {tgifpatbyte} for retstr
   /i i 1 add def
 } def

/TGPF % tgifpatfill
 { tgifpatdict begin
      /h exch def
      /w exch def
      /lty exch def
      /ltx exch def
      /cellh exch def
      /cellw exch def
      /pat exch def

      /cells_wd w cellw div cvi def
      /bytesperrow cellw 8 div ceiling cvi def
      /retstr cells_wd bytesperrow mul string def
      /i 0 def

      tgiforigctm setmatrix
      ltx lty translate
      w h true [1 0 0 1 0 0] {tgifpatproc} imagemask
      ltx neg lty neg translate
   end
 } def

/pat3 <8000000008000000> def
/pat4 <8800000022000000> def
/pat5 <8800220088002200> def
/pat6 <8822882288228822> def
/pat7 <aa55aa55aa55aa55> def
/pat8 <77dd77dd77dd77dd> def
/pat9 <77ffddff77ffddff> def
/pat10 <77ffffffddffffff> def
/pat11 <7ffffffff7ffffff> def
/pat12 <8040200002040800> def
/pat13 <40a00000040a0000> def
/pat14 <ff888888ff888888> def
/pat15 <ff808080ff080808> def
/pat16 <f87422478f172271> def
/pat17 <038448300c020101> def
/pat18 <081c22c180010204> def
/pat19 <8080413e080814e3> def
/pat20 <8040201008040201> def
/pat21 <8844221188442211> def
/pat22 <77bbddee77bbddee> def
/pat23 <c1e070381c0e0783> def
/pat24 <7fbfdfeff7fbfdfe> def
/pat25 <3e1f8fc7e3f1f87c> def
/pat26 <0102040810204080> def
/pat27 <1122448811224488> def
/pat28 <eeddbb77eeddbb77> def
/pat29 <83070e1c3870e0c1> def
/pat30 <fefdfbf7efdfbf7f> def
/pat31 <7cf8f1e3c78f1f3e> def

/TGMAX
 { exch dup 3 1 roll exch dup 3 1 roll gt { pop } { exch pop } ifelse
 } def
/TGMIN
 { exch dup 3 1 roll exch dup 3 1 roll lt { pop } { exch pop } ifelse
 } def
/TGSW { stringwidth pop } def
/tgifstrw 0 def

/bd { bind def } bind def

/GS { gsave } bd
/GR { grestore } bd
/NP { newpath } bd
/CP { closepath } bd
/CHP { charpath } bd
/CT { curveto } bd
/L { lineto } bd
/RL { rlineto } bd
/M { moveto } bd
/RM { rmoveto } bd
/S { stroke } bd
/F { fill } bd
/TR { translate } bd
/RO { rotate } bd
/SC { scale } bd
/MU { mul } bd
/DI { div } bd
/DU { dup } bd
/NE { neg } bd
/AD { add } bd
/SU { sub } bd
/PO { pop } bd
/EX { exch } bd
/CO { concat } bd
/CL { clip } bd
/EC { eoclip } bd
/EF { eofill } bd
/IM { image } bd
/IMM { imagemask } bd
/ARY { array } bd
/SG { setgray } bd
/RG { setrgbcolor } bd
/SD { setdash } bd
/W { setlinewidth } bd
/SM { setmiterlimit } bd
/SLC { setlinecap } bd
/SLJ { setlinejoin } bd
/SH { show } bd
/FF { findfont } bd
/MS { makefont setfont } bd
/AR { arcto 4 {pop} repeat } bd
/CURP { currentpoint } bd
/FLAT { flattenpath strokepath clip newpath } bd
/TGSM { tgiforigctm setmatrix } def
/TGRM { savematrix setmatrix } def

end

%%EndProlog
%%Page: 1 1

%%PageBoundingBox: 63 395 485 791
tgifdict begin
/tgifsavedpage save def

1 SM
1 W

0 SG

72 0 MU 72 11 MU TR
72 128 DI 100.000 MU 100 DI DU NE SC

GS

/tgiforigctm matrix currentmatrix def

% BOX
0 SG
GS
   NP 324 68 M 492 68 L 492 112 L 324 112 L CP 1 SG F
   0 SG
   NP 324 68 M 492 68 L 492 112 L 324 112 L CP EC NP
   pat3 8 8 320 64 176 56 TGPF
GR
GS
   10 SM
   GS
      NP 324 68 M 492 68 L 492 112 L 324 112 L CP
      4 W
      S
   GR
GR

% BOX
0 SG
NP 324 68 M 492 68 L 492 112 L 324 112 L CP 1 SG F
   0 SG
GS
   10 SM
   GS
      NP 324 68 M 492 68 L 492 112 L 324 112 L CP
      S
   GR
GR

% TEXT
NP
0 SG
   GS
      1 W
      404 92 M
      GS
        GS
        0
            /Helvetica FF [17 0 0 -17 0 0] MS
            (Front end: KIWIFE) TGSW 
        AD
        GR
      2 DI NE 0 RM
            0 SG
            /Helvetica FF [17 0 0 -17 0 0] MS
            (Front end: KIWIFE) SH
      GR
   GR

% TEXT
NP
0 SG
   GS
      1 W
      404 160 M
      GS
        GS
        0
            /Helvetica FF [11 0 0 -11 0 0] MS
            (REPACK) TGSW 
        AD
        GR
      2 DI NE 0 RM
            0 SG
            /Helvetica FF [11 0 0 -11 0 0] MS
            (REPACK) SH
      GR
   GR

% TEXT
NP
0 SG
   GS
      1 W
      368 588 M
      GS
        GS
        0
            /Helvetica FF [11 0 0 -11 0 0] MS
            (Verilog) TGSW 
        AD
        GR
      2 DI NE 0 RM
            0 SG
            /Helvetica FF [11 0 0 -11 0 0] MS
            (Verilog) SH
      GR
      0 13 RM
      GS
        GS
        0
            /Helvetica FF [11 0 0 -11 0 0] MS
            (Conversion) TGSW 
        AD
        GR
      2 DI NE 0 RM
            0 SG
            /Helvetica FF [11 0 0 -11 0 0] MS
            (Conversion) SH
      GR
   GR

% TEXT
NP
0 SG
   GS
      1 W
      464 588 M
      GS
        GS
        0
            /Helvetica FF [11 0 0 -11 0 0] MS
            (SystemC) TGSW 
        AD
        GR
      2 DI NE 0 RM
            0 SG
            /Helvetica FF [11 0 0 -11 0 0] MS
            (SystemC) SH
      GR
      0 13 RM
      GS
        GS
        0
            /Helvetica FF [11 0 0 -11 0 0] MS
            (Conversion) TGSW 
        AD
        GR
      2 DI NE 0 RM
            0 SG
            /Helvetica FF [11 0 0 -11 0 0] MS
            (Conversion) SH
      GR
   GR

% TEXT
NP
0 SG
   GS
      1 W
      552 580 M
      GS
        GS
        0
            /Helvetica FF [11 0 0 -11 0 0] MS
            (Microcontroller) TGSW 
        AD
        GR
      2 DI NE 0 RM
            0 SG
            /Helvetica FF [11 0 0 -11 0 0] MS
            (Microcontroller) SH
      GR
      0 13 RM
      GS
        GS
        0
            /Helvetica FF [11 0 0 -11 0 0] MS
            (Assembly) TGSW 
        AD
        GR
      2 DI NE 0 RM
            0 SG
            /Helvetica FF [11 0 0 -11 0 0] MS
            (Assembly) SH
      GR
      0 13 RM
      GS
        GS
        0
            /Helvetica FF [11 0 0 -11 0 0] MS
            (Language) TGSW 
        AD
        GR
      2 DI NE 0 RM
            0 SG
            /Helvetica FF [11 0 0 -11 0 0] MS
            (Language) SH
      GR
   GR

% TEXT
NP
0 SG
   GS
      1 W
      264 656 M
      GS
        GS
        0
            /Helvetica FF [11 0 0 -11 0 0] MS
            (XML ) TGSW 
        AD
        GR
      2 DI NE 0 RM
            0 SG
            /Helvetica FF [11 0 0 -11 0 0] MS
            (XML ) SH
      GR
      0 13 RM
      GS
        GS
        0
            /Helvetica FF [11 0 0 -11 0 0] MS
            (Serialised) TGSW 
        AD
        GR
      2 DI NE 0 RM
            0 SG
            /Helvetica FF [11 0 0 -11 0 0] MS
            (Serialised) SH
      GR
   GR

% TEXT
NP
0 SG
   GS
      1 W
      452 652 M
      GS
        GS
        0
            /Helvetica FF [11 0 0 -11 0 0] MS
            (C++/) TGSW 
        AD
        GR
      2 DI NE 0 RM
            0 SG
            /Helvetica FF [11 0 0 -11 0 0] MS
            (C++/) SH
      GR
      0 13 RM
      GS
        GS
        0
            /Helvetica FF [11 0 0 -11 0 0] MS
            (SystemC) TGSW 
        AD
        GR
      2 DI NE 0 RM
            0 SG
            /Helvetica FF [11 0 0 -11 0 0] MS
            (SystemC) SH
      GR
      0 13 RM
      GS
        GS
        0
            /Helvetica FF [11 0 0 -11 0 0] MS
            (\(C++\)) TGSW 
        AD
        GR
      2 DI NE 0 RM
            0 SG
            /Helvetica FF [11 0 0 -11 0 0] MS
            (\(C++\)) SH
      GR
   GR

% TEXT
NP
0 SG
   GS
      1 W
      544 652 M
      GS
        GS
        0
            /Helvetica FF [11 0 0 -11 0 0] MS
            (Assembler) TGSW 
        AD
        GR
      2 DI NE 0 RM
            0 SG
            /Helvetica FF [11 0 0 -11 0 0] MS
            (Assembler) SH
      GR
      0 13 RM
      GS
        GS
        0
            /Helvetica FF [11 0 0 -11 0 0] MS
            (\(or m/code\)) TGSW 
        AD
        GR
      2 DI NE 0 RM
            0 SG
            /Helvetica FF [11 0 0 -11 0 0] MS
            (\(or m/code\)) SH
      GR
   GR

% TEXT
NP
0 SG
   GS
      1 W
      360 660 M
      GS
        GS
        0
            /Helvetica FF [11 0 0 -11 0 0] MS
            (RTL Output) TGSW 
        AD
        GR
      2 DI NE 0 RM
            0 SG
            /Helvetica FF [11 0 0 -11 0 0] MS
            (RTL Output) SH
      GR
      0 13 RM
      GS
        GS
        0
            /Helvetica FF [11 0 0 -11 0 0] MS
            (\(Verilog\)) TGSW 
        AD
        GR
      2 DI NE 0 RM
            0 SG
            /Helvetica FF [11 0 0 -11 0 0] MS
            (\(Verilog\)) SH
      GR
   GR

% TEXT
NP
0 SG
   GS
      1 W
      360 20 M
      GS
        GS
        0
            /Helvetica FF [11 0 0 -11 0 0] MS
            (.net ) TGSW 
        AD
        GR
      2 DI NE 0 RM
            0 SG
            /Helvetica FF [11 0 0 -11 0 0] MS
            (.net ) SH
      GR
      0 13 RM
      GS
        GS
        0
            /Helvetica FF [11 0 0 -11 0 0] MS
            (Assembly) TGSW 
        AD
        GR
      2 DI NE 0 RM
            0 SG
            /Helvetica FF [11 0 0 -11 0 0] MS
            (Assembly) SH
      GR
   GR

% OVAL
0 SG
GS
   GS
      NP 360 28 24 24 TGEL
      S
   GR
GR

% OVAL
0 SG
GS
   GS
      NP 544 660 32 32 TGEL
      S
   GR
GR

% OVAL
0 SG
GS
   GS
      NP 452 660 32 32 TGEL
      S
   GR
GR

% OVAL
0 SG
GS
   GS
      NP 360 660 32 32 TGEL
      S
   GR
GR

% OVAL
0 SG
GS
   GS
      NP 264 660 32 32 TGEL
      S
   GR
GR

% BOX
0 SG
GS
   10 SM
   GS
      NP 424 564 M 504 564 L 504 612 L 424 612 L CP
      S
   GR
GR

% BOX
0 SG
GS
   10 SM
   GS
      NP 512 564 M 592 564 L 592 612 L 512 612 L CP
      S
   GR
GR

% BOX
0 SG
GS
   10 SM
   GS
      NP 328 564 M 408 564 L 408 612 L 328 612 L CP
      S
   GR
GR

% BOX
0 SG
GS
   10 SM
   GS
      NP 340 400 M 472 400 L 472 436 L 340 436 L CP
      S
   GR
GR

% POLY/OPEN-SPLINE
0 SG
GS
   NP
      360 52 M
      16 0 atan DU cos 8.000 MU 360 exch SU
      exch sin 8.000 MU 68 exch SU L
   TGSM
   1 W
   S
GR
GS
   TGSM
   NP
      360 68 8.000 3.000 0 16 TGAT
   1 SG CP F
   0 SG
   NP
      360 68 8.000 3.000 0 16 TGAT
   CP F
GR

% POLY/OPEN-SPLINE
0 SG
GS
   NP
      408 500 M
      20 0 atan DU cos 8.000 MU 408 exch SU
      exch sin 8.000 MU 520 exch SU L
   TGSM
   1 W
   S
GR
GS
   TGSM
   NP
      408 520 8.000 3.000 0 20 TGAT
   1 SG CP F
   0 SG
   NP
      408 520 8.000 3.000 0 20 TGAT
   CP F
GR

% POLY/OPEN-SPLINE
0 SG
GS
   NP
      544 612 M
      16 0 atan DU cos 8.000 MU 544 exch SU
      exch sin 8.000 MU 628 exch SU L
   TGSM
   1 W
   S
GR
GS
   TGSM
   NP
      544 628 8.000 3.000 0 16 TGAT
   1 SG CP F
   0 SG
   NP
      544 628 8.000 3.000 0 16 TGAT
   CP F
GR

% POLY/OPEN-SPLINE
0 SG
GS
   NP
      552 532 M
      32 0 atan DU cos 8.000 MU 552 exch SU
      exch sin 8.000 MU 564 exch SU L
   TGSM
   1 W
   S
GR
GS
   TGSM
   NP
      552 564 8.000 3.000 0 32 TGAT
   1 SG CP F
   0 SG
   NP
      552 564 8.000 3.000 0 32 TGAT
   CP F
GR

% POLY/OPEN-SPLINE
0 SG
GS
   NP
      464 532 M
      32 0 atan DU cos 8.000 MU 464 exch SU
      exch sin 8.000 MU 564 exch SU L
   TGSM
   1 W
   S
GR
GS
   TGSM
   NP
      464 564 8.000 3.000 0 32 TGAT
   1 SG CP F
   0 SG
   NP
      464 564 8.000 3.000 0 32 TGAT
   CP F
GR

% POLY/OPEN-SPLINE
0 SG
GS
   NP
      376 532 M
      32 0 atan DU cos 8.000 MU 376 exch SU
      exch sin 8.000 MU 564 exch SU L
   TGSM
   1 W
   S
GR
GS
   TGSM
   NP
      376 564 8.000 3.000 0 32 TGAT
   1 SG CP F
   0 SG
   NP
      376 564 8.000 3.000 0 32 TGAT
   CP F
GR

% POLY/OPEN-SPLINE
0 SG
GS
   NP
      288 532 M
      96 -16 atan DU cos 8.000 MU 272 exch SU
      exch sin 8.000 MU 628 exch SU L
   TGSM
   1 W
   S
GR
GS
   TGSM
   NP
      272 628 8.000 3.000 -16 96 TGAT
   1 SG CP F
   0 SG
   NP
      272 628 8.000 3.000 -16 96 TGAT
   CP F
GR

% POLY/OPEN-SPLINE
0 SG
GS
   NP
      288 532 M
      552 532 L
   TGSM
   1 W
   S
GR

% POLY/OPEN-SPLINE
0 SG
GS
   NP
      408 500 M
      32 0 atan DU cos 8.000 MU 408 exch SU
      exch sin 8.000 MU 532 exch SU L
   TGSM
   1 W
   S
GR
GS
   TGSM
   NP
      408 532 8.000 3.000 0 32 TGAT
   1 SG CP F
   0 SG
   NP
      408 532 8.000 3.000 0 32 TGAT
   CP F
GR

% POLY/OPEN-SPLINE
0 SG
GS
   NP
      452 612 M
      16 0 atan DU cos 8.000 MU 452 exch SU
      exch sin 8.000 MU 628 exch SU L
   TGSM
   1 W
   S
GR
GS
   TGSM
   NP
      452 628 8.000 3.000 0 16 TGAT
   1 SG CP F
   0 SG
   NP
      452 628 8.000 3.000 0 16 TGAT
   CP F
GR

% POLY/OPEN-SPLINE
0 SG
GS
   NP
      360 612 M
      16 0 atan DU cos 8.000 MU 360 exch SU
      exch sin 8.000 MU 628 exch SU L
   TGSM
   1 W
   S
GR
GS
   TGSM
   NP
      360 628 8.000 3.000 0 16 TGAT
   1 SG CP F
   0 SG
   NP
      360 628 8.000 3.000 0 16 TGAT
   CP F
GR

% TEXT
NP
0 SG
   GS
      1 W
      408 280 M
      GS
        GS
        0
            /Helvetica FF [11 0 0 -11 0 0] MS
            (BEVELAB FSM) TGSW 
        AD
        GR
      2 DI NE 0 RM
            0 SG
            /Helvetica FF [11 0 0 -11 0 0] MS
            (BEVELAB FSM) SH
      GR
      0 13 RM
      GS
        GS
        0
            /Helvetica FF [11 0 0 -11 0 0] MS
            (Generation) TGSW 
        AD
        GR
      2 DI NE 0 RM
            0 SG
            /Helvetica FF [11 0 0 -11 0 0] MS
            (Generation) SH
      GR
   GR

% BOX
0 SG
GS
   10 SM
   GS
      NP 228 324 M 340 324 L 340 368 L 228 368 L CP
      S
   GR
GR

% POLY/OPEN-SPLINE
0 SG
GS
   NP
      408 368 M
      32 0 atan DU cos 8.000 MU 408 exch SU
      exch sin 8.000 MU 400 exch SU L
   TGSM
   1 W
   S
GR
GS
   TGSM
   NP
      408 400 8.000 3.000 0 32 TGAT
   1 SG CP F
   0 SG
   NP
      408 400 8.000 3.000 0 32 TGAT
   CP F
GR

% BOX
0 SG
GS
   10 SM
   GS
      NP 352 260 M 464 260 L 464 304 L 352 304 L CP
      S
   GR
GR

% POLY/OPEN-SPLINE
0 SG
GS
   NP
      408 304 M
      20 0 atan DU cos 8.000 MU 408 exch SU
      exch sin 8.000 MU 324 exch SU L
   TGSM
   1 W
   S
GR
GS
   TGSM
   NP
      408 324 8.000 3.000 0 20 TGAT
   1 SG CP F
   0 SG
   NP
      408 324 8.000 3.000 0 20 TGAT
   CP F
GR

% BOX
0 SG
GS
   10 SM
   GS
      NP 352 196 M 464 196 L 464 240 L 352 240 L CP
      S
   GR
GR

% POLY/OPEN-SPLINE
0 SG
GS
   NP
      408 240 M
      20 0 atan DU cos 8.000 MU 408 exch SU
      exch sin 8.000 MU 260 exch SU L
   TGSM
   1 W
   S
GR
GS
   TGSM
   NP
      408 260 8.000 3.000 0 20 TGAT
   1 SG CP F
   0 SG
   NP
      408 260 8.000 3.000 0 20 TGAT
   CP F
GR

% BOX
0 SG
GS
   10 SM
   GS
      NP 352 132 M 464 132 L 464 176 L 352 176 L CP
      S
   GR
GR

% POLY/OPEN-SPLINE
0 SG
GS
   NP
      408 176 M
      20 0 atan DU cos 8.000 MU 408 exch SU
      exch sin 8.000 MU 196 exch SU L
   TGSM
   1 W
   S
GR
GS
   TGSM
   NP
      408 196 8.000 3.000 0 20 TGAT
   1 SG CP F
   0 SG
   NP
      408 196 8.000 3.000 0 20 TGAT
   CP F
GR

% POLY/OPEN-SPLINE
0 SG
GS
   NP
      408 112 M
      20 0 atan DU cos 8.000 MU 408 exch SU
      exch sin 8.000 MU 132 exch SU L
   TGSM
   1 W
   S
GR
GS
   TGSM
   NP
      408 132 8.000 3.000 0 20 TGAT
   1 SG CP F
   0 SG
   NP
      408 132 8.000 3.000 0 20 TGAT
   CP F
GR

% TEXT
NP
0 SG
   GS
      1 W
      404 216 M
      GS
        GS
        0
            /Helvetica FF [11 0 0 -11 0 0] MS
            (RESTRUCTURE) TGSW 
        AD
        GR
      2 DI NE 0 RM
            0 SG
            /Helvetica FF [11 0 0 -11 0 0] MS
            (RESTRUCTURE) SH
      GR
      0 13 RM
      GS
        GS
        0
            /Helvetica FF [11 0 0 -11 0 0] MS
            (OFFCHIP) TGSW 
        AD
        GR
      2 DI NE 0 RM
            0 SG
            /Helvetica FF [11 0 0 -11 0 0] MS
            (OFFCHIP) SH
      GR
   GR

% TEXT
NP
0 SG
   GS
      1 W
      404 424 M
      GS
        GS
        0
            /Helvetica FF [11 0 0 -11 0 0] MS
            (CONE-REFINE) TGSW 
        AD
        GR
      2 DI NE 0 RM
            0 SG
            /Helvetica FF [11 0 0 -11 0 0] MS
            (CONE-REFINE) SH
      GR
   GR

% TEXT
NP
0 SG
   GS
      1 W
      284 344 M
      GS
        GS
        0
            /Helvetica FF [11 0 0 -11 0 0] MS
            (ARRAY MODULO) TGSW 
        AD
        GR
      2 DI NE 0 RM
            0 SG
            /Helvetica FF [11 0 0 -11 0 0] MS
            (ARRAY MODULO) SH
      GR
      0 13 RM
      GS
        GS
        0
            /Helvetica FF [11 0 0 -11 0 0] MS
            (SCHEDULER) TGSW 
        AD
        GR
      2 DI NE 0 RM
            0 SG
            /Helvetica FF [11 0 0 -11 0 0] MS
            (SCHEDULER) SH
      GR
   GR

% TEXT
NP
0 SG
   GS
      1 W
      412 340 M
      GS
        GS
        0
            /Helvetica FF [11 0 0 -11 0 0] MS
            (VLIW  SCHEDULER) TGSW 
        AD
        GR
      2 DI NE 0 RM
            0 SG
            /Helvetica FF [11 0 0 -11 0 0] MS
            (VLIW  SCHEDULER) SH
      GR
      0 13 RM
      GS
        GS
        0
            /Helvetica FF [11 0 0 -11 0 0] MS
            (DATAPATH) TGSW 
        AD
        GR
      2 DI NE 0 RM
            0 SG
            /Helvetica FF [11 0 0 -11 0 0] MS
            (DATAPATH) SH
      GR
   GR

% TEXT
NP
0 SG
   GS
      1 W
      528 340 M
      GS
        GS
        0
            /Helvetica FF [11 0 0 -11 0 0] MS
            (INTER-THREAD) TGSW 
        AD
        GR
      2 DI NE 0 RM
            0 SG
            /Helvetica FF [11 0 0 -11 0 0] MS
            (INTER-THREAD) SH
      GR
      0 13 RM
      GS
        GS
        0
            /Helvetica FF [11 0 0 -11 0 0] MS
            (SCHEDULER) TGSW 
        AD
        GR
      2 DI NE 0 RM
            0 SG
            /Helvetica FF [11 0 0 -11 0 0] MS
            (SCHEDULER) SH
      GR
   GR

% TEXT
NP
0 SG
   GS
      1 W
      404 476 M
      GS
        GS
        0
            /Helvetica FF [11 0 0 -11 0 0] MS
            (STRUCTURAL HAZARD) TGSW 
        AD
        GR
      2 DI NE 0 RM
            0 SG
            /Helvetica FF [11 0 0 -11 0 0] MS
            (STRUCTURAL HAZARD) SH
      GR
      0 13 RM
      GS
        GS
        0
            /Helvetica FF [11 0 0 -11 0 0] MS
            (RESOLVE) TGSW 
        AD
        GR
      2 DI NE 0 RM
            0 SG
            /Helvetica FF [11 0 0 -11 0 0] MS
            (RESOLVE) SH
      GR
   GR

% BOX
0 SG
GS
   10 SM
   GS
      NP 352 324 M 464 324 L 464 368 L 352 368 L CP
      S
   GR
GR

% BOX
0 SG
GS
   10 SM
   GS
      NP 476 324 M 588 324 L 588 368 L 476 368 L CP
      S
   GR
GR

% POLY/OPEN-SPLINE
0 SG
GS
   NP
      284 324 M
      -16 0 atan DU cos 8.000 MU exch sin 8.000 MU RM
      284 308 L
      540 308 L
      16 0 atan DU cos 8.000 MU 540 exch SU
      exch sin 8.000 MU 324 exch SU L
   TGSM
   1 W
   S
GR
GS
   TGSM
   NP
      284 324 8.000 3.000 0 16 TGAT
   1 SG CP F
   0 SG
   NP
      284 324 8.000 3.000 0 16 TGAT
   CP F
GR
GS
   TGSM
   NP
      540 324 8.000 3.000 0 16 TGAT
   1 SG CP F
   0 SG
   NP
      540 324 8.000 3.000 0 16 TGAT
   CP F
GR

% POLY/OPEN-SPLINE
0 SG
GS
   NP
      288 368 M
      288 380 L
      608 380 L
      592 284 L
      524 280 L
      0 -60 atan DU cos 8.000 MU 464 exch SU
      exch sin 8.000 MU 280 exch SU L
   TGSM
   1 W
   S
GR
GS
   TGSM
   NP
      464 280 8.000 3.000 -60 0 TGAT
   1 SG CP F
   0 SG
   NP
      464 280 8.000 3.000 -60 0 TGAT
   CP F
GR

% POLY/OPEN-SPLINE
0 SG
GS
   NP
      536 368 M
      12 0 atan DU cos 8.000 MU 536 exch SU
      exch sin 8.000 MU 380 exch SU L
   TGSM
   1 W
   S
GR
GS
   TGSM
   NP
      536 380 8.000 3.000 0 12 TGAT
   1 SG CP F
   0 SG
   NP
      536 380 8.000 3.000 0 12 TGAT
   CP F
GR

% POLY/OPEN-SPLINE
0 SG
GS
   NP
      288 368 M
      12 0 atan DU cos 8.000 MU 288 exch SU
      exch sin 8.000 MU 380 exch SU L
   TGSM
   1 W
   S
GR
GS
   TGSM
   NP
      288 380 8.000 3.000 0 12 TGAT
   1 SG CP F
   0 SG
   NP
      288 380 8.000 3.000 0 12 TGAT
   CP F
GR

% TEXT
NP
0 SG
   GS
      1 W
      412 20 M
      GS
        GS
        0
            /Helvetica FF [11 0 0 -11 0 0] MS
            (.net ) TGSW 
        AD
        GR
      2 DI NE 0 RM
            0 SG
            /Helvetica FF [11 0 0 -11 0 0] MS
            (.net ) SH
      GR
      0 13 RM
      GS
        GS
        0
            /Helvetica FF [11 0 0 -11 0 0] MS
            (Assembly) TGSW 
        AD
        GR
      2 DI NE 0 RM
            0 SG
            /Helvetica FF [11 0 0 -11 0 0] MS
            (Assembly) SH
      GR
   GR

% OVAL
0 SG
GS
   GS
      NP 412 28 24 24 TGEL
      S
   GR
GR

% POLY/OPEN-SPLINE
0 SG
GS
   NP
      412 52 M
      16 0 atan DU cos 8.000 MU 412 exch SU
      exch sin 8.000 MU 68 exch SU L
   TGSM
   1 W
   S
GR
GS
   TGSM
   NP
      412 68 8.000 3.000 0 16 TGAT
   1 SG CP F
   0 SG
   NP
      412 68 8.000 3.000 0 16 TGAT
   CP F
GR

% TEXT
NP
0 SG
   GS
      1 W
      464 20 M
      GS
        GS
        0
            /Helvetica FF [11 0 0 -11 0 0] MS
            (.net ) TGSW 
        AD
        GR
      2 DI NE 0 RM
            0 SG
            /Helvetica FF [11 0 0 -11 0 0] MS
            (.net ) SH
      GR
      0 13 RM
      GS
        GS
        0
            /Helvetica FF [11 0 0 -11 0 0] MS
            (Assembly) TGSW 
        AD
        GR
      2 DI NE 0 RM
            0 SG
            /Helvetica FF [11 0 0 -11 0 0] MS
            (Assembly) SH
      GR
   GR

% OVAL
0 SG
GS
   GS
      NP 464 28 24 24 TGEL
      S
   GR
GR

% POLY/OPEN-SPLINE
0 SG
GS
   NP
      464 52 M
      16 0 atan DU cos 8.000 MU 464 exch SU
      exch sin 8.000 MU 68 exch SU L
   TGSM
   1 W
   S
GR
GS
   TGSM
   NP
      464 68 8.000 3.000 0 16 TGAT
   1 SG CP F
   0 SG
   NP
      464 68 8.000 3.000 0 16 TGAT
   CP F
GR

% TEXT
NP
0 SG
   GS
      1 W
      592 136 M
      GS
        GS
        0
            0
        AD
        GR
      2 DI NE 0 RM
      GR
      0 13 RM
      GS
        GS
        0
            /Helvetica FF [11 0 0 -11 0 0] MS
            (Analyse array subscript patterns.) TGSW 
        AD
        GR
      2 DI NE 0 RM
            0 SG
            /Helvetica FF [11 0 0 -11 0 0] MS
            (Analyse array subscript patterns.) SH
      GR
      0 13 RM
      GS
        GS
        0
            /Helvetica FF [11 0 0 -11 0 0] MS
            (Divide arrays into smaller arrays, register files) TGSW 
        AD
        GR
      2 DI NE 0 RM
            0 SG
            /Helvetica FF [11 0 0 -11 0 0] MS
            (Divide arrays into smaller arrays, register files) SH
      GR
      0 13 RM
      GS
        GS
        0
            /Helvetica FF [11 0 0 -11 0 0] MS
            (and scalar registers.) TGSW 
        AD
        GR
      2 DI NE 0 RM
            0 SG
            /Helvetica FF [11 0 0 -11 0 0] MS
            (and scalar registers.) SH
      GR
   GR

% TEXT
NP
0 SG
   GS
      1 W
      584 216 M
      GS
        GS
        0
            /Helvetica FF [11 0 0 -11 0 0] MS
            (Map large arrays to DRAM) TGSW 
        AD
        GR
      2 DI NE 0 RM
            0 SG
            /Helvetica FF [11 0 0 -11 0 0] MS
            (Map large arrays to DRAM) SH
      GR
      0 13 RM
      GS
        GS
        0
            /Helvetica FF [11 0 0 -11 0 0] MS
            (Generate connections ) TGSW 
        AD
        GR
      2 DI NE 0 RM
            0 SG
            /Helvetica FF [11 0 0 -11 0 0] MS
            (Generate connections ) SH
      GR
      0 13 RM
      GS
        GS
        0
            /Helvetica FF [11 0 0 -11 0 0] MS
            (for DRAM controller) TGSW 
        AD
        GR
      2 DI NE 0 RM
            0 SG
            /Helvetica FF [11 0 0 -11 0 0] MS
            (for DRAM controller) SH
      GR
   GR

% POLY/OPEN-SPLINE
0 SG
GS
   [2 2] 0 SD
   NP
      512 144 M
      8 -40 atan DU cos 10.000 MU 472 exch SU
      exch sin 10.000 MU 152 exch SU L
   TGSM
   2 W
   S
   [] 0 SD
   1 W
GR
GS
   TGSM
   NP
      472 152 10.000 4.000 -40 8 TGAT
   1 SG CP F
   0 SG
   NP
      472 152 10.000 4.000 -40 8 TGAT
   CP F
GR

% POLY/OPEN-SPLINE
0 SG
GS
   [2 2] 0 SD
   NP
      512 216 M
      0 -40 atan DU cos 10.000 MU 472 exch SU
      exch sin 10.000 MU 216 exch SU L
   TGSM
   2 W
   S
   [] 0 SD
   1 W
GR
GS
   TGSM
   NP
      472 216 10.000 4.000 -40 0 TGAT
   1 SG CP F
   0 SG
   NP
      472 216 10.000 4.000 -40 0 TGAT
   CP F
GR

% TEXT
NP
0 SG
   GS
      1 W
      208 144 M
      GS
        GS
        0
            /Helvetica FF [11 0 0 -11 0 0] MS
            (BEVELAB) TGSW 
        AD
        GR
      2 DI NE 0 RM
            0 SG
            /Helvetica FF [11 0 0 -11 0 0] MS
            (BEVELAB) SH
      GR
      0 13 RM
      GS
        GS
        0
            /Helvetica FF [11 0 0 -11 0 0] MS
            (Convert thread to finite state machine:) TGSW 
        AD
        GR
      2 DI NE 0 RM
            0 SG
            /Helvetica FF [11 0 0 -11 0 0] MS
            (Convert thread to finite state machine:) SH
      GR
      0 13 RM
      GS
        GS
        0
            0
        AD
        GR
      2 DI NE 0 RM
      GR
      0 13 RM
      GS
        GS
        0
            /Helvetica FF [11 0 0 -11 0 0] MS
            (Pause mode:) TGSW 
        AD
        GR
      2 DI NE 0 RM
            0 SG
            /Helvetica FF [11 0 0 -11 0 0] MS
            (Pause mode:) SH
      GR
      0 13 RM
      GS
        GS
        0
            /Helvetica FF [11 0 0 -11 0 0] MS
            ( Soft, Hard, Autom BasicBlock, Maximal) TGSW 
        AD
        GR
      2 DI NE 0 RM
            0 SG
            /Helvetica FF [11 0 0 -11 0 0] MS
            ( Soft, Hard, Autom BasicBlock, Maximal) SH
      GR
   GR

% POLY/OPEN-SPLINE
0 SG
GS
   [2 2] 0 SD
   NP
      264 200 M
      56 80 atan DU cos 10.000 MU 344 exch SU
      exch sin 10.000 MU 256 exch SU L
   TGSM
   2 W
   S
   [] 0 SD
   1 W
GR
GS
   TGSM
   NP
      344 256 10.000 4.000 80 56 TGAT
   1 SG CP F
   0 SG
   NP
      344 256 10.000 4.000 80 56 TGAT
   CP F
GR

% TEXT
NP
0 SG
   GS
      1 W
      612 468 M
      GS
        GS
        0
            /Helvetica FF [11 0 0 -11 0 0] MS
            (Split soft pauses into micostates) TGSW 
        AD
        GR
      2 DI NE 0 RM
            0 SG
            /Helvetica FF [11 0 0 -11 0 0] MS
            (Split soft pauses into micostates) SH
      GR
      0 13 RM
      GS
        GS
        0
            0
        AD
        GR
      2 DI NE 0 RM
      GR
      0 13 RM
      GS
        GS
        0
            /Helvetica FF [11 0 0 -11 0 0] MS
            (Error if strucutral hazard in hard pause mode) TGSW 
        AD
        GR
      2 DI NE 0 RM
            0 SG
            /Helvetica FF [11 0 0 -11 0 0] MS
            (Error if strucutral hazard in hard pause mode) SH
      GR
      0 13 RM
      GS
        GS
        0
            /Helvetica FF [11 0 0 -11 0 0] MS
            (Error if need non-causal input.) TGSW 
        AD
        GR
      2 DI NE 0 RM
            0 SG
            /Helvetica FF [11 0 0 -11 0 0] MS
            (Error if need non-causal input.) SH
      GR
   GR

% POLY/OPEN-SPLINE
0 SG
GS
   NP
      408 436 M
      20 0 atan DU cos 8.000 MU 408 exch SU
      exch sin 8.000 MU 456 exch SU L
   TGSM
   1 W
   S
GR
GS
   TGSM
   NP
      408 456 8.000 3.000 0 20 TGAT
   1 SG CP F
   0 SG
   NP
      408 456 8.000 3.000 0 20 TGAT
   CP F
GR

% BOX
0 SG
GS
   10 SM
   GS
      NP 340 456 M 472 456 L 472 500 L 340 500 L CP
      S
   GR
GR

% TEXT
NP
0 SG
   GS
      1 W
      572 416 M
      GS
        GS
        0
            /Helvetica FF [11 0 0 -11 0 0] MS
            (Trim design) TGSW 
        AD
        GR
      2 DI NE 0 RM
            0 SG
            /Helvetica FF [11 0 0 -11 0 0] MS
            (Trim design) SH
      GR
      0 13 RM
      GS
        GS
        0
            /Helvetica FF [11 0 0 -11 0 0] MS
            (using cone-of-influence) TGSW 
        AD
        GR
      2 DI NE 0 RM
            0 SG
            /Helvetica FF [11 0 0 -11 0 0] MS
            (using cone-of-influence) SH
      GR
   GR

% POLY/OPEN-SPLINE
0 SG
GS
   [2 2] 0 SD
   NP
      528 412 M
      12 -52 atan DU cos 10.000 MU 476 exch SU
      exch sin 10.000 MU 424 exch SU L
   TGSM
   2 W
   S
   [] 0 SD
   1 W
GR
GS
   TGSM
   NP
      476 424 10.000 4.000 -52 12 TGAT
   1 SG CP F
   0 SG
   NP
      476 424 10.000 4.000 -52 12 TGAT
   CP F
GR

% POLY/OPEN-SPLINE
0 SG
GS
   [2 2] 0 SD
   NP
      528 476 M
      -12 -52 atan DU cos 10.000 MU 476 exch SU
      exch sin 10.000 MU 464 exch SU L
   TGSM
   2 W
   S
   [] 0 SD
   1 W
GR
GS
   TGSM
   NP
      476 464 10.000 4.000 -52 -12 TGAT
   1 SG CP F
   0 SG
   NP
      476 464 10.000 4.000 -52 -12 TGAT
   CP F
GR

% TEXT
NP
0 SG
   GS
      1 W
      648 584 M
      GS
        GS
        0
            /Helvetica FF [11 0 0 -11 0 0] MS
            (DIOSIM) TGSW 
        AD
        GR
      2 DI NE 0 RM
            0 SG
            /Helvetica FF [11 0 0 -11 0 0] MS
            (DIOSIM) SH
      GR
      0 13 RM
      GS
        GS
        0
            /Helvetica FF [11 0 0 -11 0 0] MS
            (simulator) TGSW 
        AD
        GR
      2 DI NE 0 RM
            0 SG
            /Helvetica FF [11 0 0 -11 0 0] MS
            (simulator) SH
      GR
   GR

% BOX
0 SG
GS
   10 SM
   GS
      NP 608 564 M 688 564 L 688 612 L 608 612 L CP
      S
   GR
GR

% POLY/OPEN-SPLINE
0 SG
GS
   NP
      688 588 M
      0 24 atan DU cos 8.000 MU 712 exch SU
      exch sin 8.000 MU 588 exch SU L
   TGSM
   1 W
   S
GR
GS
   TGSM
   NP
      712 588 8.000 3.000 24 0 TGAT
   1 SG CP F
   0 SG
   NP
      712 588 8.000 3.000 24 0 TGAT
   CP F
GR

% POLYGON/CLOSED-SPLINE
0 SG
NP
   720 564 M
   776 564 L
   760 608 L
   704 608 L
CP
GS
GR
GS
   2 W
   [2 2] 0 SD
   S
GR

% TEXT
NP
0 SG
   GS
      1 W
      192 568 M
      GS
        GS
        0
            /Helvetica FF [17 0 0 -17 0 0] MS
            (Output options) TGSW 
        AD
        GR
      2 DI NE 0 RM
            0 SG
            /Helvetica FF [17 0 0 -17 0 0] MS
            (Output options) SH
      GR
   GR

% POLY/OPEN-SPLINE
0 SG
GS
   NP
      552 532 M
      640 532 L
      32 0 atan DU cos 8.000 MU 640 exch SU
      exch sin 8.000 MU 564 exch SU L
   TGSM
   1 W
   S
GR
GS
   TGSM
   NP
      640 564 8.000 3.000 0 32 TGAT
   1 SG CP F
   0 SG
   NP
      640 564 8.000 3.000 0 32 TGAT
   CP F
GR

% POLY/OPEN-SPLINE
0 SG
GS
   NP
      408 704 M
      384 704 L
      644 704 L
      -92 0 atan DU cos 8.000 MU 644 exch SU
      exch sin 8.000 MU 612 exch SU L
   TGSM
   1 W
   S
GR
GS
   TGSM
   NP
      644 612 8.000 3.000 0 -92 TGAT
   1 SG CP F
   0 SG
   NP
      644 612 8.000 3.000 0 -92 TGAT
   CP F
GR

% POLY/OPEN-SPLINE
0 SG
GS
   NP
      488 612 M
      92 0 atan DU cos 8.000 MU 488 exch SU
      exch sin 8.000 MU 704 exch SU L
   TGSM
   1 W
   S
GR
GS
   TGSM
   NP
      488 704 8.000 3.000 0 92 TGAT
   1 SG CP F
   0 SG
   NP
      488 704 8.000 3.000 0 92 TGAT
   CP F
GR

% POLY/OPEN-SPLINE
0 SG
GS
   NP
      588 612 M
      92 0 atan DU cos 8.000 MU 588 exch SU
      exch sin 8.000 MU 704 exch SU L
   TGSM
   1 W
   S
GR
GS
   TGSM
   NP
      588 704 8.000 3.000 0 92 TGAT
   1 SG CP F
   0 SG
   NP
      588 704 8.000 3.000 0 92 TGAT
   CP F
GR

% POLY/OPEN-SPLINE
0 SG
GS
   NP
      400 612 M
      92 0 atan DU cos 8.000 MU 400 exch SU
      exch sin 8.000 MU 704 exch SU L
   TGSM
   1 W
   S
GR
GS
   TGSM
   NP
      400 704 8.000 3.000 0 92 TGAT
   1 SG CP F
   0 SG
   NP
      400 704 8.000 3.000 0 92 TGAT
   CP F
GR

% TEXT
NP
0 SG
   GS
      1 W
      772 652 M
      GS
        GS
        0
            /Helvetica FF [11 0 0 -11 0 0] MS
            (All output forms can be round-tripped) TGSW 
        AD
        GR
      2 DI NE 0 RM
            0 SG
            /Helvetica FF [11 0 0 -11 0 0] MS
            (All output forms can be round-tripped) SH
      GR
      0 13 RM
      GS
        GS
        0
            /Helvetica FF [11 0 0 -11 0 0] MS
            (back to an HPR VM) TGSW 
        AD
        GR
      2 DI NE 0 RM
            0 SG
            /Helvetica FF [11 0 0 -11 0 0] MS
            (back to an HPR VM) SH
      GR
      0 13 RM
      GS
        GS
        0
            /Helvetica FF [11 0 0 -11 0 0] MS
            (for simulation or further recipe stages.) TGSW 
        AD
        GR
      2 DI NE 0 RM
            0 SG
            /Helvetica FF [11 0 0 -11 0 0] MS
            (for simulation or further recipe stages.) SH
      GR
   GR

% TEXT
NP
0 SG
   GS
      1 W
      192 300 M
      GS
        GS
        0
            /Helvetica FF [17 0 0 -17 0 0] MS
            (Experimental) TGSW 
        AD
        GR
      2 DI NE 0 RM
            0 SG
            /Helvetica FF [17 0 0 -17 0 0] MS
            (Experimental) SH
      GR
      0 20 RM
      GS
        GS
        0
            /Helvetica FF [17 0 0 -17 0 0] MS
            (Recipe) TGSW 
        AD
        GR
      2 DI NE 0 RM
            0 SG
            /Helvetica FF [17 0 0 -17 0 0] MS
            (Recipe) SH
      GR
      0 20 RM
      GS
        GS
        0
            /Helvetica FF [17 0 0 -17 0 0] MS
            (Stages) TGSW 
        AD
        GR
      2 DI NE 0 RM
            0 SG
            /Helvetica FF [17 0 0 -17 0 0] MS
            (Stages) SH
      GR
   GR

GR
tgifsavedpage restore
end
showpage

%%Trailer
%MatchingCreationDate: Fri May 27 08:55:52 2011
%%DocumentFonts: Helvetica
%%EOF
