$date
	Wed Sep 11 20:09:54 2013
$end
$version
	Icarus Verilog
$end
$timescale
	1s
$end
$scope module SIMSYS $end
$var reg 1 ! clk $end
$var reg 1 " reset $end
$upscope $end
$scope module SIMSYS $end
$scope module dut $end
$var wire 1 # CLK $end
$var wire 1 $ RST_N $end
$var wire 1 % Tb_mkTb_greet_FIRE $end
$upscope $end
$upscope $end
$enddefinitions $end
#0
$dumpvars
z%
0$
0#
1"
0!
$end
#10
1%
#100
1!
1#
