%!PS-Adobe-3.0 EPSF-3.0
%%BoundingBox: 34 460 568 771
%%Title: kiwi-zynq-ksubs3-general-structure
%%CreationDate: Wed Jan 17 09:55:22 2018
%%Creator: Tgif-4.2.5-QPL written by William Chia-Wei Cheng (bill.cheng@acm.org)
%%ProducedBy: (unknown)
%%Pages: 1
%%DocumentFonts: (atend)
%%EndComments
%%BeginProlog

/tgifdict 56 dict def
tgifdict begin

/tgifellipsedict 6 dict def
tgifellipsedict /mtrx matrix put

/TGEL % tgifellipse
 { tgifellipsedict begin
      /yrad exch def
      /xrad exch def
      /y exch def
      /x exch def
      /savematrix mtrx currentmatrix def
      x y translate
      xrad yrad scale
      0 0 1 0 360 arc
      savematrix setmatrix
   end
 } def

/tgifarrowtipdict 8 dict def
tgifarrowtipdict /mtrx matrix put

/TGAT % tgifarrowtip
 { tgifarrowtipdict begin
      /dy exch def
      /dx exch def
      /h exch def
      /w exch def
      /y exch def
      /x exch def
      /savematrix mtrx currentmatrix def
      x y translate
      dy dx atan rotate
      0 0 moveto
      w neg h lineto
      w neg h neg lineto
      savematrix setmatrix
   end
 } def

/TGMAX
 { exch dup 3 1 roll exch dup 3 1 roll gt { pop } { exch pop } ifelse
 } def
/TGMIN
 { exch dup 3 1 roll exch dup 3 1 roll lt { pop } { exch pop } ifelse
 } def
/TGSW { stringwidth pop } def
/tgifstrw 0 def

/bd { bind def } bind def

/GS { gsave } bd
/GR { grestore } bd
/NP { newpath } bd
/CP { closepath } bd
/CHP { charpath } bd
/CT { curveto } bd
/L { lineto } bd
/RL { rlineto } bd
/M { moveto } bd
/RM { rmoveto } bd
/S { stroke } bd
/F { fill } bd
/TR { translate } bd
/RO { rotate } bd
/SC { scale } bd
/MU { mul } bd
/DI { div } bd
/DU { dup } bd
/NE { neg } bd
/AD { add } bd
/SU { sub } bd
/PO { pop } bd
/EX { exch } bd
/CO { concat } bd
/CL { clip } bd
/EC { eoclip } bd
/EF { eofill } bd
/IM { image } bd
/IMM { imagemask } bd
/ARY { array } bd
/SG { setgray } bd
/RG { setrgbcolor } bd
/SD { setdash } bd
/W { setlinewidth } bd
/SM { setmiterlimit } bd
/SLC { setlinecap } bd
/SLJ { setlinejoin } bd
/SH { show } bd
/FF { findfont } bd
/MS { makefont setfont } bd
/AR { arcto 4 {pop} repeat } bd
/CURP { currentpoint } bd
/FLAT { flattenpath strokepath clip newpath } bd
/TGSM { tgiforigctm setmatrix } def
/TGRM { savematrix setmatrix } def

end

%%EndProlog
%%Page: 1 1

%%PageBoundingBox: 34 460 568 771
tgifdict begin
/tgifsavedpage save def

1 SM
1 W

0 SG

72 0 MU 72 11.695 MU TR
72 128 DI 100.000 MU 100 DI DU NE SC

GS

/tgiforigctm matrix currentmatrix def

% RCBOX
1.000 0.933 0.933 RG
NP
   980 152 M
   996 152 996 552 16 AR
   996 536 L
   996 552 292 552 16 AR
   308 552 L
   292 552 292 152 16 AR
   292 168 L
   292 152 996 152 16 AR
CP F
GS
   GS
      NP
         980 152 M
         996 152 996 552 16 AR
         996 536 L
         996 552 292 552 16 AR
         308 552 L
         292 552 292 152 16 AR
         292 168 L
         292 152 996 152 16 AR
      CP
      S
   GR
GR

% RCBOX
1.000 0.867 0.933 RG
NP
   912 256 M
   928 256 928 376 16 AR
   928 360 L
   928 376 824 376 16 AR
   840 376 L
   824 376 824 256 16 AR
   824 272 L
   824 256 928 256 16 AR
CP F
GS
   GS
      NP
         912 256 M
         928 256 928 376 16 AR
         928 360 L
         928 376 824 376 16 AR
         840 376 L
         824 376 824 256 16 AR
         824 272 L
         824 256 928 256 16 AR
      CP
      S
   GR
GR

% RCBOX
1.000 0.867 0.933 RG
NP
   764 248 M
   780 248 780 408 16 AR
   780 392 L
   780 408 676 408 16 AR
   692 408 L
   676 408 676 248 16 AR
   676 264 L
   676 248 780 248 16 AR
CP F
GS
   GS
      NP
         764 248 M
         780 248 780 408 16 AR
         780 392 L
         780 408 676 408 16 AR
         692 408 L
         676 408 676 248 16 AR
         676 264 L
         676 248 780 248 16 AR
      CP
      S
   GR
GR

% RCBOX
1.000 0.867 0.933 RG
NP
   396 340 M
   412 340 412 416 16 AR
   412 400 L
   412 416 320 416 16 AR
   336 416 L
   320 416 320 340 16 AR
   320 356 L
   320 340 412 340 16 AR
CP F
GS
   GS
      NP
         396 340 M
         412 340 412 416 16 AR
         412 400 L
         412 416 320 416 16 AR
         336 416 L
         320 416 320 340 16 AR
         320 356 L
         320 340 412 340 16 AR
      CP
      S
   GR
GR

% RCBOX
1.000 0.867 0.933 RG
NP
   556 232 M
   572 232 572 412 16 AR
   572 396 L
   572 412 448 412 16 AR
   464 412 L
   448 412 448 232 16 AR
   448 248 L
   448 232 572 232 16 AR
CP F
GS
   GS
      NP
         556 232 M
         572 232 572 412 16 AR
         572 396 L
         572 412 448 412 16 AR
         464 412 L
         448 412 448 232 16 AR
         448 248 L
         448 232 572 232 16 AR
      CP
      S
   GR
GR

% TEXT
NP
0 SG
   GS
      1 W
      132 188 M
      GS
        GS
        0
            /Helvetica FF [14 0 0 -14 0 0] MS
            (ARM-A9) TGSW 
        AD
        GR
      2 DI NE 0 RM
            0 SG
            /Helvetica FF [14 0 0 -14 0 0] MS
            (ARM-A9) SH
      GR
   GR

% TEXT
NP
0 SG
   GS
      1 W
      428 172 M
      GS
        GS
        0
            /Helvetica-Bold FF [14 0 0 -14 0 0] MS
            (ZYNQ P/L FPGA) TGSW 
        AD
        GR
      2 DI NE 0 RM
            0 SG
            /Helvetica-Bold FF [14 0 0 -14 0 0] MS
            (ZYNQ P/L FPGA) SH
      GR
   GR

% TEXT
NP
0 SG
   GS
      1 W
      444 276 M
      GS
        GS
        0
            /Helvetica FF [14 0 0 -14 0 0] MS
            (KSUBS3_AXI_PIO) TGSW 
        AD
        GR
      NE 0 RM
            0 SG
            /Helvetica FF [14 0 0 -14 0 0] MS
            (KSUBS3_AXI_PIO) SH
      GR
      0 17 RM
      GS
        GS
        0
            /Helvetica FF [14 0 0 -14 0 0] MS
            (TARGET) TGSW 
        AD
        GR
      NE 0 RM
            0 SG
            /Helvetica FF [14 0 0 -14 0 0] MS
            (TARGET) SH
      GR
   GR

% TEXT
NP
0 SG
   GS
      1 W
      892 176 M
      GS
        GS
        0
            /Helvetica FF [14 0 0 -14 0 0] MS
            (KSUBS3_ZYNQ_TOPLEVEL) TGSW 
        AD
        GR
      2 DI NE 0 RM
            0 SG
            /Helvetica FF [14 0 0 -14 0 0] MS
            (KSUBS3_ZYNQ_TOPLEVEL) SH
      GR
   GR

% TEXT
NP
0 SG
   GS
      1 W
      728 292 M
      GS
        GS
        0
            /Helvetica FF [14 0 0 -14 0 0] MS
            (Your) TGSW 
        AD
        GR
      2 DI NE 0 RM
            0 SG
            /Helvetica FF [14 0 0 -14 0 0] MS
            (Your) SH
      GR
      0 17 RM
      GS
        GS
        0
            /Helvetica FF [14 0 0 -14 0 0] MS
            (DESIGN) TGSW 
        AD
        GR
      2 DI NE 0 RM
            0 SG
            /Helvetica FF [14 0 0 -14 0 0] MS
            (DESIGN) SH
      GR
      0 17 RM
      GS
        GS
        0
            /Helvetica FF [14 0 0 -14 0 0] MS
            (\(or from) TGSW 
        AD
        GR
      2 DI NE 0 RM
            0 SG
            /Helvetica FF [14 0 0 -14 0 0] MS
            (\(or from) SH
      GR
      0 17 RM
      GS
        GS
        0
            /Helvetica FF [14 0 0 -14 0 0] MS
            (KiwiC\)) TGSW 
        AD
        GR
      2 DI NE 0 RM
            0 SG
            /Helvetica FF [14 0 0 -14 0 0] MS
            (KiwiC\)) SH
      GR
   GR

% TEXT
NP
0 SG
   GS
      1 W
      888 504 M
      GS
        GS
        0
            /Helvetica FF [14 0 0 -14 0 0] MS
            (KSUBS3_INNERCORE) TGSW 
        AD
        GR
      2 DI NE 0 RM
            0 SG
            /Helvetica FF [14 0 0 -14 0 0] MS
            (KSUBS3_INNERCORE) SH
      GR
   GR

% RCBOX
0 SG
GS
   GS
      NP
         764 248 M
         780 248 780 408 16 AR
         780 392 L
         780 408 676 408 16 AR
         692 408 L
         676 408 676 248 16 AR
         676 264 L
         676 248 780 248 16 AR
      CP
      S
   GR
GR

% RCBOX
0 SG
GS
   GS
      NP
         960 196 M
         976 196 976 516 16 AR
         976 500 L
         976 516 632 516 16 AR
         648 516 L
         632 516 632 196 16 AR
         632 212 L
         632 196 976 196 16 AR
      CP
      S
   GR
GR

% RCBOX
0 SG
GS
   GS
      NP
         980 152 M
         996 152 996 552 16 AR
         996 536 L
         996 552 292 552 16 AR
         308 552 L
         292 552 292 152 16 AR
         292 168 L
         292 152 996 152 16 AR
      CP
      S
   GR
GR

% RCBOX
0 SG
GS
   GS
      NP
         156 156 M
         172 156 172 204 16 AR
         172 188 L
         172 204 92 204 16 AR
         108 204 L
         92 204 92 156 16 AR
         92 172 L
         92 156 172 156 16 AR
      CP
      S
   GR
GR

% RCBOX
0 SG
GS
   GS
      NP
         156 204 M
         172 204 172 244 16 AR
         172 228 L
         172 244 132 244 16 AR
         148 244 L
         132 244 132 204 16 AR
         132 220 L
         132 204 172 204 16 AR
      CP
      S
   GR
GR

% RCBOX
0 SG
GS
   GS
      NP
         116 204 M
         132 204 132 244 16 AR
         132 228 L
         132 244 92 244 16 AR
         108 244 L
         92 244 92 204 16 AR
         92 220 L
         92 204 132 204 16 AR
      CP
      S
   GR
GR

% RCBOX
0 SG
GS
   GS
      NP
         396 340 M
         412 340 412 416 16 AR
         412 400 L
         412 416 320 416 16 AR
         336 416 L
         320 416 320 340 16 AR
         320 356 L
         320 340 412 340 16 AR
      CP
      S
   GR
GR

% TEXT
NP
0 SG
   GS
      1 W
      364 364 M
      GS
        GS
        0
            /Helvetica FF [14 0 0 -14 0 0] MS
            (XILINX) TGSW 
        AD
        GR
      2 DI NE 0 RM
            0 SG
            /Helvetica FF [14 0 0 -14 0 0] MS
            (XILINX) SH
      GR
      0 17 RM
      GS
        GS
        0
            /Helvetica FF [14 0 0 -14 0 0] MS
            (AXI4 to AXI3) TGSW 
        AD
        GR
      2 DI NE 0 RM
            0 SG
            /Helvetica FF [14 0 0 -14 0 0] MS
            (AXI4 to AXI3) SH
      GR
      0 17 RM
      GS
        GS
        0
            /Helvetica FF [14 0 0 -14 0 0] MS
            (IP) TGSW 
        AD
        GR
      2 DI NE 0 RM
            0 SG
            /Helvetica FF [14 0 0 -14 0 0] MS
            (IP) SH
      GR
   GR

% RCBOX
0 SG
GS
   GS
      NP
         556 232 M
         572 232 572 412 16 AR
         572 396 L
         572 412 448 412 16 AR
         464 412 L
         448 412 448 232 16 AR
         448 248 L
         448 232 572 232 16 AR
      CP
      S
   GR
GR

% TEXT
NP
0 SG
   GS
      1 W
      180 260 M
      GS
        GS
        0
            /Helvetica FF [14 0 0 -14 0 0] MS
            (512KB) TGSW 
        AD
        GR
      2 DI NE 0 RM
            0 SG
            /Helvetica FF [14 0 0 -14 0 0] MS
            (512KB) SH
      GR
      0 17 RM
      GS
        GS
        0
            /Helvetica FF [14 0 0 -14 0 0] MS
            (L2) TGSW 
        AD
        GR
      2 DI NE 0 RM
            0 SG
            /Helvetica FF [14 0 0 -14 0 0] MS
            (L2) SH
      GR
   GR

% TEXT
NP
0 SG
   GS
      1 W
      228 188 M
      GS
        GS
        0
            /Helvetica FF [14 0 0 -14 0 0] MS
            (ARM-A9) TGSW 
        AD
        GR
      2 DI NE 0 RM
            0 SG
            /Helvetica FF [14 0 0 -14 0 0] MS
            (ARM-A9) SH
      GR
   GR

% TEXT
NP
0 SG
   GS
      1 W
      248 228 M
      GS
        GS
        0
            /Helvetica FF [14 0 0 -14 0 0] MS
            (L1D) TGSW 
        AD
        GR
      2 DI NE 0 RM
            0 SG
            /Helvetica FF [14 0 0 -14 0 0] MS
            (L1D) SH
      GR
   GR

% RCBOX
0 SG
GS
   GS
      NP
         252 156 M
         268 156 268 204 16 AR
         268 188 L
         268 204 188 204 16 AR
         204 204 L
         188 204 188 156 16 AR
         188 172 L
         188 156 268 156 16 AR
      CP
      S
   GR
GR

% RCBOX
0 SG
GS
   GS
      NP
         252 204 M
         268 204 268 244 16 AR
         268 228 L
         268 244 228 244 16 AR
         244 244 L
         228 244 228 204 16 AR
         228 220 L
         228 204 268 204 16 AR
      CP
      S
   GR
GR

% RCBOX
0 SG
GS
   GS
      NP
         212 204 M
         228 204 228 244 16 AR
         228 228 L
         228 244 188 244 16 AR
         204 244 L
         188 244 188 204 16 AR
         188 220 L
         188 204 228 204 16 AR
      CP
      S
   GR
GR

% TEXT
NP
0 SG
   GS
      1 W
      208 228 M
      GS
        GS
        0
            /Helvetica FF [14 0 0 -14 0 0] MS
            (L1I) TGSW 
        AD
        GR
      2 DI NE 0 RM
            0 SG
            /Helvetica FF [14 0 0 -14 0 0] MS
            (L1I) SH
      GR
   GR

% RCBOX
0 SG
GS
   GS
      NP
         252 244 M
         268 244 268 284 16 AR
         268 268 L
         268 284 92 284 16 AR
         108 284 L
         92 284 92 244 16 AR
         92 260 L
         92 244 268 244 16 AR
      CP
      S
   GR
GR

% TEXT
NP
0 SG
   GS
      1 W
      156 228 M
      GS
        GS
        0
            /Helvetica FF [14 0 0 -14 0 0] MS
            (L1D) TGSW 
        AD
        GR
      2 DI NE 0 RM
            0 SG
            /Helvetica FF [14 0 0 -14 0 0] MS
            (L1D) SH
      GR
   GR

% TEXT
NP
0 SG
   GS
      1 W
      116 228 M
      GS
        GS
        0
            /Helvetica FF [14 0 0 -14 0 0] MS
            (L1I) TGSW 
        AD
        GR
      2 DI NE 0 RM
            0 SG
            /Helvetica FF [14 0 0 -14 0 0] MS
            (L1I) SH
      GR
   GR

% TEXT
NP
0 SG
   GS
      1 W
      212 316 M
      GS
        GS
        0
            /Helvetica FF [14 0 0 -14 0 0] MS
            (256KB) TGSW 
        AD
        GR
      2 DI NE 0 RM
            0 SG
            /Helvetica FF [14 0 0 -14 0 0] MS
            (256KB) SH
      GR
      0 17 RM
      GS
        GS
        0
            /Helvetica FF [14 0 0 -14 0 0] MS
            (SRAM) TGSW 
        AD
        GR
      2 DI NE 0 RM
            0 SG
            /Helvetica FF [14 0 0 -14 0 0] MS
            (SRAM) SH
      GR
   GR

% RCBOX
0 SG
GS
   GS
      NP
         248 292 M
         264 292 264 344 16 AR
         264 328 L
         264 344 164 344 16 AR
         180 344 L
         164 344 164 292 16 AR
         164 308 L
         164 292 264 292 16 AR
      CP
      S
   GR
GR

% TEXT
NP
0 SG
   GS
      1 W
      240 372 M
      GS
        GS
        0
            /Helvetica FF [14 0 0 -14 0 0] MS
            (M_AXI_GP0) TGSW 
        AD
        GR
      2 DI NE 0 RM
            0 SG
            /Helvetica FF [14 0 0 -14 0 0] MS
            (M_AXI_GP0) SH
      GR
   GR

% TEXT
NP
0 SG
   GS
      1 W
      240 400 M
      GS
        GS
        0
            /Helvetica FF [14 0 0 -14 0 0] MS
            (M_AXI_GP1) TGSW 
        AD
        GR
      2 DI NE 0 RM
            0 SG
            /Helvetica FF [14 0 0 -14 0 0] MS
            (M_AXI_GP1) SH
      GR
   GR

% TEXT
NP
0 SG
   GS
      1 W
      240 456 M
      GS
        GS
        0
            /Helvetica FF [14 0 0 -14 0 0] MS
            (S_AXI_GP0) TGSW 
        AD
        GR
      2 DI NE 0 RM
            0 SG
            /Helvetica FF [14 0 0 -14 0 0] MS
            (S_AXI_GP0) SH
      GR
   GR

% TEXT
NP
0 SG
   GS
      1 W
      240 428 M
      GS
        GS
        0
            /Helvetica FF [14 0 0 -14 0 0] MS
            (S_AXI_GP1) TGSW 
        AD
        GR
      2 DI NE 0 RM
            0 SG
            /Helvetica FF [14 0 0 -14 0 0] MS
            (S_AXI_GP1) SH
      GR
   GR

% TEXT
NP
0 SG
   GS
      1 W
      144 544 M
      GS
        GS
        0
            /Helvetica FF [14 0 0 -14 0 0] MS
            (DRAM) TGSW 
        AD
        GR
      2 DI NE 0 RM
            0 SG
            /Helvetica FF [14 0 0 -14 0 0] MS
            (DRAM) SH
      GR
      0 17 RM
      GS
        GS
        0
            /Helvetica FF [14 0 0 -14 0 0] MS
            (small cache) TGSW 
        AD
        GR
      2 DI NE 0 RM
            0 SG
            /Helvetica FF [14 0 0 -14 0 0] MS
            (small cache) SH
      GR
   GR

% BOX
0 SG
GS
   10 SM
   GS
      NP 116 600 M 196 600 L 196 640 L 116 640 L CP
      S
   GR
GR

% TEXT
NP
0 SG
   GS
      1 W
      148 632 M
      GS
        GS
        0
            /Helvetica FF [14 0 0 -14 0 0] MS
            (DRAM) TGSW 
        AD
        GR
      2 DI NE 0 RM
            0 SG
            /Helvetica FF [14 0 0 -14 0 0] MS
            (DRAM) SH
      GR
   GR

% BOX
0 SG
GS
   10 SM
   GS
      NP 108 608 M 188 608 L 188 648 L 108 648 L CP
      S
   GR
GR

% RCBOX
0 SG
GS
   GS
      NP
         172 356 M
         188 356 188 500 16 AR
         188 484 L
         188 500 84 500 16 AR
         100 500 L
         84 500 84 356 16 AR
         84 372 L
         84 356 188 356 16 AR
      CP
      S
   GR
GR

% TEXT
NP
0 SG
   GS
      1 W
      136 392 M
      GS
        GS
        0
            /Helvetica FF [14 0 0 -14 0 0] MS
            (THREE) TGSW 
        AD
        GR
      2 DI NE 0 RM
            0 SG
            /Helvetica FF [14 0 0 -14 0 0] MS
            (THREE) SH
      GR
      0 17 RM
      GS
        GS
        0
            /Helvetica FF [14 0 0 -14 0 0] MS
            (AXI  BUS) TGSW 
        AD
        GR
      2 DI NE 0 RM
            0 SG
            /Helvetica FF [14 0 0 -14 0 0] MS
            (AXI  BUS) SH
      GR
      0 17 RM
      GS
        GS
        0
            0
        AD
        GR
      2 DI NE 0 RM
      GR
      0 17 RM
      GS
        GS
        0
            /Helvetica FF [14 0 0 -14 0 0] MS
            (MATRIX) TGSW 
        AD
        GR
      2 DI NE 0 RM
            0 SG
            /Helvetica FF [14 0 0 -14 0 0] MS
            (MATRIX) SH
      GR
      0 17 RM
      GS
        GS
        0
            0
        AD
        GR
      2 DI NE 0 RM
      GR
      0 17 RM
      GS
        GS
        0
            /Helvetica FF [14 0 0 -14 0 0] MS
            (SWITCHES) TGSW 
        AD
        GR
      2 DI NE 0 RM
            0 SG
            /Helvetica FF [14 0 0 -14 0 0] MS
            (SWITCHES) SH
      GR
   GR

% RCBOX
0 SG
GS
   GS
      NP
         208 528 M
         224 528 224 568 16 AR
         224 552 L
         224 568 72 568 16 AR
         88 568 L
         72 568 72 528 16 AR
         72 544 L
         72 528 224 528 16 AR
      CP
      S
   GR
GR

% POLY/OPEN-SPLINE
0 SG
GS
   NP
      188 380 M
      0 132 atan DU cos 14.000 MU 320 exch SU
      exch sin 14.000 MU 380 exch SU L
   TGSM
   4 W
   S
   1 W
GR
GS
   TGSM
   NP
      320 380 14.000 6.000 132 0 TGAT
   1 SG CP F
   0 SG
   NP
      320 380 14.000 6.000 132 0 TGAT
   CP F
GR

% POLY/OPEN-SPLINE
0 SG
GS
   NP
      188 408 M
      0 96 atan DU cos 14.000 MU 284 exch SU
      exch sin 14.000 MU 408 exch SU L
   TGSM
   4 W
   S
   1 W
GR
GS
   TGSM
   NP
      284 408 14.000 6.000 96 0 TGAT
   1 SG CP F
   0 SG
   NP
      284 408 14.000 6.000 96 0 TGAT
   CP F
GR

% POLY/OPEN-SPLINE
0 SG
GS
   NP
      188 436 M
      0 96 atan DU cos 14.000 MU exch sin 14.000 MU RM
      284 436 L
   TGSM
   4 W
   S
   1 W
GR
GS
   TGSM
   NP
      188 436 14.000 6.000 -96 0 TGAT
   1 SG CP F
   0 SG
   NP
      188 436 14.000 6.000 -96 0 TGAT
   CP F
GR

% POLY/OPEN-SPLINE
0 SG
GS
   NP
      188 464 M
      0 140 atan DU cos 14.000 MU exch sin 14.000 MU RM
      328 464 L
   TGSM
   4 W
   S
   1 W
GR
GS
   TGSM
   NP
      188 464 14.000 6.000 -140 0 TGAT
   1 SG CP F
   0 SG
   NP
      188 464 14.000 6.000 -140 0 TGAT
   CP F
GR

% POLY/OPEN-SPLINE
0 SG
GS
   NP
      412 380 M
      0 36 atan DU cos 14.000 MU 448 exch SU
      exch sin 14.000 MU 380 exch SU L
   TGSM
   4 W
   S
   1 W
GR
GS
   TGSM
   NP
      448 380 14.000 6.000 36 0 TGAT
   1 SG CP F
   0 SG
   NP
      448 380 14.000 6.000 36 0 TGAT
   CP F
GR

% POLY/OPEN-SPLINE
0 SG
GS
   NP
      112 284 M
      72 0 atan DU cos 14.000 MU 112 exch SU
      exch sin 14.000 MU 356 exch SU L
   TGSM
   4 W
   S
   1 W
GR
GS
   TGSM
   NP
      112 356 14.000 6.000 0 72 TGAT
   1 SG CP F
   0 SG
   NP
      112 356 14.000 6.000 0 72 TGAT
   CP F
GR

% POLY/OPEN-SPLINE
0 SG
GS
   NP
      132 356 M
      132 316 L
      0 32 atan DU cos 14.000 MU 164 exch SU
      exch sin 14.000 MU 316 exch SU L
   TGSM
   4 W
   S
   1 W
GR
GS
   TGSM
   NP
      164 316 14.000 6.000 32 0 TGAT
   1 SG CP F
   0 SG
   NP
      164 316 14.000 6.000 32 0 TGAT
   CP F
GR

% POLY/OPEN-SPLINE
0 SG
GS
   NP
      148 500 M
      28 0 atan DU cos 14.000 MU 148 exch SU
      exch sin 14.000 MU 528 exch SU L
   TGSM
   4 W
   S
   1 W
GR
GS
   TGSM
   NP
      148 528 14.000 6.000 0 28 TGAT
   1 SG CP F
   0 SG
   NP
      148 528 14.000 6.000 0 28 TGAT
   CP F
GR

% POLY/OPEN-SPLINE
0 SG
GS
   NP
      148 568 M
      40 0 atan DU cos 14.000 MU 148 exch SU
      exch sin 14.000 MU 608 exch SU L
   TGSM
   4 W
   S
   1 W
GR
GS
   TGSM
   NP
      148 608 14.000 6.000 0 40 TGAT
   1 SG CP F
   0 SG
   NP
      148 608 14.000 6.000 0 40 TGAT
   CP F
GR

% BOX
0 SG
GS
   10 SM
   GS
      NP 64 128 M 1008 128 L 1008 580 L 64 580 L CP
      2 W
      S
   GR
GR

% RCBOX
0.373 0.620 0.627 RG
GS
   GS
      NP
         476 440 M
         492 440 492 492 16 AR
         492 476 L
         492 492 332 492 16 AR
         348 492 L
         332 492 332 440 16 AR
         332 456 L
         332 440 492 440 16 AR
      CP
      [2 2] 0 SD
      2 W
      S
   GR
GR

% TEXT
NP
0 SG
   GS
      1 W
      412 472 M
      GS
        GS
        0
            /Helvetica FF [14 0 0 -14 0 0] MS
            (DMA hfast_aximaster) TGSW 
        AD
        GR
      2 DI NE 0 RM
            0 SG
            /Helvetica FF [14 0 0 -14 0 0] MS
            (DMA hfast_aximaster) SH
      GR
   GR

% TEXT
NP
0 SG
   GS
      1 W
      124 148 M
      GS
        GS
        0
            /Helvetica-Bold FF [14 0 0 -14 0 0] MS
            (ZYNQ HARD IP) TGSW 
        AD
        GR
      2 DI NE 0 RM
            0 SG
            /Helvetica-Bold FF [14 0 0 -14 0 0] MS
            (ZYNQ HARD IP) SH
      GR
   GR

% TEXT
NP
0.184 0.310 0.310 RG
   GS
      1 W
      508 260 M
      GS
        GS
        0
            /Helvetica FF [14 0 0 -14 0 0] MS
            (NoC16 Ring) TGSW 
        AD
        GR
      2 DI NE 0 RM
            0.184 0.310 0.310 RG
            /Helvetica FF [14 0 0 -14 0 0] MS
            (NoC16 Ring) SH
      GR
   GR

% TEXT
NP
0.184 0.310 0.310 RG
   GS
      1 W
      524 344 M
      GS
        GS
        0
            /Helvetica FF [14 0 0 -14 0 0] MS
            (PIO) TGSW 
        AD
        GR
      2 DI NE 0 RM
            0.184 0.310 0.310 RG
            /Helvetica FF [14 0 0 -14 0 0] MS
            (PIO) SH
      GR
   GR

% TEXT
NP
0.184 0.310 0.310 RG
   GS
      1 W
      528 384 M
      GS
        GS
        0
            /Helvetica FF [14 0 0 -14 0 0] MS
            (GPIO) TGSW 
        AD
        GR
      2 DI NE 0 RM
            0.184 0.310 0.310 RG
            /Helvetica FF [14 0 0 -14 0 0] MS
            (GPIO) SH
      GR
      0 17 RM
      GS
        GS
        0
            /Helvetica FF [14 0 0 -14 0 0] MS
            (LEDS) TGSW 
        AD
        GR
      2 DI NE 0 RM
            0.184 0.310 0.310 RG
            /Helvetica FF [14 0 0 -14 0 0] MS
            (LEDS) SH
      GR
   GR

% TEXT
NP
0.184 0.310 0.310 RG
   GS
      1 W
      504 292 M
      GS
        GS
        0
            /Helvetica FF [14 0 0 -14 0 0] MS
            (ABEND) TGSW 
        AD
        GR
      2 DI NE 0 RM
            0.184 0.310 0.310 RG
            /Helvetica FF [14 0 0 -14 0 0] MS
            (ABEND) SH
      GR
      0 17 RM
      GS
        GS
        0
            /Helvetica FF [14 0 0 -14 0 0] MS
            (SYNDROME) TGSW 
        AD
        GR
      2 DI NE 0 RM
            0.184 0.310 0.310 RG
            /Helvetica FF [14 0 0 -14 0 0] MS
            (SYNDROME) SH
      GR
   GR

% POLY/OPEN-SPLINE
0.184 0.310 0.310 RG
GS
   NP
      676 388 M
      0 -124 atan DU cos 8.000 MU 552 exch SU
      exch sin 8.000 MU 388 exch SU L
   TGSM
   1 W
   S
GR
GS
   TGSM
   NP
      552 388 8.000 3.000 -124 0 TGAT
   1 SG CP F
   0.184 0.310 0.310 RG
   NP
      552 388 8.000 3.000 -124 0 TGAT
   CP F
GR

% POLY/OPEN-SPLINE
0.184 0.310 0.310 RG
GS
   NP
      676 296 M
      0 -124 atan DU cos 8.000 MU 552 exch SU
      exch sin 8.000 MU 296 exch SU L
   TGSM
   1 W
   S
GR
GS
   TGSM
   NP
      552 296 8.000 3.000 -124 0 TGAT
   1 SG CP F
   0.184 0.310 0.310 RG
   NP
      552 296 8.000 3.000 -124 0 TGAT
   CP F
GR

% POLY/OPEN-SPLINE
0.184 0.310 0.310 RG
GS
   NP
      676 328 M
      0 -124 atan DU cos 8.000 MU 552 exch SU
      exch sin 8.000 MU 328 exch SU L
   TGSM
   1 W
   S
GR
GS
   TGSM
   NP
      552 328 8.000 3.000 -124 0 TGAT
   1 SG CP F
   0.184 0.310 0.310 RG
   NP
      552 328 8.000 3.000 -124 0 TGAT
   CP F
GR

% POLY/OPEN-SPLINE
0.184 0.310 0.310 RG
GS
   NP
      676 336 M
      0 -124 atan DU cos 8.000 MU exch sin 8.000 MU RM
      552 336 L
   TGSM
   1 W
   S
GR
GS
   TGSM
   NP
      676 336 8.000 3.000 124 0 TGAT
   1 SG CP F
   0.184 0.310 0.310 RG
   NP
      676 336 8.000 3.000 124 0 TGAT
   CP F
GR

% POLY/OPEN-SPLINE
0.184 0.310 0.310 RG
GS
   NP
      676 344 M
      0 -124 atan DU cos 8.000 MU exch sin 8.000 MU RM
      552 344 L
   TGSM
   1 W
   S
GR
GS
   TGSM
   NP
      676 344 8.000 3.000 124 0 TGAT
   1 SG CP F
   0.184 0.310 0.310 RG
   NP
      676 344 8.000 3.000 124 0 TGAT
   CP F
GR

% POLY/OPEN-SPLINE
0.184 0.310 0.310 RG
GS
   NP
      676 352 M
      0 -124 atan DU cos 8.000 MU exch sin 8.000 MU RM
      552 352 L
   TGSM
   1 W
   S
GR
GS
   TGSM
   NP
      676 352 8.000 3.000 124 0 TGAT
   1 SG CP F
   0.184 0.310 0.310 RG
   NP
      676 352 8.000 3.000 124 0 TGAT
   CP F
GR

% TEXT
NP
0 SG
   GS
      1 W
      876 292 M
      GS
        GS
        0
            /Helvetica FF [14 0 0 -14 0 0] MS
            (Another) TGSW 
        AD
        GR
      2 DI NE 0 RM
            0 SG
            /Helvetica FF [14 0 0 -14 0 0] MS
            (Another) SH
      GR
      0 17 RM
      GS
        GS
        0
            /Helvetica FF [14 0 0 -14 0 0] MS
            (DESIGN) TGSW 
        AD
        GR
      2 DI NE 0 RM
            0 SG
            /Helvetica FF [14 0 0 -14 0 0] MS
            (DESIGN) SH
      GR
   GR

% RCBOX
0 SG
GS
   GS
      NP
         912 256 M
         928 256 928 376 16 AR
         928 360 L
         928 376 824 376 16 AR
         840 376 L
         824 376 824 256 16 AR
         824 272 L
         824 256 928 256 16 AR
      CP
      S
   GR
GR

% POLY/OPEN-SPLINE
0.000 0.000 1.000 RG
GS
   NP
      556 264 M
      608 264 L
      616 276 L
      0 60 atan DU cos 12.000 MU 676 exch SU
      exch sin 12.000 MU 276 exch SU L
   TGSM
   3 W
   S
   1 W
GR
GS
   TGSM
   NP
      676 276 12.000 5.000 60 0 TGAT
   1 SG CP F
   0.000 0.000 1.000 RG
   NP
      676 276 12.000 5.000 60 0 TGAT
   CP F
GR

% POLY/OPEN-SPLINE
0.000 0.000 1.000 RG
GS
   NP
      780 276 M
      0 44 atan DU cos 12.000 MU 824 exch SU
      exch sin 12.000 MU 276 exch SU L
   TGSM
   3 W
   S
   1 W
GR
GS
   TGSM
   NP
      824 276 12.000 5.000 44 0 TGAT
   1 SG CP F
   0.000 0.000 1.000 RG
   NP
      824 276 12.000 5.000 44 0 TGAT
   CP F
GR

% POLY/OPEN-SPLINE
0.000 0.000 1.000 RG
GS
   NP
      928 280 M
      952 280 L
      952 224 L
      620 224 L
      608 248 L
      0 -56 atan DU cos 12.000 MU 552 exch SU
      exch sin 12.000 MU 248 exch SU L
   TGSM
   3 W
   S
   1 W
GR
GS
   TGSM
   NP
      552 248 12.000 5.000 -56 0 TGAT
   1 SG CP F
   0.000 0.000 1.000 RG
   NP
      552 248 12.000 5.000 -56 0 TGAT
   CP F
GR

% POLY/OPEN-SPLINE
0 SG
GS
   [2 2] 0 SD
   NP
      512 276 M
      572 276 L
   TGSM
   1 W
   S
   [] 0 SD
GR

% POLY/OPEN-SPLINE
0 SG
GS
   [2 2] 0 SD
   NP
      512 320 M
      572 320 L
   TGSM
   1 W
   S
   [] 0 SD
GR

% POLY/OPEN-SPLINE
0 SG
GS
   [2 2] 0 SD
   NP
      512 360 M
      572 360 L
   TGSM
   1 W
   S
   [] 0 SD
GR

% POLYGON/CLOSED-SPLINE
0 SG
NP
   552 608 M
   552 624 L
   568 616 L
CP
GS
GR
GS
   S
GR

% POLY/OPEN-SPLINE
0 SG
GS
   NP
      568 604 M
      568 628 L
   TGSM
   1 W
   S
GR

% POLY/OPEN-SPLINE
0 SG
GS
   NP
      564 600 M
      -12 16 atan DU cos 8.000 MU 580 exch SU
      exch sin 8.000 MU 588 exch SU L
   TGSM
   1 W
   S
GR
GS
   TGSM
   NP
      580 588 8.000 3.000 16 -12 TGAT
   1 SG CP F
   0 SG
   NP
      580 588 8.000 3.000 16 -12 TGAT
   CP F
GR

% POLYGON/CLOSED-SPLINE
0 SG
NP
   552 656 M
   552 672 L
   568 664 L
CP
GS
GR
GS
   S
GR

% POLY/OPEN-SPLINE
0 SG
GS
   NP
      568 652 M
      568 676 L
   TGSM
   1 W
   S
GR

% POLY/OPEN-SPLINE
0 SG
GS
   NP
      564 648 M
      -12 16 atan DU cos 8.000 MU 580 exch SU
      exch sin 8.000 MU 636 exch SU L
   TGSM
   1 W
   S
GR
GS
   TGSM
   NP
      580 636 8.000 3.000 16 -12 TGAT
   1 SG CP F
   0 SG
   NP
      580 636 8.000 3.000 16 -12 TGAT
   CP F
GR

% OVAL
0 SG
GS
   GS
      NP 544 628 4 4 TGEL
      2 W
      S
   GR
GR

% OVAL
0 SG
GS
   GS
      NP 544 640 4 4 TGEL
      2 W
      S
   GR
GR

% OVAL
0 SG
GS
   GS
      NP 544 652 4 4 TGEL
      2 W
      S
   GR
GR

% POLY/OPEN-SPLINE
0 SG
GS
   NP
      488 620 M
      508 620 L
      516 604 L
      524 628 L
      532 604 L
      536 616 L
      552 616 L
   TGSM
   1 W
   S
GR

% POLY/OPEN-SPLINE
0 SG
GS
   NP
      488 668 M
      508 668 L
      516 652 L
      524 676 L
      532 652 L
      536 664 L
      552 664 L
   TGSM
   1 W
   S
GR

% POLY/OPEN-SPLINE
0 SG
GS
   NP
      604 388 M
      604 664 L
      568 664 L
   TGSM
   1 W
   S
GR

% POLY/OPEN-SPLINE
0 SG
GS
   NP
      568 616 M
      604 616 L
   TGSM
   1 W
   S
GR

% OVAL
0 SG
GS
   GS
      NP 780 612 4 4 TGEL
      S
   GR
GR

% POLY/OPEN-SPLINE
0 SG
GS
   NP
      780 612 M
      -12 24 atan DU cos 8.000 MU 804 exch SU
      exch sin 8.000 MU 600 exch SU L
   TGSM
   1 W
   S
GR
GS
   TGSM
   NP
      804 600 8.000 3.000 24 -12 TGAT
   1 SG CP F
   0 SG
   NP
      804 600 8.000 3.000 24 -12 TGAT
   CP F
GR

% OVAL
0 SG
GS
   GS
      NP 804 612 4 4 TGEL
      S
   GR
GR

% POLY/OPEN-SPLINE
0 SG
GS
   NP
      808 612 M
      828 612 L
   TGSM
   1 W
   S
GR

% POLY/OPEN-SPLINE
0 SG
GS
   NP
      776 612 M
      756 612 L
   TGSM
   1 W
   S
GR

% OVAL
0 SG
GS
   GS
      NP 780 660 4 4 TGEL
      S
   GR
GR

% POLY/OPEN-SPLINE
0 SG
GS
   NP
      780 660 M
      -12 24 atan DU cos 8.000 MU 804 exch SU
      exch sin 8.000 MU 648 exch SU L
   TGSM
   1 W
   S
GR
GS
   TGSM
   NP
      804 648 8.000 3.000 24 -12 TGAT
   1 SG CP F
   0 SG
   NP
      804 648 8.000 3.000 24 -12 TGAT
   CP F
GR

% OVAL
0 SG
GS
   GS
      NP 804 660 4 4 TGEL
      S
   GR
GR

% POLY/OPEN-SPLINE
0 SG
GS
   NP
      808 660 M
      828 660 L
   TGSM
   1 W
   S
GR

% POLY/OPEN-SPLINE
0 SG
GS
   NP
      776 660 M
      756 660 L
   TGSM
   1 W
   S
GR

% OVAL
0 SG
GS
   GS
      NP 792 620 4 4 TGEL
      2 W
      S
   GR
GR

% OVAL
0 SG
GS
   GS
      NP 792 632 4 4 TGEL
      2 W
      S
   GR
GR

% OVAL
0 SG
GS
   GS
      NP 792 644 4 4 TGEL
      2 W
      S
   GR
GR

% POLY/OPEN-SPLINE
0 SG
GS
   NP
      756 408 M
      756 660 L
   TGSM
   1 W
   S
GR

% TEXT
NP
0 SG
   GS
      1 W
      440 628 M
      GS
        GS
        0
            /Helvetica FF [14 0 0 -14 0 0] MS
            (LEDs) TGSW 
        AD
        GR
      2 DI NE 0 RM
            0 SG
            /Helvetica FF [14 0 0 -14 0 0] MS
            (LEDs) SH
      GR
   GR

% TEXT
NP
0 SG
   GS
      1 W
      864 640 M
      GS
        GS
        0
            /Helvetica FF [14 0 0 -14 0 0] MS
            (Switches) TGSW 
        AD
        GR
      2 DI NE 0 RM
            0 SG
            /Helvetica FF [14 0 0 -14 0 0] MS
            (Switches) SH
      GR
   GR

% POLY/OPEN-SPLINE
0.373 0.620 0.627 RG
GS
   NP
      492 468 M
      0 80 atan DU cos 12.000 MU exch sin 12.000 MU RM
      572 468 L
      656 468 L
   TGSM
   3 W
   S
   1 W
GR
GS
   TGSM
   NP
      492 468 12.000 5.000 -80 0 TGAT
   1 SG CP F
   0.373 0.620 0.627 RG
   NP
      492 468 12.000 5.000 -80 0 TGAT
   CP F
GR

% BOX
0 SG
GS
   10 SM
   GS
      NP 656 448 M 716 448 L 716 492 L 656 492 L CP
      2 W
      [2 2] 0 SD
      S
   GR
GR

% TEXT
NP
0.373 0.620 0.627 RG
   GS
      1 W
      688 468 M
      GS
        GS
        0
            /Helvetica FF [14 0 0 -14 0 0] MS
            (HFAST) TGSW 
        AD
        GR
      2 DI NE 0 RM
            0.373 0.620 0.627 RG
            /Helvetica FF [14 0 0 -14 0 0] MS
            (HFAST) SH
      GR
      0 17 RM
      GS
        GS
        0
            /Helvetica FF [14 0 0 -14 0 0] MS
            (MUX) TGSW 
        AD
        GR
      2 DI NE 0 RM
            0.373 0.620 0.627 RG
            /Helvetica FF [14 0 0 -14 0 0] MS
            (MUX) SH
      GR
   GR

% POLY/OPEN-SPLINE
0.373 0.620 0.627 RG
GS
   NP
      864 376 M
      864 428 L
      856 436 L
      780 436 L
      772 444 L
      772 480 L
      0 -52 atan DU cos 12.000 MU 720 exch SU
      exch sin 12.000 MU 480 exch SU L
   TGSM
   3 W
   S
   1 W
GR
GS
   TGSM
   NP
      720 480 12.000 5.000 -52 0 TGAT
   1 SG CP F
   0.373 0.620 0.627 RG
   NP
      720 480 12.000 5.000 -52 0 TGAT
   CP F
GR

% TEXT
NP
0 SG
   GS
      1 W
      408 220 M
      GS
        GS
        0
            /Helvetica FF [14 0 0 -14 0 0] MS
            (Interrupt) TGSW 
        AD
        GR
      2 DI NE 0 RM
            0 SG
            /Helvetica FF [14 0 0 -14 0 0] MS
            (Interrupt) SH
      GR
   GR

% POLY/OPEN-SPLINE
0 SG
GS
   [2 2] 0 SD
   NP
      508 232 M
      508 204 L
      344 204 L
      324 176 L
      0 -52 atan DU cos 10.000 MU 272 exch SU
      exch sin 10.000 MU 176 exch SU L
   TGSM
   2 W
   S
   [] 0 SD
   1 W
GR
GS
   TGSM
   NP
      272 176 10.000 4.000 -52 0 TGAT
   1 SG CP F
   0 SG
   NP
      272 176 10.000 4.000 -52 0 TGAT
   CP F
GR

% POLY/OPEN-SPLINE
0.373 0.620 0.627 RG
GS
   NP
      740 408 M
      740 456 L
      0 -20 atan DU cos 12.000 MU 720 exch SU
      exch sin 12.000 MU 456 exch SU L
   TGSM
   3 W
   S
   1 W
GR
GS
   TGSM
   NP
      720 456 12.000 5.000 -20 0 TGAT
   1 SG CP F
   0.373 0.620 0.627 RG
   NP
      720 456 12.000 5.000 -20 0 TGAT
   CP F
GR

GR
tgifsavedpage restore
end
showpage

%%Trailer
%MatchingCreationDate: Wed Jan 17 09:55:22 2018
%%DocumentFonts: Helvetica-Bold
%%+ Helvetica
%%EOF
