%!PS-Adobe-3.0 EPSF-3.0
%%BoundingBox: 29 453 712 820
%%Title: kiwi-substrate
%%CreationDate: Tue Sep 30 10:43:24 2014
%%Creator: Tgif-4.2.5-QPL written by William Chia-Wei Cheng (bill.cheng@acm.org)
%%ProducedBy: (unknown)
%%Pages: 1
%%DocumentFonts: (atend)
%%EndComments
%%BeginProlog

/tgifdict 56 dict def
tgifdict begin

/tgifellipsedict 6 dict def
tgifellipsedict /mtrx matrix put

/TGEL % tgifellipse
 { tgifellipsedict begin
      /yrad exch def
      /xrad exch def
      /y exch def
      /x exch def
      /savematrix mtrx currentmatrix def
      x y translate
      xrad yrad scale
      0 0 1 0 360 arc
      savematrix setmatrix
   end
 } def

/tgifarrowtipdict 8 dict def
tgifarrowtipdict /mtrx matrix put

/TGAT % tgifarrowtip
 { tgifarrowtipdict begin
      /dy exch def
      /dx exch def
      /h exch def
      /w exch def
      /y exch def
      /x exch def
      /savematrix mtrx currentmatrix def
      x y translate
      dy dx atan rotate
      0 0 moveto
      w neg h lineto
      w neg h neg lineto
      savematrix setmatrix
   end
 } def

/TGMAX
 { exch dup 3 1 roll exch dup 3 1 roll gt { pop } { exch pop } ifelse
 } def
/TGMIN
 { exch dup 3 1 roll exch dup 3 1 roll lt { pop } { exch pop } ifelse
 } def
/TGSW { stringwidth pop } def
/tgifstrw 0 def

/bd { bind def } bind def

/GS { gsave } bd
/GR { grestore } bd
/NP { newpath } bd
/CP { closepath } bd
/CHP { charpath } bd
/CT { curveto } bd
/L { lineto } bd
/RL { rlineto } bd
/M { moveto } bd
/RM { rmoveto } bd
/S { stroke } bd
/F { fill } bd
/TR { translate } bd
/RO { rotate } bd
/SC { scale } bd
/MU { mul } bd
/DI { div } bd
/DU { dup } bd
/NE { neg } bd
/AD { add } bd
/SU { sub } bd
/PO { pop } bd
/EX { exch } bd
/CO { concat } bd
/CL { clip } bd
/EC { eoclip } bd
/EF { eofill } bd
/IM { image } bd
/IMM { imagemask } bd
/ARY { array } bd
/SG { setgray } bd
/RG { setrgbcolor } bd
/SD { setdash } bd
/W { setlinewidth } bd
/SM { setmiterlimit } bd
/SLC { setlinecap } bd
/SLJ { setlinejoin } bd
/SH { show } bd
/FF { findfont } bd
/MS { makefont setfont } bd
/AR { arcto 4 {pop} repeat } bd
/CURP { currentpoint } bd
/FLAT { flattenpath strokepath clip newpath } bd
/TGSM { tgiforigctm setmatrix } def
/TGRM { savematrix setmatrix } def

end

%%EndProlog
%%Page: 1 1

%%PageBoundingBox: 29 453 712 820
tgifdict begin
/tgifsavedpage save def

1 SM
1 W

0 SG

72 0 MU 72 11.602 MU TR
72 128 DI 100.000 MU 100 DI DU NE SC

GS

/tgiforigctm matrix currentmatrix def

% RCBOX
0.702 0.702 0.000 RG
NP
   924 440 M
   940 440 940 500 16 AR
   940 484 L
   940 500 790 500 16 AR
   806 500 L
   790 500 790 440 16 AR
   790 456 L
   790 440 940 440 16 AR
CP F
GS
   GS
      NP
         924 440 M
         940 440 940 500 16 AR
         940 484 L
         940 500 790 500 16 AR
         806 500 L
         790 500 790 440 16 AR
         790 456 L
         790 440 940 440 16 AR
      CP
      S
   GR
GR

% RCBOX
0.702 0.702 0.000 RG
NP
   729 440 M
   745 440 745 500 16 AR
   745 484 L
   745 500 595 500 16 AR
   611 500 L
   595 500 595 440 16 AR
   595 456 L
   595 440 745 440 16 AR
CP F
GS
   GS
      NP
         729 440 M
         745 440 745 500 16 AR
         745 484 L
         745 500 595 500 16 AR
         611 500 L
         595 500 595 440 16 AR
         595 456 L
         595 440 745 440 16 AR
      CP
      S
   GR
GR

% RCBOX
0.600 0.800 1.000 RG
NP
   1059 50 M
   1075 50 1075 275 16 AR
   1075 259 L
   1075 275 705 275 16 AR
   721 275 L
   705 275 705 50 16 AR
   705 66 L
   705 50 1075 50 16 AR
CP F
GS
   GS
      NP
         1059 50 M
         1075 50 1075 275 16 AR
         1075 259 L
         1075 275 705 275 16 AR
         721 275 L
         705 275 705 50 16 AR
         705 66 L
         705 50 1075 50 16 AR
      CP
      S
   GR
GR

% RCBOX
0.600 0.800 1.000 RG
NP
   649 50 M
   665 50 665 275 16 AR
   665 259 L
   665 275 295 275 16 AR
   311 275 L
   295 275 295 50 16 AR
   295 66 L
   295 50 665 50 16 AR
CP F
GS
   GS
      NP
         649 50 M
         665 50 665 275 16 AR
         665 259 L
         665 275 295 275 16 AR
         311 275 L
         295 275 295 50 16 AR
         295 66 L
         295 50 665 50 16 AR
      CP
      S
   GR
GR

% RCBOX
1.000 0.800 0.600 RG
NP
   584 350 M
   600 350 600 410 16 AR
   600 394 L
   600 410 450 410 16 AR
   466 410 L
   450 410 450 350 16 AR
   450 366 L
   450 350 600 350 16 AR
CP F
GS
   GS
      NP
         584 350 M
         600 350 600 410 16 AR
         600 394 L
         600 410 450 410 16 AR
         466 410 L
         450 410 450 350 16 AR
         450 366 L
         450 350 600 350 16 AR
      CP
      S
   GR
GR

% TEXT
NP
0 SG
   GS
      1 W
      460 660 M
      GS
        GS
        0
            /Helvetica FF [24 0 0 -24 0 0] MS
            (DRAM BANK) TGSW 
        AD
        GR
      NE 0 RM
            0 SG
            /Helvetica FF [24 0 0 -24 0 0] MS
            (DRAM BANK) SH
      GR
   GR

% TEXT
NP
0 SG
   GS
      1 W
      540 165 M
      GS
        GS
        0
            /Helvetica FF [24 0 0 -24 0 0] MS
            (User App 1) TGSW 
        AD
        GR
      NE 0 RM
            0.137 0.137 0.863 RG
            /Helvetica FF [24 0 0 -24 0 0] MS
            (User App 1) SH
      GR
   GR

% TEXT
NP
0 SG
   GS
      1 W
      950 165 M
      GS
        GS
        0
            /Helvetica FF [24 0 0 -24 0 0] MS
            (User App 2 ) TGSW 
        AD
        GR
      NE 0 RM
            0.137 0.137 0.863 RG
            /Helvetica FF [24 0 0 -24 0 0] MS
            (User App 2 ) SH
      GR
   GR

% RCBOX
1.000 0.800 0.600 RG
NP
   419 350 M
   435 350 435 410 16 AR
   435 394 L
   435 410 285 410 16 AR
   301 410 L
   285 410 285 350 16 AR
   285 366 L
   285 350 435 350 16 AR
CP F
GS
   GS
      NP
         419 350 M
         435 350 435 410 16 AR
         435 394 L
         435 410 285 410 16 AR
         301 410 L
         285 410 285 350 16 AR
         285 366 L
         285 350 435 350 16 AR
      CP
      S
   GR
GR

% BOX
0.137 0.137 0.863 RG
GS
   10 SM
   GS
      NP 275 30 M 1105 30 L 1105 570 L 275 570 L CP
      3 W
      S
   GR
GR

% TEXT
NP
0.137 0.137 0.863 RG
   GS
      1 W
      1095 555 M
      GS
        GS
        0
            /Helvetica FF [24 0 0 -24 0 0] MS
            (FPGA) TGSW 
        AD
        GR
      NE 0 RM
            0.137 0.137 0.863 RG
            /Helvetica FF [24 0 0 -24 0 0] MS
            (FPGA) SH
      GR
   GR

% TEXT
NP
0.137 0.137 0.863 RG
   GS
      1 W
      1195 410 M
      GS
        GS
        0
            /Helvetica FF [24 0 0 -24 0 0] MS
            (FPGA) TGSW 
        AD
        GR
      2 DI NE 0 RM
            0.137 0.137 0.863 RG
            /Helvetica FF [24 0 0 -24 0 0] MS
            (FPGA) SH
      GR
      0 29 RM
      GS
        GS
        0
            /Helvetica FF [24 0 0 -24 0 0] MS
            (Interconnect) TGSW 
        AD
        GR
      2 DI NE 0 RM
            0.137 0.137 0.863 RG
            /Helvetica FF [24 0 0 -24 0 0] MS
            (Interconnect) SH
      GR
   GR

% RCBOX
0 SG
GS
   GS
      NP
         999 625 M
         1015 625 1015 675 16 AR
         1015 659 L
         1015 675 865 675 16 AR
         881 675 L
         865 675 865 625 16 AR
         865 641 L
         865 625 1015 625 16 AR
      CP
      3 W
      S
   GR
GR

% RCBOX
1.000 0.800 0.600 RG
NP
   744 350 M
   760 350 760 410 16 AR
   760 394 L
   760 410 610 410 16 AR
   626 410 L
   610 410 610 350 16 AR
   610 366 L
   610 350 760 350 16 AR
CP F
GS
   GS
      NP
         744 350 M
         760 350 760 410 16 AR
         760 394 L
         760 410 610 410 16 AR
         626 410 L
         610 410 610 350 16 AR
         610 366 L
         610 350 760 350 16 AR
      CP
      S
   GR
GR

% RCBOX
1.000 0.800 0.600 RG
NP
   914 350 M
   930 350 930 410 16 AR
   930 394 L
   930 410 780 410 16 AR
   796 410 L
   780 410 780 350 16 AR
   780 366 L
   780 350 930 350 16 AR
CP F
GS
   GS
      NP
         914 350 M
         930 350 930 410 16 AR
         930 394 L
         930 410 780 410 16 AR
         796 410 L
         780 410 780 350 16 AR
         780 366 L
         780 350 930 350 16 AR
      CP
      S
   GR
GR

% TEXT
NP
0 SG
   GS
      1 W
      910 480 M
      GS
        GS
        0
            /Helvetica FF [24 0 0 -24 0 0] MS
            (Profiling) TGSW 
        AD
        GR
      NE 0 RM
            0.137 0.137 0.863 RG
            /Helvetica FF [24 0 0 -24 0 0] MS
            (Profiling) SH
      GR
   GR

% TEXT
NP
0 SG
   GS
      1 W
      985 660 M
      GS
        GS
        0
            /Helvetica FF [24 0 0 -24 0 0] MS
            (Ethernet) TGSW 
        AD
        GR
      NE 0 RM
            0 SG
            /Helvetica FF [24 0 0 -24 0 0] MS
            (Ethernet) SH
      GR
   GR

% POLY/OPEN-SPLINE
0.137 0.137 0.863 RG
GS
   NP
      940 515 M
      100 0 atan DU cos 22.000 MU exch sin 22.000 MU RM
      100 0 atan DU cos 22.000 MU 940 exch SU
      exch sin 22.000 MU 615 exch SU L
   TGSM
   7 W
   S
   1 W
GR
GS
   TGSM
   NP
      940 515 22.000 9.000 0 -100 TGAT
   1 SG CP F
   0.137 0.137 0.863 RG
   NP
      940 515 22.000 9.000 0 -100 TGAT
   CP F
GR
GS
   TGSM
   NP
      940 615 22.000 9.000 0 100 TGAT
   1 SG CP F
   0.137 0.137 0.863 RG
   NP
      940 615 22.000 9.000 0 100 TGAT
   CP F
GR

% POLY/OPEN-SPLINE
0.137 0.137 0.863 RG
GS
   NP
      385 520 M
      100 0 atan DU cos 22.000 MU exch sin 22.000 MU RM
      100 0 atan DU cos 22.000 MU 385 exch SU
      exch sin 22.000 MU 620 exch SU L
   TGSM
   7 W
   S
   1 W
GR
GS
   TGSM
   NP
      385 520 22.000 9.000 0 -100 TGAT
   1 SG CP F
   0.137 0.137 0.863 RG
   NP
      385 520 22.000 9.000 0 -100 TGAT
   CP F
GR
GS
   TGSM
   NP
      385 620 22.000 9.000 0 100 TGAT
   1 SG CP F
   0.137 0.137 0.863 RG
   NP
      385 620 22.000 9.000 0 100 TGAT
   CP F
GR

% RCBOX
0 SG
GS
   GS
      NP
         484 625 M
         500 625 500 675 16 AR
         500 659 L
         500 675 275 675 16 AR
         291 675 L
         275 675 275 625 16 AR
         275 641 L
         275 625 500 625 16 AR
      CP
      3 W
      S
   GR
GR

% TEXT
NP
0 SG
   GS
      1 W
      750 660 M
      GS
        GS
        0
            /Helvetica FF [24 0 0 -24 0 0] MS
            (DRAM BANK) TGSW 
        AD
        GR
      NE 0 RM
            0 SG
            /Helvetica FF [24 0 0 -24 0 0] MS
            (DRAM BANK) SH
      GR
   GR

% POLY/OPEN-SPLINE
0.137 0.137 0.863 RG
GS
   NP
      675 520 M
      100 0 atan DU cos 22.000 MU exch sin 22.000 MU RM
      100 0 atan DU cos 22.000 MU 675 exch SU
      exch sin 22.000 MU 620 exch SU L
   TGSM
   7 W
   S
   1 W
GR
GS
   TGSM
   NP
      675 520 22.000 9.000 0 -100 TGAT
   1 SG CP F
   0.137 0.137 0.863 RG
   NP
      675 520 22.000 9.000 0 -100 TGAT
   CP F
GR
GS
   TGSM
   NP
      675 620 22.000 9.000 0 100 TGAT
   1 SG CP F
   0.137 0.137 0.863 RG
   NP
      675 620 22.000 9.000 0 100 TGAT
   CP F
GR

% RCBOX
0 SG
GS
   GS
      NP
         774 625 M
         790 625 790 675 16 AR
         790 659 L
         790 675 565 675 16 AR
         581 675 L
         565 675 565 625 16 AR
         565 641 L
         565 625 790 625 16 AR
      CP
      3 W
      S
   GR
GR

% RCBOX
0.702 0.702 0.000 RG
NP
   534 440 M
   550 440 550 500 16 AR
   550 484 L
   550 500 400 500 16 AR
   416 500 L
   400 500 400 440 16 AR
   400 456 L
   400 440 550 440 16 AR
CP F
GS
   GS
      NP
         534 440 M
         550 440 550 500 16 AR
         550 484 L
         550 500 400 500 16 AR
         416 500 L
         400 500 400 440 16 AR
         400 456 L
         400 440 550 440 16 AR
      CP
      S
   GR
GR

% TEXT
NP
0 SG
   GS
      1 W
      545 480 M
      GS
        GS
        0
            /Helvetica FF [24 0 0 -24 0 0] MS
            (Watchpoints) TGSW 
        AD
        GR
      NE 0 RM
            0.137 0.137 0.863 RG
            /Helvetica FF [24 0 0 -24 0 0] MS
            (Watchpoints) SH
      GR
   GR

% TEXT
NP
0 SG
   GS
      1 W
      670 465 M
      GS
        GS
        0
            /Helvetica FF [20 0 0 -20 0 0] MS
            (Start/Stop) TGSW 
        AD
        GR
      2 DI NE 0 RM
            0.137 0.137 0.863 RG
            /Helvetica FF [20 0 0 -20 0 0] MS
            (Start/Stop) SH
      GR
      0 22 RM
      GS
        GS
        0
            /Helvetica FF [20 0 0 -20 0 0] MS
            (Control) TGSW 
        AD
        GR
      2 DI NE 0 RM
            0.137 0.137 0.863 RG
            /Helvetica FF [20 0 0 -20 0 0] MS
            (Control) SH
      GR
   GR

% POLY/OPEN-SPLINE
0.137 0.137 0.863 RG
GS
   NP
      1020 465 M
      0 145 atan DU cos 22.000 MU exch sin 22.000 MU RM
      0 145 atan DU cos 22.000 MU 1165 exch SU
      exch sin 22.000 MU 465 exch SU L
   TGSM
   7 W
   S
   1 W
GR
GS
   TGSM
   NP
      1020 465 22.000 9.000 -145 0 TGAT
   1 SG CP F
   0.137 0.137 0.863 RG
   NP
      1020 465 22.000 9.000 -145 0 TGAT
   CP F
GR
GS
   TGSM
   NP
      1165 465 22.000 9.000 145 0 TGAT
   1 SG CP F
   0.137 0.137 0.863 RG
   NP
      1165 465 22.000 9.000 145 0 TGAT
   CP F
GR

% POLY/OPEN-SPLINE
0.490 0.651 0.278 RG
GS
   [2 2] 0 SD
   NP
      300 310 M
      1080 310 L
   TGSM
   3 W
   S
   [] 0 SD
   1 W
GR

% TEXT
NP
0 SG
   GS
      1 W
      1080 300 M
      GS
        GS
        0
            /Helvetica FF [20 0 0 -20 0 0] MS
            (User Code) TGSW 
        AD
        GR
      NE 0 RM
            0.490 0.651 0.278 RG
            /Helvetica FF [20 0 0 -20 0 0] MS
            (User Code) SH
      GR
   GR

% TEXT
NP
0 SG
   GS
      1 W
      1080 335 M
      GS
        GS
        0
            /Helvetica FF [20 0 0 -20 0 0] MS
            (Kiwi Substrate Services) TGSW 
        AD
        GR
      NE 0 RM
            0.490 0.651 0.278 RG
            /Helvetica FF [20 0 0 -20 0 0] MS
            (Kiwi Substrate Services) SH
      GR
   GR

% RCBOX
1.000 0.800 0.600 RG
NP
   1079 350 M
   1095 350 1095 410 16 AR
   1095 394 L
   1095 410 945 410 16 AR
   961 410 L
   945 410 945 350 16 AR
   945 366 L
   945 350 1095 350 16 AR
CP F
GS
   GS
      NP
         1079 350 M
         1095 350 1095 410 16 AR
         1095 394 L
         1095 410 945 410 16 AR
         961 410 L
         945 410 945 350 16 AR
         945 366 L
         945 350 1095 350 16 AR
      CP
      S
   GR
GR

% TEXT
NP
0 SG
   GS
      1 W
      1065 390 M
      GS
        GS
        0
            /Helvetica FF [24 0 0 -24 0 0] MS
            (Network) TGSW 
        AD
        GR
      NE 0 RM
            0.137 0.137 0.863 RG
            /Helvetica FF [24 0 0 -24 0 0] MS
            (Network) SH
      GR
   GR

% TEXT
NP
0 SG
   GS
      1 W
      910 390 M
      GS
        GS
        0
            /Helvetica FF [24 0 0 -24 0 0] MS
            (Filesystem) TGSW 
        AD
        GR
      NE 0 RM
            0.137 0.137 0.863 RG
            /Helvetica FF [24 0 0 -24 0 0] MS
            (Filesystem) SH
      GR
   GR

% TEXT
NP
0 SG
   GS
      1 W
      725 390 M
      GS
        GS
        0
            /Helvetica FF [24 0 0 -24 0 0] MS
            (Console) TGSW 
        AD
        GR
      NE 0 RM
            0.137 0.137 0.863 RG
            /Helvetica FF [24 0 0 -24 0 0] MS
            (Console) SH
      GR
   GR

% TEXT
NP
0 SG
   GS
      1 W
      555 390 M
      GS
        GS
        0
            /Helvetica FF [24 0 0 -24 0 0] MS
            (DRAM) TGSW 
        AD
        GR
      NE 0 RM
            0.137 0.137 0.863 RG
            /Helvetica FF [24 0 0 -24 0 0] MS
            (DRAM) SH
      GR
   GR

% TEXT
NP
0 SG
   GS
      1 W
      360 390 M
      GS
        GS
        0
            /Helvetica FF [24 0 0 -24 0 0] MS
            (Framestore) TGSW 
        AD
        GR
      2 DI NE 0 RM
            0.137 0.137 0.863 RG
            /Helvetica FF [24 0 0 -24 0 0] MS
            (Framestore) SH
      GR
   GR

% POLY/OPEN-SPLINE
0.000 0.000 1.000 RG
GS
   NP
      290 380 M
      0 -80 atan DU cos 12.000 MU 210 exch SU
      exch sin 12.000 MU 380 exch SU L
   TGSM
   3 W
   S
   1 W
GR
GS
   TGSM
   NP
      210 380 12.000 5.000 -80 0 TGAT
   1 SG CP F
   0.000 0.000 1.000 RG
   NP
      210 380 12.000 5.000 -80 0 TGAT
   CP F
GR

% POLY/OPEN-SPLINE
0.000 0.000 1.000 RG
GS
   NP
      290 500 M
      0 -80 atan DU cos 12.000 MU 210 exch SU
      exch sin 12.000 MU 500 exch SU L
   TGSM
   3 W
   S
   1 W
GR
GS
   TGSM
   NP
      210 500 12.000 5.000 -80 0 TGAT
   1 SG CP F
   0.000 0.000 1.000 RG
   NP
      210 500 12.000 5.000 -80 0 TGAT
   CP F
GR

% TEXT
NP
0.000 0.000 1.000 RG
   GS
      1 W
      145 290 M
      GS
        GS
        0
            /Helvetica FF [20 0 0 -20 0 0] MS
            (Optional HDMI) TGSW 
        AD
        GR
      2 DI NE 0 RM
            0.000 0.000 1.000 RG
            /Helvetica FF [20 0 0 -20 0 0] MS
            (Optional HDMI) SH
      GR
      0 22 RM
      GS
        GS
        0
            /Helvetica FF [20 0 0 -20 0 0] MS
            (Monitor Output) TGSW 
        AD
        GR
      2 DI NE 0 RM
            0.000 0.000 1.000 RG
            /Helvetica FF [20 0 0 -20 0 0] MS
            (Monitor Output) SH
      GR
   GR

% BOX
0.000 0.000 1.000 RG
GS
   10 SM
   GS
      NP 85 325 M 210 325 L 210 420 L 85 420 L CP
      3 W
      S
   GR
GR

% BOX
0.000 0.000 1.000 RG
GS
   10 SM
   GS
      NP 90 330 M 205 330 L 205 400 L 90 400 L CP
      S
   GR
GR

% BOX
0.000 0.000 1.000 RG
GS
   10 SM
   GS
      NP 130 420 M 170 420 L 170 435 L 130 435 L CP
      3 W
      S
   GR
GR

% BOX
0.000 0.000 1.000 RG
GS
   10 SM
   GS
      NP 110 435 M 190 435 L 190 440 L 110 440 L CP
      3 W
      S
   GR
GR

% OVAL
0.000 0.000 1.000 RG
GS
   GS
      NP 105 505 5 5 TGEL
      S
   GR
GR

% OVAL
0.000 0.000 1.000 RG
GS
   GS
      NP 125 505 5 5 TGEL
      S
   GR
GR

% OVAL
0.000 0.000 1.000 RG
GS
   GS
      NP 145 505 5 5 TGEL
      S
   GR
GR

% OVAL
0.000 0.000 1.000 RG
GS
   GS
      NP 165 505 5 5 TGEL
      S
   GR
GR

% OVAL
0.000 0.000 1.000 RG
GS
   GS
      NP 185 505 5 5 TGEL
      S
   GR
GR

% BOX
0.000 0.000 1.000 RG
GS
   10 SM
   GS
      NP 100 520 M 180 520 L 180 530 L 100 530 L CP
      2 W
      S
   GR
GR

% BOX
0.000 0.000 1.000 RG
GS
   10 SM
   GS
      NP 80 485 M 210 485 L 210 540 L 80 540 L CP
      2 W
      S
   GR
GR

% TEXT
NP
0.000 0.000 1.000 RG
   GS
      1 W
      145 560 M
      GS
        GS
        0
            /Helvetica FF [20 0 0 -20 0 0] MS
            (Blade-level) TGSW 
        AD
        GR
      2 DI NE 0 RM
            0.000 0.000 1.000 RG
            /Helvetica FF [20 0 0 -20 0 0] MS
            (Blade-level) SH
      GR
      0 22 RM
      GS
        GS
        0
            /Helvetica FF [20 0 0 -20 0 0] MS
            (LED and LCD output) TGSW 
        AD
        GR
      2 DI NE 0 RM
            0.000 0.000 1.000 RG
            /Helvetica FF [20 0 0 -20 0 0] MS
            (LED and LCD output) SH
      GR
   GR

GR
tgifsavedpage restore
end
showpage

%%Trailer
%MatchingCreationDate: Tue Sep 30 10:43:24 2014
%%DocumentFonts: Helvetica
%%EOF
