%!PS-Adobe-3.0 EPSF-3.0
%%BoundingBox: 25 420 548 716
%%Title: aggregator-concentrator-farm
%%CreationDate: Sat Jun 17 13:26:58 2017
%%Creator: Tgif-4.2.5-QPL written by William Chia-Wei Cheng (bill.cheng@acm.org)
%%ProducedBy: (unknown)
%%Pages: 1
%%DocumentFonts: (atend)
%%EndComments
%%BeginProlog

/tgifdict 54 dict def
tgifdict begin

/tgifarrowtipdict 8 dict def
tgifarrowtipdict /mtrx matrix put

/TGAT % tgifarrowtip
 { tgifarrowtipdict begin
      /dy exch def
      /dx exch def
      /h exch def
      /w exch def
      /y exch def
      /x exch def
      /savematrix mtrx currentmatrix def
      x y translate
      dy dx atan rotate
      0 0 moveto
      w neg h lineto
      w neg h neg lineto
      savematrix setmatrix
   end
 } def

/TGMAX
 { exch dup 3 1 roll exch dup 3 1 roll gt { pop } { exch pop } ifelse
 } def
/TGMIN
 { exch dup 3 1 roll exch dup 3 1 roll lt { pop } { exch pop } ifelse
 } def
/TGSW { stringwidth pop } def
/tgifstrw 0 def

/bd { bind def } bind def

/GS { gsave } bd
/GR { grestore } bd
/NP { newpath } bd
/CP { closepath } bd
/CHP { charpath } bd
/CT { curveto } bd
/L { lineto } bd
/RL { rlineto } bd
/M { moveto } bd
/RM { rmoveto } bd
/S { stroke } bd
/F { fill } bd
/TR { translate } bd
/RO { rotate } bd
/SC { scale } bd
/MU { mul } bd
/DI { div } bd
/DU { dup } bd
/NE { neg } bd
/AD { add } bd
/SU { sub } bd
/PO { pop } bd
/EX { exch } bd
/CO { concat } bd
/CL { clip } bd
/EC { eoclip } bd
/EF { eofill } bd
/IM { image } bd
/IMM { imagemask } bd
/ARY { array } bd
/SG { setgray } bd
/RG { setrgbcolor } bd
/SD { setdash } bd
/W { setlinewidth } bd
/SM { setmiterlimit } bd
/SLC { setlinecap } bd
/SLJ { setlinejoin } bd
/SH { show } bd
/FF { findfont } bd
/MS { makefont setfont } bd
/AR { arcto 4 {pop} repeat } bd
/CURP { currentpoint } bd
/FLAT { flattenpath strokepath clip newpath } bd
/TGSM { tgiforigctm setmatrix } def
/TGRM { savematrix setmatrix } def

end

%%EndProlog
%%Page: 1 1

%%PageBoundingBox: 25 420 548 716
tgifdict begin
/tgifsavedpage save def

1 SM
1 W

0 SG

72 0 MU 72 11.695 MU TR
72 128 DI 100.000 MU 100 DI DU NE SC

GS

/tgiforigctm matrix currentmatrix def

% POLY/OPEN-SPLINE
0 SG
GS
   NP
      128 660 M
      64 0 atan DU cos 10.000 MU 128 exch SU
      exch sin 10.000 MU 724 exch SU L
   TGSM
   2 W
   S
   1 W
GR
GS
   TGSM
   NP
      128 724 10.000 4.000 0 64 TGAT
   1 SG CP F
   0 SG
   NP
      128 724 10.000 4.000 0 64 TGAT
   CP F
GR

% POLY/OPEN-SPLINE
0 SG
GS
   NP
      160 660 M
      64 0 atan DU cos 10.000 MU 160 exch SU
      exch sin 10.000 MU 724 exch SU L
   TGSM
   2 W
   S
   1 W
GR
GS
   TGSM
   NP
      160 724 10.000 4.000 0 64 TGAT
   1 SG CP F
   0 SG
   NP
      160 724 10.000 4.000 0 64 TGAT
   CP F
GR

% POLY/OPEN-SPLINE
0 SG
GS
   NP
      192 660 M
      64 0 atan DU cos 10.000 MU 192 exch SU
      exch sin 10.000 MU 724 exch SU L
   TGSM
   2 W
   S
   1 W
GR
GS
   TGSM
   NP
      192 724 10.000 4.000 0 64 TGAT
   1 SG CP F
   0 SG
   NP
      192 724 10.000 4.000 0 64 TGAT
   CP F
GR

% TEXT
NP
0 SG
   GS
      1 W
      124 744 M
      GS
            0 SG
            /Courier FF [18 0 0 -18 0 0] MS
            (A) SH
      GR
   GR

% TEXT
NP
0 SG
   GS
      1 W
      156 744 M
      GS
            0 SG
            /Courier FF [18 0 0 -18 0 0] MS
            (B) SH
      GR
   GR

% TEXT
NP
0 SG
   GS
      1 W
      188 744 M
      GS
            0 SG
            /Courier FF [18 0 0 -18 0 0] MS
            (C) SH
      GR
   GR

% POLY/OPEN-SPLINE
0 SG
GS
   NP
      400 312 M
      64 0 atan DU cos 10.000 MU 400 exch SU
      exch sin 10.000 MU 376 exch SU L
   TGSM
   2 W
   S
   1 W
GR
GS
   TGSM
   NP
      400 376 10.000 4.000 0 64 TGAT
   1 SG CP F
   0 SG
   NP
      400 376 10.000 4.000 0 64 TGAT
   CP F
GR

% POLY/OPEN-SPLINE
0 SG
GS
   NP
      432 312 M
      64 0 atan DU cos 10.000 MU 432 exch SU
      exch sin 10.000 MU 376 exch SU L
   TGSM
   2 W
   S
   1 W
GR
GS
   TGSM
   NP
      432 376 10.000 4.000 0 64 TGAT
   1 SG CP F
   0 SG
   NP
      432 376 10.000 4.000 0 64 TGAT
   CP F
GR

% POLY/OPEN-SPLINE
0 SG
GS
   NP
      464 312 M
      64 0 atan DU cos 10.000 MU 464 exch SU
      exch sin 10.000 MU 376 exch SU L
   TGSM
   2 W
   S
   1 W
GR
GS
   TGSM
   NP
      464 376 10.000 4.000 0 64 TGAT
   1 SG CP F
   0 SG
   NP
      464 376 10.000 4.000 0 64 TGAT
   CP F
GR

% TEXT
NP
0 SG
   GS
      1 W
      396 296 M
      GS
            0 SG
            /Courier FF [18 0 0 -18 0 0] MS
            (A) SH
      GR
   GR

% TEXT
NP
0 SG
   GS
      1 W
      428 296 M
      GS
            0 SG
            /Courier FF [18 0 0 -18 0 0] MS
            (B) SH
      GR
   GR

% TEXT
NP
0 SG
   GS
      1 W
      460 296 M
      GS
            0 SG
            /Courier FF [18 0 0 -18 0 0] MS
            (C) SH
      GR
   GR

% POLY/OPEN-SPLINE
0 SG
GS
   NP
      384 660 M
      64 0 atan DU cos 10.000 MU 384 exch SU
      exch sin 10.000 MU 724 exch SU L
   TGSM
   2 W
   S
   1 W
GR
GS
   TGSM
   NP
      384 724 10.000 4.000 0 64 TGAT
   1 SG CP F
   0 SG
   NP
      384 724 10.000 4.000 0 64 TGAT
   CP F
GR

% POLY/OPEN-SPLINE
0 SG
GS
   NP
      416 660 M
      64 0 atan DU cos 10.000 MU 416 exch SU
      exch sin 10.000 MU 724 exch SU L
   TGSM
   2 W
   S
   1 W
GR
GS
   TGSM
   NP
      416 724 10.000 4.000 0 64 TGAT
   1 SG CP F
   0 SG
   NP
      416 724 10.000 4.000 0 64 TGAT
   CP F
GR

% POLY/OPEN-SPLINE
0 SG
GS
   NP
      448 660 M
      64 0 atan DU cos 10.000 MU 448 exch SU
      exch sin 10.000 MU 724 exch SU L
   TGSM
   2 W
   S
   1 W
GR
GS
   TGSM
   NP
      448 724 10.000 4.000 0 64 TGAT
   1 SG CP F
   0 SG
   NP
      448 724 10.000 4.000 0 64 TGAT
   CP F
GR

% POLY/OPEN-SPLINE
0 SG
GS
   NP
      864 312 M
      64 0 atan DU cos 10.000 MU 864 exch SU
      exch sin 10.000 MU 376 exch SU L
   TGSM
   2 W
   S
   1 W
GR
GS
   TGSM
   NP
      864 376 10.000 4.000 0 64 TGAT
   1 SG CP F
   0 SG
   NP
      864 376 10.000 4.000 0 64 TGAT
   CP F
GR

% POLY/OPEN-SPLINE
0 SG
GS
   NP
      896 312 M
      64 0 atan DU cos 10.000 MU 896 exch SU
      exch sin 10.000 MU 376 exch SU L
   TGSM
   2 W
   S
   1 W
GR
GS
   TGSM
   NP
      896 376 10.000 4.000 0 64 TGAT
   1 SG CP F
   0 SG
   NP
      896 376 10.000 4.000 0 64 TGAT
   CP F
GR

% POLY/OPEN-SPLINE
0 SG
GS
   NP
      928 312 M
      64 0 atan DU cos 10.000 MU 928 exch SU
      exch sin 10.000 MU 376 exch SU L
   TGSM
   2 W
   S
   1 W
GR
GS
   TGSM
   NP
      928 376 10.000 4.000 0 64 TGAT
   1 SG CP F
   0 SG
   NP
      928 376 10.000 4.000 0 64 TGAT
   CP F
GR

% TEXT
NP
0 SG
   GS
      1 W
      860 296 M
      GS
            0 SG
            /Courier FF [18 0 0 -18 0 0] MS
            (A) SH
      GR
   GR

% TEXT
NP
0 SG
   GS
      1 W
      892 296 M
      GS
            0 SG
            /Courier FF [18 0 0 -18 0 0] MS
            (B) SH
      GR
   GR

% TEXT
NP
0 SG
   GS
      1 W
      924 296 M
      GS
            0 SG
            /Courier FF [18 0 0 -18 0 0] MS
            (C) SH
      GR
   GR

% TEXT
NP
0 SG
   GS
      1 W
      432 252 M
      GS
            0 SG
            /Courier FF [34 0 0 -34 0 0] MS
            (Aggregation) DU TGSW EX SH
            GS CURP M 0 2 RM NE 0 RL S GR
      GR
   GR

% TEXT
NP
0 SG
   GS
      1 W
      824 256 M
      GS
            0 SG
            /Courier FF [34 0 0 -34 0 0] MS
            (Farming) DU TGSW EX SH
            GS CURP M 0 2 RM NE 0 RL S GR
      GR
   GR

% BOX
0 SG
GS
   10 SM
   GS
      NP 356 580 M 508 580 L 508 660 L 356 660 L CP
      2 W
      S
   GR
GR

% BOX
0 SG
GS
   10 SM
   GS
      NP 820 580 M 972 580 L 972 660 L 820 660 L CP
      2 W
      S
   GR
GR

% TEXT
NP
0 SG
   GS
      1 W
      432 616 M
      GS
        GS
        0
            /Courier FF [24 0 0 -24 0 0] MS
            (Addressed) TGSW 
        AD
        GR
      2 DI NE 0 RM
            0 SG
            /Courier FF [24 0 0 -24 0 0] MS
            (Addressed) SH
      GR
      0 22 RM
      GS
        GS
        0
            /Courier FF [24 0 0 -24 0 0] MS
            (DEMUX) TGSW 
        AD
        GR
      2 DI NE 0 RM
            0 SG
            /Courier FF [24 0 0 -24 0 0] MS
            (DEMUX) SH
      GR
   GR

% POLY/OPEN-SPLINE
0 SG
GS
   NP
      480 660 M
      64 0 atan DU cos 10.000 MU 480 exch SU
      exch sin 10.000 MU 724 exch SU L
   TGSM
   2 W
   S
   1 W
GR
GS
   TGSM
   NP
      480 724 10.000 4.000 0 64 TGAT
   1 SG CP F
   0 SG
   NP
      480 724 10.000 4.000 0 64 TGAT
   CP F
GR

% TEXT
NP
0 SG
   GS
      1 W
      416 744 M
      GS
        GS
        0
            /Courier FF [18 0 0 -18 0 0] MS
            (R1) TGSW 
        AD
        GR
      2 DI NE 0 RM
            0 SG
            /Courier FF [18 0 0 -18 0 0] MS
            (R1) SH
      GR
   GR

% TEXT
NP
0 SG
   GS
      1 W
      448 744 M
      GS
        GS
        0
            /Courier FF [18 0 0 -18 0 0] MS
            (R2) TGSW 
        AD
        GR
      2 DI NE 0 RM
            0 SG
            /Courier FF [18 0 0 -18 0 0] MS
            (R2) SH
      GR
   GR

% TEXT
NP
0 SG
   GS
      1 W
      480 744 M
      GS
        GS
        0
            /Courier FF [18 0 0 -18 0 0] MS
            (R3) TGSW 
        AD
        GR
      2 DI NE 0 RM
            0 SG
            /Courier FF [18 0 0 -18 0 0] MS
            (R3) SH
      GR
   GR

% TEXT
NP
0 SG
   GS
      1 W
      384 744 M
      GS
        GS
        0
            /Courier FF [18 0 0 -18 0 0] MS
            (R0) TGSW 
        AD
        GR
      2 DI NE 0 RM
            0 SG
            /Courier FF [18 0 0 -18 0 0] MS
            (R0) SH
      GR
   GR

% POLY/OPEN-SPLINE
0 SG
GS
   NP
      880 660 M
      64 0 atan DU cos 10.000 MU 880 exch SU
      exch sin 10.000 MU 724 exch SU L
   TGSM
   2 W
   S
   1 W
GR
GS
   TGSM
   NP
      880 724 10.000 4.000 0 64 TGAT
   1 SG CP F
   0 SG
   NP
      880 724 10.000 4.000 0 64 TGAT
   CP F
GR

% POLY/OPEN-SPLINE
0 SG
GS
   NP
      912 660 M
      64 0 atan DU cos 10.000 MU 912 exch SU
      exch sin 10.000 MU 724 exch SU L
   TGSM
   2 W
   S
   1 W
GR
GS
   TGSM
   NP
      912 724 10.000 4.000 0 64 TGAT
   1 SG CP F
   0 SG
   NP
      912 724 10.000 4.000 0 64 TGAT
   CP F
GR

% TEXT
NP
0 SG
   GS
      1 W
      912 744 M
      GS
        GS
        0
            /Courier FF [18 0 0 -18 0 0] MS
            (S1) TGSW 
        AD
        GR
      2 DI NE 0 RM
            0 SG
            /Courier FF [18 0 0 -18 0 0] MS
            (S1) SH
      GR
   GR

% TEXT
NP
0 SG
   GS
      1 W
      880 744 M
      GS
        GS
        0
            /Courier FF [18 0 0 -18 0 0] MS
            (S0) TGSW 
        AD
        GR
      2 DI NE 0 RM
            0 SG
            /Courier FF [18 0 0 -18 0 0] MS
            (S0) SH
      GR
   GR

% BOX
0 SG
GS
   10 SM
   GS
      NP 364 380 M 492 380 L 492 460 L 364 460 L CP
      2 W
      S
   GR
GR

% POLY/OPEN-SPLINE
0 SG
GS
   NP
      432 460 M
      120 0 atan DU cos 12.000 MU 432 exch SU
      exch sin 12.000 MU 580 exch SU L
   TGSM
   3 W
   S
   1 W
GR
GS
   TGSM
   NP
      432 580 12.000 5.000 0 120 TGAT
   1 SG CP F
   0 SG
   NP
      432 580 12.000 5.000 0 120 TGAT
   CP F
GR

% BOX
0 SG
GS
   10 SM
   GS
      NP 836 380 M 956 380 L 956 460 L 836 460 L CP
      2 W
      S
   GR
GR

% POLY/OPEN-SPLINE
0 SG
GS
   NP
      896 460 M
      120 0 atan DU cos 12.000 MU 896 exch SU
      exch sin 12.000 MU 580 exch SU L
   TGSM
   3 W
   S
   1 W
GR
GS
   TGSM
   NP
      896 580 12.000 5.000 0 120 TGAT
   1 SG CP F
   0 SG
   NP
      896 580 12.000 5.000 0 120 TGAT
   CP F
GR

% TEXT
NP
0 SG
   GS
      1 W
      892 412 M
      GS
        GS
        0
            /Courier FF [24 0 0 -24 0 0] MS
            (Tagged) TGSW 
        AD
        GR
      2 DI NE 0 RM
            0 SG
            /Courier FF [24 0 0 -24 0 0] MS
            (Tagged) SH
      GR
      0 22 RM
      GS
        GS
        0
            /Courier FF [24 0 0 -24 0 0] MS
            (MUX) TGSW 
        AD
        GR
      2 DI NE 0 RM
            0 SG
            /Courier FF [24 0 0 -24 0 0] MS
            (MUX) SH
      GR
   GR

% TEXT
NP
0 SG
   GS
      1 W
      428 412 M
      GS
        GS
        0
            /Courier FF [24 0 0 -24 0 0] MS
            (Tagged) TGSW 
        AD
        GR
      2 DI NE 0 RM
            0 SG
            /Courier FF [24 0 0 -24 0 0] MS
            (Tagged) SH
      GR
      0 22 RM
      GS
        GS
        0
            /Courier FF [24 0 0 -24 0 0] MS
            (MUX) TGSW 
        AD
        GR
      2 DI NE 0 RM
            0 SG
            /Courier FF [24 0 0 -24 0 0] MS
            (MUX) SH
      GR
   GR

% TEXT
NP
0 SG
   GS
      1 W
      896 616 M
      GS
        GS
        0
            /Courier FF [24 0 0 -24 0 0] MS
            (Balancing) TGSW 
        AD
        GR
      2 DI NE 0 RM
            0 SG
            /Courier FF [24 0 0 -24 0 0] MS
            (Balancing) SH
      GR
      0 22 RM
      GS
        GS
        0
            /Courier FF [24 0 0 -24 0 0] MS
            (DEMUX) TGSW 
        AD
        GR
      2 DI NE 0 RM
            0 SG
            /Courier FF [24 0 0 -24 0 0] MS
            (DEMUX) SH
      GR
   GR

% POLY/OPEN-SPLINE
0 SG
GS
   NP
      128 312 M
      64 0 atan DU cos 10.000 MU 128 exch SU
      exch sin 10.000 MU 376 exch SU L
   TGSM
   2 W
   S
   1 W
GR
GS
   TGSM
   NP
      128 376 10.000 4.000 0 64 TGAT
   1 SG CP F
   0 SG
   NP
      128 376 10.000 4.000 0 64 TGAT
   CP F
GR

% POLY/OPEN-SPLINE
0 SG
GS
   NP
      160 312 M
      64 0 atan DU cos 10.000 MU 160 exch SU
      exch sin 10.000 MU 376 exch SU L
   TGSM
   2 W
   S
   1 W
GR
GS
   TGSM
   NP
      160 376 10.000 4.000 0 64 TGAT
   1 SG CP F
   0 SG
   NP
      160 376 10.000 4.000 0 64 TGAT
   CP F
GR

% POLY/OPEN-SPLINE
0 SG
GS
   NP
      192 312 M
      64 0 atan DU cos 10.000 MU 192 exch SU
      exch sin 10.000 MU 376 exch SU L
   TGSM
   2 W
   S
   1 W
GR
GS
   TGSM
   NP
      192 376 10.000 4.000 0 64 TGAT
   1 SG CP F
   0 SG
   NP
      192 376 10.000 4.000 0 64 TGAT
   CP F
GR

% TEXT
NP
0 SG
   GS
      1 W
      124 296 M
      GS
            0 SG
            /Courier FF [18 0 0 -18 0 0] MS
            (A) SH
      GR
   GR

% TEXT
NP
0 SG
   GS
      1 W
      156 296 M
      GS
            0 SG
            /Courier FF [18 0 0 -18 0 0] MS
            (B) SH
      GR
   GR

% TEXT
NP
0 SG
   GS
      1 W
      188 296 M
      GS
            0 SG
            /Courier FF [18 0 0 -18 0 0] MS
            (C) SH
      GR
   GR

% BOX
0 SG
GS
   10 SM
   GS
      NP 100 380 M 220 380 L 220 460 L 100 460 L CP
      2 W
      S
   GR
GR

% TEXT
NP
0 SG
   GS
      1 W
      164 412 M
      GS
        GS
        0
            /Courier FF [24 0 0 -24 0 0] MS
            (Tagged) TGSW 
        AD
        GR
      2 DI NE 0 RM
            0 SG
            /Courier FF [24 0 0 -24 0 0] MS
            (Tagged) SH
      GR
      0 22 RM
      GS
        GS
        0
            /Courier FF [24 0 0 -24 0 0] MS
            (MUX) TGSW 
        AD
        GR
      2 DI NE 0 RM
            0 SG
            /Courier FF [24 0 0 -24 0 0] MS
            (MUX) SH
      GR
   GR

% BOX
0 SG
GS
   10 SM
   GS
      NP 100 580 M 220 580 L 220 660 L 100 660 L CP
      2 W
      S
   GR
GR

% TEXT
NP
0 SG
   GS
      1 W
      160 616 M
      GS
        GS
        0
            /Courier FF [24 0 0 -24 0 0] MS
            (Tagged) TGSW 
        AD
        GR
      2 DI NE 0 RM
            0 SG
            /Courier FF [24 0 0 -24 0 0] MS
            (Tagged) SH
      GR
      0 22 RM
      GS
        GS
        0
            /Courier FF [24 0 0 -24 0 0] MS
            (DEMUX) TGSW 
        AD
        GR
      2 DI NE 0 RM
            0 SG
            /Courier FF [24 0 0 -24 0 0] MS
            (DEMUX) SH
      GR
   GR

% POLY/OPEN-SPLINE
0 SG
GS
   NP
      160 460 M
      120 0 atan DU cos 12.000 MU 160 exch SU
      exch sin 12.000 MU 580 exch SU L
   TGSM
   3 W
   S
   1 W
GR
GS
   TGSM
   NP
      160 580 12.000 5.000 0 120 TGAT
   1 SG CP F
   0 SG
   NP
      160 580 12.000 5.000 0 120 TGAT
   CP F
GR

% TEXT
NP
0 SG
   GS
      1 W
      48 252 M
      GS
            0 SG
            /Courier FF [34 0 0 -34 0 0] MS
            (Concentration) DU TGSW EX SH
            GS CURP M 0 2 RM NE 0 RL S GR
      GR
   GR

% POLY/OPEN-SPLINE
0 SG
GS
   NP
      560 312 M
      64 0 atan DU cos 10.000 MU 560 exch SU
      exch sin 10.000 MU 376 exch SU L
   TGSM
   2 W
   S
   1 W
GR
GS
   TGSM
   NP
      560 376 10.000 4.000 0 64 TGAT
   1 SG CP F
   0 SG
   NP
      560 376 10.000 4.000 0 64 TGAT
   CP F
GR

% POLY/OPEN-SPLINE
0 SG
GS
   NP
      592 312 M
      64 0 atan DU cos 10.000 MU 592 exch SU
      exch sin 10.000 MU 376 exch SU L
   TGSM
   2 W
   S
   1 W
GR
GS
   TGSM
   NP
      592 376 10.000 4.000 0 64 TGAT
   1 SG CP F
   0 SG
   NP
      592 376 10.000 4.000 0 64 TGAT
   CP F
GR

% POLY/OPEN-SPLINE
0 SG
GS
   NP
      624 312 M
      64 0 atan DU cos 10.000 MU 624 exch SU
      exch sin 10.000 MU 376 exch SU L
   TGSM
   2 W
   S
   1 W
GR
GS
   TGSM
   NP
      624 376 10.000 4.000 0 64 TGAT
   1 SG CP F
   0 SG
   NP
      624 376 10.000 4.000 0 64 TGAT
   CP F
GR

% TEXT
NP
0 SG
   GS
      1 W
      556 296 M
      GS
            0 SG
            /Courier FF [18 0 0 -18 0 0] MS
            (A) SH
      GR
   GR

% TEXT
NP
0 SG
   GS
      1 W
      588 296 M
      GS
            0 SG
            /Courier FF [18 0 0 -18 0 0] MS
            (B) SH
      GR
   GR

% TEXT
NP
0 SG
   GS
      1 W
      620 296 M
      GS
            0 SG
            /Courier FF [18 0 0 -18 0 0] MS
            (C) SH
      GR
   GR

% TEXT
NP
0 SG
   GS
      1 W
      584 744 M
      GS
        GS
        0
            /Courier FF [18 0 0 -18 0 0] MS
            (R) TGSW 
        AD
        GR
      2 DI NE 0 RM
            0 SG
            /Courier FF [18 0 0 -18 0 0] MS
            (R) SH
      GR
   GR

% BOX
0 SG
GS
   10 SM
   GS
      NP 524 380 M 652 380 L 652 460 L 524 460 L CP
      2 W
      S
   GR
GR

% POLY/OPEN-SPLINE
0 SG
GS
   NP
      584 460 M
      264 0 atan DU cos 12.000 MU 584 exch SU
      exch sin 12.000 MU 724 exch SU L
   TGSM
   3 W
   S
   1 W
GR
GS
   TGSM
   NP
      584 724 12.000 5.000 0 264 TGAT
   1 SG CP F
   0 SG
   NP
      584 724 12.000 5.000 0 264 TGAT
   CP F
GR

% TEXT
NP
0 SG
   GS
      1 W
      588 412 M
      GS
        GS
        0
            /Courier FF [24 0 0 -24 0 0] MS
            (Tagged) TGSW 
        AD
        GR
      2 DI NE 0 RM
            0 SG
            /Courier FF [24 0 0 -24 0 0] MS
            (Tagged) SH
      GR
      0 22 RM
      GS
        GS
        0
            /Courier FF [24 0 0 -24 0 0] MS
            (MUX) TGSW 
        AD
        GR
      2 DI NE 0 RM
            0 SG
            /Courier FF [24 0 0 -24 0 0] MS
            (MUX) SH
      GR
   GR

% POLY/OPEN-SPLINE
0 SG
GS
   [2 2] 0 SD
   NP
      336 232 M
      336 736 L
   TGSM
   1 W
   S
   [] 0 SD
GR

% POLY/OPEN-SPLINE
0 SG
GS
   [2 2] 0 SD
   NP
      784 232 M
      784 736 L
   TGSM
   1 W
   S
   [] 0 SD
GR

% POLY/OPEN-SPLINE
0 SG
GS
   NP
      640 660 M
      64 0 atan DU cos 10.000 MU 640 exch SU
      exch sin 10.000 MU 724 exch SU L
   TGSM
   2 W
   S
   1 W
GR
GS
   TGSM
   NP
      640 724 10.000 4.000 0 64 TGAT
   1 SG CP F
   0 SG
   NP
      640 724 10.000 4.000 0 64 TGAT
   CP F
GR

% POLY/OPEN-SPLINE
0 SG
GS
   NP
      672 660 M
      64 0 atan DU cos 10.000 MU 672 exch SU
      exch sin 10.000 MU 724 exch SU L
   TGSM
   2 W
   S
   1 W
GR
GS
   TGSM
   NP
      672 724 10.000 4.000 0 64 TGAT
   1 SG CP F
   0 SG
   NP
      672 724 10.000 4.000 0 64 TGAT
   CP F
GR

% POLY/OPEN-SPLINE
0 SG
GS
   NP
      704 660 M
      64 0 atan DU cos 10.000 MU 704 exch SU
      exch sin 10.000 MU 724 exch SU L
   TGSM
   2 W
   S
   1 W
GR
GS
   TGSM
   NP
      704 724 10.000 4.000 0 64 TGAT
   1 SG CP F
   0 SG
   NP
      704 724 10.000 4.000 0 64 TGAT
   CP F
GR

% BOX
0 SG
GS
   10 SM
   GS
      NP 612 580 M 764 580 L 764 660 L 612 660 L CP
      2 W
      S
   GR
GR

% TEXT
NP
0 SG
   GS
      1 W
      688 616 M
      GS
        GS
        0
            /Courier FF [24 0 0 -24 0 0] MS
            (Addressed) TGSW 
        AD
        GR
      2 DI NE 0 RM
            0 SG
            /Courier FF [24 0 0 -24 0 0] MS
            (Addressed) SH
      GR
      0 22 RM
      GS
        GS
        0
            /Courier FF [24 0 0 -24 0 0] MS
            (DEMUX) TGSW 
        AD
        GR
      2 DI NE 0 RM
            0 SG
            /Courier FF [24 0 0 -24 0 0] MS
            (DEMUX) SH
      GR
   GR

% POLY/OPEN-SPLINE
0 SG
GS
   NP
      736 660 M
      64 0 atan DU cos 10.000 MU 736 exch SU
      exch sin 10.000 MU 724 exch SU L
   TGSM
   2 W
   S
   1 W
GR
GS
   TGSM
   NP
      736 724 10.000 4.000 0 64 TGAT
   1 SG CP F
   0 SG
   NP
      736 724 10.000 4.000 0 64 TGAT
   CP F
GR

% TEXT
NP
0 SG
   GS
      1 W
      672 744 M
      GS
        GS
        0
            /Courier FF [18 0 0 -18 0 0] MS
            (R1) TGSW 
        AD
        GR
      2 DI NE 0 RM
            0 SG
            /Courier FF [18 0 0 -18 0 0] MS
            (R1) SH
      GR
   GR

% TEXT
NP
0 SG
   GS
      1 W
      704 744 M
      GS
        GS
        0
            /Courier FF [18 0 0 -18 0 0] MS
            (R2) TGSW 
        AD
        GR
      2 DI NE 0 RM
            0 SG
            /Courier FF [18 0 0 -18 0 0] MS
            (R2) SH
      GR
   GR

% TEXT
NP
0 SG
   GS
      1 W
      736 744 M
      GS
        GS
        0
            /Courier FF [18 0 0 -18 0 0] MS
            (R3) TGSW 
        AD
        GR
      2 DI NE 0 RM
            0 SG
            /Courier FF [18 0 0 -18 0 0] MS
            (R3) SH
      GR
   GR

% TEXT
NP
0 SG
   GS
      1 W
      640 744 M
      GS
        GS
        0
            /Courier FF [18 0 0 -18 0 0] MS
            (R0) TGSW 
        AD
        GR
      2 DI NE 0 RM
            0 SG
            /Courier FF [18 0 0 -18 0 0] MS
            (R0) SH
      GR
   GR

% POLY/OPEN-SPLINE
0 SG
GS
   NP
      688 308 M
      272 0 atan DU cos 12.000 MU 688 exch SU
      exch sin 12.000 MU 580 exch SU L
   TGSM
   3 W
   S
   1 W
GR
GS
   TGSM
   NP
      688 580 12.000 5.000 0 272 TGAT
   1 SG CP F
   0 SG
   NP
      688 580 12.000 5.000 0 272 TGAT
   CP F
GR

% TEXT
NP
0 SG
   GS
      1 W
      684 296 M
      GS
            0 SG
            /Courier FF [18 0 0 -18 0 0] MS
            (A) SH
      GR
   GR

GR
tgifsavedpage restore
end
showpage

%%Trailer
%MatchingCreationDate: Sat Jun 17 13:26:58 2017
%%DocumentFonts: Courier
%%EOF
