%!PS-Adobe-3.0 EPSF-3.0
%%BoundingBox: 26 245 479 805
%%Title: external-instances
%%CreationDate: Tue May  2 16:43:00 2017
%%Creator: Tgif-4.2.5-QPL written by William Chia-Wei Cheng (bill.cheng@acm.org)
%%ProducedBy: (unknown)
%%Pages: 1
%%DocumentFonts: (atend)
%%EndComments
%%BeginProlog

/tgifdict 87 dict def
tgifdict begin

/tgifarrowtipdict 8 dict def
tgifarrowtipdict /mtrx matrix put

/TGAT % tgifarrowtip
 { tgifarrowtipdict begin
      /dy exch def
      /dx exch def
      /h exch def
      /w exch def
      /y exch def
      /x exch def
      /savematrix mtrx currentmatrix def
      x y translate
      dy dx atan rotate
      0 0 moveto
      w neg h lineto
      w neg h neg lineto
      savematrix setmatrix
   end
 } def

/tgifpatdict 12 dict def

/tgifpatbyte
 { currentdict /retstr get exch
   bytesperrow mul
   pat i cellh mod bytesperrow mul bytesperrow getinterval putinterval
 } def

/tgifpatproc
 { 0 1 cells_wd 1 sub {tgifpatbyte} for retstr
   /i i 1 add def
 } def

/TGPF % tgifpatfill
 { tgifpatdict begin
      /h exch def
      /w exch def
      /lty exch def
      /ltx exch def
      /cellh exch def
      /cellw exch def
      /pat exch def

      /cells_wd w cellw div cvi def
      /bytesperrow cellw 8 div ceiling cvi def
      /retstr cells_wd bytesperrow mul string def
      /i 0 def

      tgiforigctm setmatrix
      ltx lty translate
      w h true [1 0 0 1 0 0] {tgifpatproc} imagemask
      ltx neg lty neg translate
   end
 } def

/pat3 <8000000008000000> def
/pat4 <8800000022000000> def
/pat5 <8800220088002200> def
/pat6 <8822882288228822> def
/pat7 <aa55aa55aa55aa55> def
/pat8 <77dd77dd77dd77dd> def
/pat9 <77ffddff77ffddff> def
/pat10 <77ffffffddffffff> def
/pat11 <7ffffffff7ffffff> def
/pat12 <8040200002040800> def
/pat13 <40a00000040a0000> def
/pat14 <ff888888ff888888> def
/pat15 <ff808080ff080808> def
/pat16 <f87422478f172271> def
/pat17 <038448300c020101> def
/pat18 <081c22c180010204> def
/pat19 <8080413e080814e3> def
/pat20 <8040201008040201> def
/pat21 <8844221188442211> def
/pat22 <77bbddee77bbddee> def
/pat23 <c1e070381c0e0783> def
/pat24 <7fbfdfeff7fbfdfe> def
/pat25 <3e1f8fc7e3f1f87c> def
/pat26 <0102040810204080> def
/pat27 <1122448811224488> def
/pat28 <eeddbb77eeddbb77> def
/pat29 <83070e1c3870e0c1> def
/pat30 <fefdfbf7efdfbf7f> def
/pat31 <7cf8f1e3c78f1f3e> def

/TGMAX
 { exch dup 3 1 roll exch dup 3 1 roll gt { pop } { exch pop } ifelse
 } def
/TGMIN
 { exch dup 3 1 roll exch dup 3 1 roll lt { pop } { exch pop } ifelse
 } def
/TGSW { stringwidth pop } def
/tgifstrw 0 def

/bd { bind def } bind def

/GS { gsave } bd
/GR { grestore } bd
/NP { newpath } bd
/CP { closepath } bd
/CHP { charpath } bd
/CT { curveto } bd
/L { lineto } bd
/RL { rlineto } bd
/M { moveto } bd
/RM { rmoveto } bd
/S { stroke } bd
/F { fill } bd
/TR { translate } bd
/RO { rotate } bd
/SC { scale } bd
/MU { mul } bd
/DI { div } bd
/DU { dup } bd
/NE { neg } bd
/AD { add } bd
/SU { sub } bd
/PO { pop } bd
/EX { exch } bd
/CO { concat } bd
/CL { clip } bd
/EC { eoclip } bd
/EF { eofill } bd
/IM { image } bd
/IMM { imagemask } bd
/ARY { array } bd
/SG { setgray } bd
/RG { setrgbcolor } bd
/SD { setdash } bd
/W { setlinewidth } bd
/SM { setmiterlimit } bd
/SLC { setlinecap } bd
/SLJ { setlinejoin } bd
/SH { show } bd
/FF { findfont } bd
/MS { makefont setfont } bd
/AR { arcto 4 {pop} repeat } bd
/CURP { currentpoint } bd
/FLAT { flattenpath strokepath clip newpath } bd
/TGSM { tgiforigctm setmatrix } def
/TGRM { savematrix setmatrix } def

end

%%EndProlog
%%Page: 1 1

%%PageBoundingBox: 26 245 479 805
tgifdict begin
/tgifsavedpage save def

1 SM
1 W

0 SG

72 0 MU 72 11.602 MU TR
72 128 DI 100.000 MU 100 DI DU NE SC

GS

/tgiforigctm matrix currentmatrix def

% RCBOX
0 SG
GS
   GS
      NP
         319 565 M
         335 565 335 640 16 AR
         335 624 L
         335 640 195 640 16 AR
         211 640 L
         195 640 195 565 16 AR
         195 581 L
         195 565 335 565 16 AR
      CP
      2 W
      S
   GR
GR

% TEXT
NP
0 SG
   GS
      1 W
      230 610 M
      GS
            0 SG
            /Helvetica FF [20 0 0 -20 0 0] MS
            (Child B 1) SH
      GR
   GR

% POLYGON/CLOSED-SPLINE
0 SG
NP
   255 545 M
   275 545 L
   265 565 L
CP
GS
   EF
GR
GS
   S
GR

% BOX
0 SG
GS
   10 SM
   GS
      NP 255 545 M 275 545 L 275 565 L 255 565 L CP
      S
   GR
GR

% TEXT
NP
0 SG
   GS
      1 W
      435 610 M
      GS
            0 SG
            /Helvetica FF [20 0 0 -20 0 0] MS
            (Child B 2) SH
      GR
   GR

% TEXT
NP
0 SG
   GS
      1 W
      700 495 M
      GS
            0 SG
            /Helvetica FF [20 0 0 -20 0 0] MS
            (Child C) SH
      GR
   GR

% TEXT
NP
0 SG
   GS
      1 W
      235 580 M
      GS
            0 SG
            /Helvetica FF [12 0 0 -12 0 0] MS
            (Arg/Result-B) SH
      GR
   GR

% RCBOX
0 SG
GS
   GS
      NP
         519 565 M
         535 565 535 640 16 AR
         535 624 L
         535 640 395 640 16 AR
         411 640 L
         395 640 395 565 16 AR
         395 581 L
         395 565 535 565 16 AR
      CP
      2 W
      S
   GR
GR

% POLYGON/CLOSED-SPLINE
0 SG
NP
   455 545 M
   475 545 L
   465 565 L
CP
GS
   EF
GR
GS
   S
GR

% BOX
0 SG
GS
   10 SM
   GS
      NP 455 545 M 475 545 L 475 565 L 455 565 L CP
      S
   GR
GR

% POLYGON/CLOSED-SPLINE
0 SG
NP
   295 640 M
   315 640 L
   305 660 L
CP
GS
GR
GS
   S
GR

% BOX
0 SG
GS
   10 SM
   GS
      NP 295 640 M 315 640 L 315 660 L 295 660 L CP
      S
   GR
GR

% POLYGON/CLOSED-SPLINE
0 SG
NP
   220 640 M
   240 640 L
   230 660 L
CP
GS
   1 SG EF
GR
GS
   EC NP
   pat7 8 8 216 632 32 32 TGPF
GR
GS
   S
GR

% BOX
0 SG
GS
   10 SM
   GS
      NP 220 640 M 240 640 L 240 660 L 220 660 L CP
      S
   GR
GR

% TEXT
NP
0 SG
   GS
      1 W
      290 630 M
      GS
            0 SG
            /Helvetica FF [12 0 0 -12 0 0] MS
            (RAM) SH
      GR
   GR

% TEXT
NP
0 SG
   GS
      1 W
      210 630 M
      GS
            0 SG
            /Helvetica FF [12 0 0 -12 0 0] MS
            (Debug) SH
      GR
   GR

% TEXT
NP
0 SG
   GS
      1 W
      435 580 M
      GS
            0 SG
            /Helvetica FF [12 0 0 -12 0 0] MS
            (Arg/Result-B) SH
      GR
   GR

% RCBOX
0 SG
GS
   GS
      NP
         784 440 M
         800 440 800 550 16 AR
         800 534 L
         800 550 660 550 16 AR
         676 550 L
         660 550 660 440 16 AR
         660 456 L
         660 440 800 440 16 AR
      CP
      2 W
      S
   GR
GR

% POLYGON/CLOSED-SPLINE
0 SG
NP
   720 420 M
   740 420 L
   730 440 L
CP
GS
   EF
GR
GS
   S
GR

% BOX
0 SG
GS
   10 SM
   GS
      NP 720 420 M 740 420 L 740 440 L 720 440 L CP
      S
   GR
GR

% TEXT
NP
0 SG
   GS
      1 W
      695 460 M
      GS
            0 SG
            /Helvetica FF [12 0 0 -12 0 0] MS
            (Arg/Result-C) SH
      GR
   GR

% RCBOX
0 SG
GS
   GS
      NP
         599 390 M
         615 390 615 745 16 AR
         615 729 L
         615 745 135 745 16 AR
         151 745 L
         135 745 135 390 16 AR
         135 406 L
         135 390 615 390 16 AR
      CP
      2 W
      S
   GR
GR

% TEXT
NP
0 SG
   GS
      1 W
      285 485 M
      GS
            0 SG
            /Helvetica FF [20 0 0 -20 0 0] MS
            (Child A logic) SH
      GR
   GR

% BOX
0 SG
GS
   10 SM
   GS
      NP 180 430 M 560 430 L 560 510 L 180 510 L CP
      [2 2] 0 SD
      S
   GR
GR

% POLYGON/CLOSED-SPLINE
0 SG
NP
   390 370 M
   410 370 L
   400 390 L
CP
GS
   EF
GR
GS
   S
GR

% BOX
0 SG
GS
   10 SM
   GS
      NP 390 370 M 410 370 L 410 390 L 390 390 L CP
      S
   GR
GR

% POLYGON/CLOSED-SPLINE
0 SG
NP
   575 390 M
   595 390 L
   585 370 L
CP
GS
   EF
GR
GS
   S
GR

% BOX
0 SG
GS
   10 SM
   GS
      NP 575 370 M 595 370 L 595 390 L 575 390 L CP
      S
   GR
GR

% POLY/OPEN-SPLINE
0 SG
GS
   NP
      265 490 M
      265 550 L
   TGSM
   2 W
   S
   1 W
GR

% POLY/OPEN-SPLINE
0 SG
GS
   NP
      465 490 M
      465 550 L
   TGSM
   2 W
   S
   1 W
GR

% POLY/OPEN-SPLINE
0 SG
GS
   NP
      400 305 M
      400 435 L
   TGSM
   2 W
   S
   1 W
GR

% POLY/OPEN-SPLINE
0 SG
GS
   NP
      530 510 M
      530 550 L
      585 550 L
      585 335 L
      730 335 L
      730 425 L
   TGSM
   2 W
   S
   1 W
GR

% BOX
0 SG
GS
   10 SM
   GS
      NP 540 890 M 750 890 L 750 945 L 540 945 L CP
      2 W
      S
   GR
GR

% TEXT
NP
0 SG
   GS
      1 W
      560 925 M
      GS
            0 SG
            /Helvetica FF [20 0 0 -20 0 0] MS
            (Server Blade DRAM) SH
      GR
   GR

% TEXT
NP
0 SG
   GS
      1 W
      335 910 M
      GS
        GS
        0
            /Helvetica FF [20 0 0 -20 0 0] MS
            (Server Blade ) TGSW 
        AD
        GR
      2 DI NE 0 RM
            0 SG
            /Helvetica FF [20 0 0 -20 0 0] MS
            (Server Blade ) SH
      GR
      0 22 RM
      GS
        GS
        0
            /Helvetica FF [20 0 0 -20 0 0] MS
            (Director PIO Stub) TGSW 
        AD
        GR
      2 DI NE 0 RM
            0 SG
            /Helvetica FF [20 0 0 -20 0 0] MS
            (Director PIO Stub) SH
      GR
   GR

% TEXT
NP
0 SG
   GS
      1 W
      390 245 M
      GS
            0 SG
            /Helvetica FF [20 0 0 -20 0 0] MS
            (Primary Application) SH
      GR
   GR

% RCBOX
0 SG
GS
   GS
      NP
         594 220 M
         610 220 610 295 16 AR
         610 279 L
         610 295 340 295 16 AR
         356 295 L
         340 295 340 220 16 AR
         340 236 L
         340 220 610 220 16 AR
      CP
      2 W
      S
   GR
GR

% POLYGON/CLOSED-SPLINE
0 SG
NP
   500 295 M
   520 295 L
   510 315 L
CP
GS
   1 SG EF
GR
GS
   EC NP
   pat7 8 8 496 288 32 32 TGPF
GR
GS
   S
GR

% BOX
0 SG
GS
   10 SM
   GS
      NP 500 295 M 520 295 L 520 315 L 500 315 L CP
      S
   GR
GR

% TEXT
NP
0 SG
   GS
      1 W
      510 270 M
      GS
        GS
        0
            /Helvetica FF [12 0 0 -12 0 0] MS
            (Start/Stop) TGSW 
        AD
        GR
      2 DI NE 0 RM
            0 SG
            /Helvetica FF [12 0 0 -12 0 0] MS
            (Start/Stop) SH
      GR
      0 15 RM
      GS
        GS
        0
            /Helvetica FF [12 0 0 -12 0 0] MS
            (and Debug) TGSW 
        AD
        GR
      2 DI NE 0 RM
            0 SG
            /Helvetica FF [12 0 0 -12 0 0] MS
            (and Debug) SH
      GR
   GR

% POLYGON/CLOSED-SPLINE
0 SG
NP
   390 295 M
   410 295 L
   400 315 L
CP
GS
   EF
GR
GS
   S
GR

% BOX
0 SG
GS
   10 SM
   GS
      NP 390 295 M 410 295 L 410 315 L 390 315 L CP
      S
   GR
GR

% TEXT
NP
0 SG
   GS
      1 W
      170 415 M
      GS
            0 SG
            /Helvetica FF [20 0 0 -20 0 0] MS
            (Child A instance) SH
      GR
   GR

% POLYGON/CLOSED-SPLINE
0 SG
NP
   635 870 M
   655 870 L
   645 890 L
CP
GS
GR
GS
   S
GR

% BOX
0 SG
GS
   10 SM
   GS
      NP 635 870 M 655 870 L 655 890 L 635 890 L CP
      S
   GR
GR

% POLYGON/CLOSED-SPLINE
0 SG
NP
   495 745 M
   515 745 L
   505 765 L
CP
GS
GR
GS
   S
GR

% BOX
0 SG
GS
   10 SM
   GS
      NP 495 745 M 515 745 L 515 765 L 495 765 L CP
      S
   GR
GR

% POLYGON/CLOSED-SPLINE
0 SG
NP
   160 745 M
   180 745 L
   170 765 L
CP
GS
   1 SG EF
GR
GS
   EC NP
   pat7 8 8 152 736 32 32 TGPF
GR
GS
   S
GR

% BOX
0 SG
GS
   10 SM
   GS
      NP 160 745 M 180 745 L 180 765 L 160 765 L CP
      S
   GR
GR

% BOX
0 SG
GS
   10 SM
   GS
      NP 255 890 M 425 890 L 425 940 L 255 940 L CP
      2 W
      S
   GR
GR

% POLYGON/CLOSED-SPLINE
0 SG
NP
   295 745 M
   315 745 L
   305 765 L
CP
GS
GR
GS
   S
GR

% BOX
0 SG
GS
   10 SM
   GS
      NP 295 745 M 315 745 L 315 765 L 295 765 L CP
      S
   GR
GR

% BOX
0 SG
GS
   10 SM
   GS
      NP 180 685 M 220 685 L 220 720 L 180 720 L CP
      S
   GR
GR

% POLY/OPEN-SPLINE
0 SG
GS
   NP
      189 690 M
      198 690 L
      207 715 L
      216 715 L
   TGSM
   1 W
   S
GR

% POLY/OPEN-SPLINE
0 SG
GS
   NP
      189 715 M
      198 715 L
      207 690 L
      216 690 L
   TGSM
   1 W
   S
GR

% POLYGON/CLOSED-SPLINE
0 SG
NP
   495 640 M
   515 640 L
   505 660 L
CP
GS
GR
GS
   S
GR

% BOX
0 SG
GS
   10 SM
   GS
      NP 495 640 M 515 640 L 515 660 L 495 660 L CP
      S
   GR
GR

% POLYGON/CLOSED-SPLINE
0 SG
NP
   420 640 M
   440 640 L
   430 660 L
CP
GS
   1 SG EF
GR
GS
   EC NP
   pat7 8 8 416 632 32 32 TGPF
GR
GS
   S
GR

% BOX
0 SG
GS
   10 SM
   GS
      NP 420 640 M 440 640 L 440 660 L 420 660 L CP
      S
   GR
GR

% TEXT
NP
0 SG
   GS
      1 W
      490 630 M
      GS
            0 SG
            /Helvetica FF [12 0 0 -12 0 0] MS
            (RAM) SH
      GR
   GR

% TEXT
NP
0 SG
   GS
      1 W
      410 630 M
      GS
            0 SG
            /Helvetica FF [12 0 0 -12 0 0] MS
            (Debug) SH
      GR
   GR

% POLYGON/CLOSED-SPLINE
0 SG
NP
   765 550 M
   785 550 L
   775 570 L
CP
GS
GR
GS
   S
GR

% BOX
0 SG
GS
   10 SM
   GS
      NP 765 550 M 785 550 L 785 570 L 765 570 L CP
      S
   GR
GR

% POLYGON/CLOSED-SPLINE
0 SG
NP
   690 550 M
   710 550 L
   700 570 L
CP
GS
   1 SG EF
GR
GS
   EC NP
   pat7 8 8 688 544 24 32 TGPF
GR
GS
   S
GR

% BOX
0 SG
GS
   10 SM
   GS
      NP 690 550 M 710 550 L 710 570 L 690 570 L CP
      S
   GR
GR

% TEXT
NP
0 SG
   GS
      1 W
      760 540 M
      GS
            0 SG
            /Helvetica FF [12 0 0 -12 0 0] MS
            (RAM) SH
      GR
   GR

% TEXT
NP
0 SG
   GS
      1 W
      680 540 M
      GS
            0 SG
            /Helvetica FF [12 0 0 -12 0 0] MS
            (Debug) SH
      GR
   GR

% POLY/OPEN-SPLINE
0 SG
GS
   NP
      305 660 M
      305 820 L
   TGSM
   2 W
   S
   1 W
GR

% POLY/OPEN-SPLINE
0 SG
GS
   NP
      505 660 M
      505 790 L
   TGSM
   2 W
   S
   1 W
GR

% POLY/OPEN-SPLINE
0 SG
GS
   NP
      230 660 M
      230 690 L
      220 690 L
   TGSM
   1 W
   S
GR

% POLY/OPEN-SPLINE
0 SG
GS
   NP
      430 660 M
      430 710 L
      420 715 L
      220 715 L
   TGSM
   1 W
   S
GR

% POLY/OPEN-SPLINE
0 SG
GS
   NP
      180 700 M
      170 700 L
      170 785 L
   TGSM
   1 W
   S
GR

% BOX
0 SG
GS
   10 SM
   GS
      NP 210 805 M 255 805 L 255 840 L 210 840 L CP
      S
   GR
GR

% POLY/OPEN-SPLINE
0 SG
GS
   NP
      220 810 M
      230 810 L
      240 835 L
      250 835 L
   TGSM
   1 W
   S
GR

% POLY/OPEN-SPLINE
0 SG
GS
   NP
      220 835 M
      230 835 L
      240 810 L
      250 810 L
   TGSM
   1 W
   S
GR

% BOX
0 SG
GS
   10 SM
   GS
      NP 565 815 M 610 815 L 610 870 L 565 870 L CP
      S
   GR
GR

% POLY/OPEN-SPLINE
0 SG
GS
   NP
      575 823 M
      585 823 L
      595 862 L
      605 862 L
   TGSM
   1 W
   S
GR

% POLY/OPEN-SPLINE
0 SG
GS
   NP
      575 862 M
      585 862 L
      595 823 L
      605 823 L
   TGSM
   1 W
   S
GR

% TEXT
NP
0 SG
   GS
      1 W
      375 285 M
      GS
            0 SG
            /Helvetica FF [12 0 0 -12 0 0] MS
            (Arg/Result-A) SH
      GR
   GR

% TEXT
NP
0 SG
   GS
      1 W
      370 455 M
      GS
            0 SG
            /Helvetica FF [12 0 0 -12 0 0] MS
            (Arg/Result-A) SH
      GR
   GR

% POLY/OPEN-SPLINE
0 SG
GS
   NP
      305 815 M
      305 840 L
      320 855 L
      565 855 L
   TGSM
   2 W
   S
   1 W
GR

% POLY/OPEN-SPLINE
0 SG
GS
   NP
      505 680 M
      505 830 L
      520 840 L
      565 840 L
   TGSM
   2 W
   S
   1 W
GR

% POLY/OPEN-SPLINE
0 SG
GS
   NP
      775 570 M
      775 780 L
      760 795 L
      545 795 L
      545 825 L
      565 825 L
   TGSM
   2 W
   S
   1 W
GR

% POLY/OPEN-SPLINE
0 SG
GS
   NP
      610 855 M
      645 855 L
      645 870 L
   TGSM
   2 W
   S
   1 W
GR

% POLYGON/CLOSED-SPLINE
0 SG
NP
   270 870 M
   290 870 L
   280 890 L
CP
GS
   1 SG EF
GR
GS
   EC NP
   pat7 8 8 264 864 32 32 TGPF
GR
GS
   S
GR

% BOX
0 SG
GS
   10 SM
   GS
      NP 270 870 M 290 870 L 290 890 L 270 890 L CP
      S
   GR
GR

% BOX
0 SG
GS
   10 SM
   GS
      NP 645 670 M 690 670 L 690 705 L 645 705 L CP
      S
   GR
GR

% POLY/OPEN-SPLINE
0 SG
GS
   NP
      655 675 M
      665 675 L
      675 700 L
      685 700 L
   TGSM
   1 W
   S
GR

% POLY/OPEN-SPLINE
0 SG
GS
   NP
      655 700 M
      665 700 L
      675 675 L
      685 675 L
   TGSM
   1 W
   S
GR

% POLY/OPEN-SPLINE
0 SG
GS
   NP
      700 570 M
      700 680 L
      690 680 L
   TGSM
   1 W
   S
GR

% POLYGON/CLOSED-SPLINE
0 SG
NP
   670 870 M
   690 870 L
   680 890 L
CP
GS
GR
GS
   S
GR

% BOX
0 SG
GS
   10 SM
   GS
      NP 670 870 M 690 870 L 690 890 L 670 890 L CP
      S
   GR
GR

% POLY/OPEN-SPLINE
0 SG
GS
   NP
      610 830 M
      680 830 L
      680 870 L
   TGSM
   2 W
   S
   1 W
GR

% TEXT
NP
0 SG
   GS
      1 W
      580 810 M
      GS
            0 SG
            /Helvetica FF [14 0 0 -14 0 0] MS
            (AXI-4 Switch) SH
      GR
   GR

% TEXT
NP
0 SG
   GS
      1 W
      170 860 M
      GS
            0 SG
            /Helvetica FF [14 0 0 -14 0 0] MS
            (Directorate Mux) SH
      GR
   GR

% POLY/OPEN-SPLINE
0 SG
GS
   NP
      510 315 M
      510 340 L
      520 350 L
      630 350 L
      645 365 L
      645 640 L
      670 640 L
   TGSM
   1 W
   S
GR

% POLY/OPEN-SPLINE
0 SG
GS
   NP
      645 640 M
      715 640 L
      715 695 L
      690 695 L
   TGSM
   1 W
   S
GR

% POLY/OPEN-SPLINE
0 SG
GS
   NP
      645 700 M
      635 700 L
      625 775 L
      190 800 L
      190 815 L
      210 815 L
   TGSM
   1 W
   S
GR

% POLY/OPEN-SPLINE
0 SG
GS
   NP
      210 835 M
      170 835 L
      170 785 L
   TGSM
   1 W
   S
GR

% POLY/OPEN-SPLINE
0 SG
GS
   NP
      255 830 M
      280 830 L
      280 870 L
   TGSM
   1 W
   S
GR

% TEXT
NP
0 SG
   GS
      1 W
      650 735 M
      GS
            0 SG
            /Helvetica FF [14 0 0 -14 0 0] MS
            (Directorate Mux) SH
      GR
   GR

% POLY/OPEN-SPLINE
0 SG
GS
   NP
      195 920 M
      0 60 atan DU cos 12.000 MU exch sin 12.000 MU RM
      0 60 atan DU cos 12.000 MU 255 exch SU
      exch sin 12.000 MU 920 exch SU L
   TGSM
   3 W
   S
   1 W
GR
GS
   TGSM
   NP
      195 920 12.000 5.000 -60 0 TGAT
   1 SG CP F
   0 SG
   NP
      195 920 12.000 5.000 -60 0 TGAT
   CP F
GR
GS
   TGSM
   NP
      255 920 12.000 5.000 60 0 TGAT
   1 SG CP F
   0 SG
   NP
      255 920 12.000 5.000 60 0 TGAT
   CP F
GR

% TEXT
NP
0 SG
   GS
      1 W
      185 915 M
      GS
        GS
        0
            /Helvetica FF [14 0 0 -14 0 0] MS
            (Read/Write) TGSW 
        AD
        GR
      NE 0 RM
            0 SG
            /Helvetica FF [14 0 0 -14 0 0] MS
            (Read/Write) SH
      GR
      0 17 RM
      GS
        GS
        0
            /Helvetica FF [14 0 0 -14 0 0] MS
            (access local host.) TGSW 
        AD
        GR
      NE 0 RM
            0 SG
            /Helvetica FF [14 0 0 -14 0 0] MS
            (access local host.) SH
      GR
   GR

% TEXT
NP
0 SG
   GS
      1 W
      140 265 M
      GS
            0 SG
            /Helvetica FF [17 0 0 -17 0 0] MS
            (Primary A/S Interface) SH
      GR
   GR

% TEXT
NP
0 SG
   GS
      1 W
      140 305 M
      GS
            0 SG
            /Helvetica FF [17 0 0 -17 0 0] MS
            (Service Interface) SH
      GR
   GR

% TEXT
NP
0 SG
   GS
      1 W
      140 345 M
      GS
            0 SG
            /Helvetica FF [17 0 0 -17 0 0] MS
            (Directing Interface) SH
      GR
   GR

% POLYGON/CLOSED-SPLINE
0 SG
NP
   105 250 M
   125 250 L
   115 270 L
CP
GS
   EF
GR
GS
   S
GR

% BOX
0 SG
GS
   10 SM
   GS
      NP 105 250 M 125 250 L 125 270 L 105 270 L CP
      S
   GR
GR

% POLYGON/CLOSED-SPLINE
0 SG
NP
   105 290 M
   125 290 L
   115 310 L
CP
GS
GR
GS
   S
GR

% BOX
0 SG
GS
   10 SM
   GS
      NP 105 290 M 125 290 L 125 310 L 105 310 L CP
      S
   GR
GR

% POLYGON/CLOSED-SPLINE
0 SG
NP
   105 330 M
   125 330 L
   115 350 L
CP
GS
   1 SG EF
GR
GS
   EC NP
   pat7 8 8 96 328 32 24 TGPF
GR
GS
   S
GR

% BOX
0 SG
GS
   10 SM
   GS
      NP 105 330 M 125 330 L 125 350 L 105 350 L CP
      S
   GR
GR

% TEXT
NP
0 SG
   GS
      1 W
      105 235 M
      GS
            0 SG
            /Helvetica FF [17 0 0 -17 0 0] MS
            (Key) SH
      GR
   GR

% TEXT
NP
0 SG
   GS
      1 W
      795 520 M
      GS
        GS
        0
            /Helvetica FF [14 0 0 -14 0 0] MS
            (\(External instatiation\)) TGSW 
        AD
        GR
      NE 0 RM
            0 SG
            /Helvetica FF [14 0 0 -14 0 0] MS
            (\(External instatiation\)) SH
      GR
   GR

% TEXT
NP
0 SG
   GS
      1 W
      370 540 M
      GS
        GS
        0
            /Helvetica FF [14 0 0 -14 0 0] MS
            (Internal) TGSW 
        AD
        GR
      2 DI NE 0 RM
            0 SG
            /Helvetica FF [14 0 0 -14 0 0] MS
            (Internal) SH
      GR
      0 17 RM
      GS
        GS
        0
            /Helvetica FF [14 0 0 -14 0 0] MS
            (instantiations) TGSW 
        AD
        GR
      2 DI NE 0 RM
            0 SG
            /Helvetica FF [14 0 0 -14 0 0] MS
            (instantiations) SH
      GR
   GR

% BOX
0 SG
GS
   10 SM
   GS
      NP 80 215 M 305 215 L 305 360 L 80 360 L CP
      [2 2] 0 SD
      S
   GR
GR

% TEXT
NP
0 SG
   GS
      1 W
      70 85 M
      GS
            0 SG
            /Helvetica FF [20 0 0 -20 0 0] MS
            (Kiwi Scientific Acceleration) SH
      GR
   GR

% TEXT
NP
0 SG
   GS
      1 W
      70 115 M
      GS
            0 SG
            /Helvetica FF [20 0 0 -20 0 0] MS
            (Incremental Compilation Typical Structure - Single FPGA Design) SH
      GR
   GR

% TEXT
NP
0 SG
   GS
      1 W
      70 150 M
      GS
            0 SG
            /Helvetica FF [20 0 0 -20 0 0] MS
            (University of Cambridge Computer Laboratory) SH
      GR
   GR

% RCBOX
0 SG
GS
   GS
      NP
         834 55 M
         850 55 850 1045 16 AR
         850 1029 L
         850 1045 50 1045 16 AR
         66 1045 L
         50 1045 50 55 16 AR
         50 71 L
         50 55 850 55 16 AR
      CP
      S
   GR
GR

GR
tgifsavedpage restore
end
showpage

%%Trailer
%MatchingCreationDate: Tue May  2 16:43:00 2017
%%DocumentFonts: Helvetica
%%EOF
