%!PS-Adobe-3.0 EPSF-3.0
%%BoundingBox: 86 531 427 759
%%Title: fsmgen
%%CreationDate: Tue Mar 27 09:01:49 2018
%%Creator: Tgif-4.2.5-QPL written by William Chia-Wei Cheng (bill.cheng@acm.org)
%%ProducedBy: (unknown)
%%Pages: 1
%%DocumentFonts: (atend)
%%EndComments
%%BeginProlog

/tgifdict 56 dict def
tgifdict begin

/tgifellipsedict 6 dict def
tgifellipsedict /mtrx matrix put

/TGEL % tgifellipse
 { tgifellipsedict begin
      /yrad exch def
      /xrad exch def
      /y exch def
      /x exch def
      /savematrix mtrx currentmatrix def
      x y translate
      xrad yrad scale
      0 0 1 0 360 arc
      savematrix setmatrix
   end
 } def

/tgifarrowtipdict 8 dict def
tgifarrowtipdict /mtrx matrix put

/TGAT % tgifarrowtip
 { tgifarrowtipdict begin
      /dy exch def
      /dx exch def
      /h exch def
      /w exch def
      /y exch def
      /x exch def
      /savematrix mtrx currentmatrix def
      x y translate
      dy dx atan rotate
      0 0 moveto
      w neg h lineto
      w neg h neg lineto
      savematrix setmatrix
   end
 } def

/TGMAX
 { exch dup 3 1 roll exch dup 3 1 roll gt { pop } { exch pop } ifelse
 } def
/TGMIN
 { exch dup 3 1 roll exch dup 3 1 roll lt { pop } { exch pop } ifelse
 } def
/TGSW { stringwidth pop } def
/tgifstrw 0 def

/bd { bind def } bind def

/GS { gsave } bd
/GR { grestore } bd
/NP { newpath } bd
/CP { closepath } bd
/CHP { charpath } bd
/CT { curveto } bd
/L { lineto } bd
/RL { rlineto } bd
/M { moveto } bd
/RM { rmoveto } bd
/S { stroke } bd
/F { fill } bd
/TR { translate } bd
/RO { rotate } bd
/SC { scale } bd
/MU { mul } bd
/DI { div } bd
/DU { dup } bd
/NE { neg } bd
/AD { add } bd
/SU { sub } bd
/PO { pop } bd
/EX { exch } bd
/CO { concat } bd
/CL { clip } bd
/EC { eoclip } bd
/EF { eofill } bd
/IM { image } bd
/IMM { imagemask } bd
/ARY { array } bd
/SG { setgray } bd
/RG { setrgbcolor } bd
/SD { setdash } bd
/W { setlinewidth } bd
/SM { setmiterlimit } bd
/SLC { setlinecap } bd
/SLJ { setlinejoin } bd
/SH { show } bd
/FF { findfont } bd
/MS { makefont setfont } bd
/AR { arcto 4 {pop} repeat } bd
/CURP { currentpoint } bd
/FLAT { flattenpath strokepath clip newpath } bd
/TGSM { tgiforigctm setmatrix } def
/TGRM { savematrix setmatrix } def

end

%%EndProlog
%%Page: 1 1

%%PageBoundingBox: 86 531 427 759
tgifdict begin
/tgifsavedpage save def

1 SM
1 W

0 SG

72 0 MU 72 11 MU TR
72 128 DI 100.000 MU 100 DI DU NE SC

GS

/tgiforigctm matrix currentmatrix def

% OVAL
0 SG
GS
   GS
      NP 220 92 32 32 TGEL
      S
   GR
GR

% POLY/OPEN-SPLINE
0 SG
GS
   NP
      220 128 M
      56 0 atan DU cos 8.000 MU 220 exch SU
      exch sin 8.000 MU 184 exch SU L
   TGSM
   1 W
   S
GR
GS
   TGSM
   NP
      220 184 8.000 3.000 0 56 TGAT
   1 SG CP F
   0 SG
   NP
      220 184 8.000 3.000 0 56 TGAT
   CP F
GR

% TEXT
NP
0 SG
   GS
      1 W
      440 100 M
      GS
        GS
        0
            /Helvetica FF [11 0 0 -11 0 0] MS
            (-ubudget n) TGSW 
        AD
        GR
      2 DI NE 0 RM
            0 SG
            /Helvetica FF [11 0 0 -11 0 0] MS
            (-ubudget n) SH
      GR
   GR

% OVAL
0 SG
GS
   GS
      NP 440 96 32 32 TGEL
      S
   GR
GR

% POLY/OPEN-SPLINE
0 SG
GS
   NP
      440 232 M
      92 0 atan DU cos 8.000 MU 440 exch SU
      exch sin 8.000 MU 324 exch SU L
   TGSM
   1 W
   S
GR
GS
   TGSM
   NP
      440 324 8.000 3.000 0 92 TGAT
   1 SG CP F
   0 SG
   NP
      440 324 8.000 3.000 0 92 TGAT
   CP F
GR

% TEXT
NP
0 SG
   GS
      1 W
      684 424 M
      GS
        GS
        0
            /Helvetica FF [11 0 0 -11 0 0] MS
            (HPR) TGSW 
        AD
        GR
      2 DI NE 0 RM
            0 SG
            /Helvetica FF [11 0 0 -11 0 0] MS
            (HPR) SH
      GR
      0 13 RM
      GS
        GS
        0
            /Helvetica FF [11 0 0 -11 0 0] MS
            (Machine) TGSW 
        AD
        GR
      2 DI NE 0 RM
            0 SG
            /Helvetica FF [11 0 0 -11 0 0] MS
            (Machine) SH
      GR
   GR

% OVAL
0 SG
GS
   GS
      NP 684 428 32 32 TGEL
      S
   GR
GR

% TEXT
NP
0 SG
   GS
      1 W
      220 88 M
      GS
        GS
        0
            /Helvetica FF [11 0 0 -11 0 0] MS
            (HPR) TGSW 
        AD
        GR
      2 DI NE 0 RM
            0 SG
            /Helvetica FF [11 0 0 -11 0 0] MS
            (HPR) SH
      GR
      0 13 RM
      GS
        GS
        0
            /Helvetica FF [11 0 0 -11 0 0] MS
            (Machine\(s\)) TGSW 
        AD
        GR
      2 DI NE 0 RM
            0 SG
            /Helvetica FF [11 0 0 -11 0 0] MS
            (Machine\(s\)) SH
      GR
   GR

% POLY/OPEN-SPLINE
0 SG
GS
   NP
      528 360 M
      628 360 L
      628 388 L
      528 388 L
   TGSM
   1 W
   S
GR

% POLY/OPEN-SPLINE
0 SG
GS
   NP
      604 360 M
      604 388 L
   TGSM
   1 W
   S
GR

% POLY/OPEN-SPLINE
0 SG
GS
   NP
      580 360 M
      580 388 L
   TGSM
   1 W
   S
GR

% POLY/OPEN-SPLINE
0 SG
GS
   NP
      548 360 M
      548 388 L
   TGSM
   1 W
   S
GR

% TEXT
NP
0 SG
   GS
      1 W
      584 408 M
      GS
        GS
        0
            /Helvetica FF [14 0 0 -14 0 0] MS
            (Output queue with) TGSW 
        AD
        GR
      2 DI NE 0 RM
            0 SG
            /Helvetica FF [14 0 0 -14 0 0] MS
            (Output queue with) SH
      GR
      0 17 RM
      GS
        GS
        0
            /Helvetica FF [14 0 0 -14 0 0] MS
            (rollback checkpoints) TGSW 
        AD
        GR
      2 DI NE 0 RM
            0 SG
            /Helvetica FF [14 0 0 -14 0 0] MS
            (rollback checkpoints) SH
      GR
   GR

% TEXT
NP
0 SG
   GS
      1 W
      472 192 M
      GS
            0 SG
            /Helvetica FF [14 0 0 -14 0 0] MS
            (\(pc, address, [ e1/v2, e2/v2, ... ]\) list) SH
      GR
   GR

% TEXT
NP
0 SG
   GS
      1 W
      496 172 M
      GS
            0 SG
            /Helvetica FF [14 0 0 -14 0 0] MS
            (Pending activation queue) SH
      GR
   GR

% POLYGON/CLOSED-SPLINE
0 SG
NP
   212 256 M
   196 264 L
   212 272 L
   228 264 L
CP
GS
GR
GS
   S
GR

% POLY/OPEN-SPLINE
0 SG
GS
   NP
      212 236 M
      212 256 L
   TGSM
   1 W
   S
GR

% POLY/OPEN-SPLINE
0 SG
GS
   NP
      196 264 M
      184 264 L
      184 280 L
   TGSM
   1 W
   S
GR

% BOX
0 SG
GS
   10 SM
   GS
      NP 176 280 M 196 280 L 196 296 L 176 296 L CP
      S
   GR
GR

% BOX
0 SG
GS
   10 SM
   GS
      NP 204 220 M 224 220 L 224 236 L 204 236 L CP
      S
   GR
GR

% POLY/OPEN-SPLINE
0 SG
GS
   NP
      228 264 M
      236 264 L
      236 324 L
   TGSM
   1 W
   S
GR

% POLY/OPEN-SPLINE
0 SG
GS
   NP
      184 296 M
      184 304 L
      0 52 atan DU cos 8.000 MU 236 exch SU
      exch sin 8.000 MU 304 exch SU L
   TGSM
   1 W
   S
GR
GS
   TGSM
   NP
      236 304 8.000 3.000 52 0 TGAT
   1 SG CP F
   0 SG
   NP
      236 304 8.000 3.000 52 0 TGAT
   CP F
GR

% BOX
0 SG
GS
   10 SM
   GS
      NP 228 324 M 248 324 L 248 340 L 228 340 L CP
      S
   GR
GR

% POLYGON/CLOSED-SPLINE
0 SG
NP
   240 360 M
   224 368 L
   240 376 L
   256 368 L
CP
GS
GR
GS
   S
GR

% POLY/OPEN-SPLINE
0 SG
GS
   NP
      212 192 M
      212 220 L
   TGSM
   1 W
   S
GR

% POLY/OPEN-SPLINE
0 SG
GS
   NP
      256 368 M
      264 368 L
      264 204 L
      0 -52 atan DU cos 8.000 MU 212 exch SU
      exch sin 8.000 MU 204 exch SU L
   TGSM
   1 W
   S
GR
GS
   TGSM
   NP
      212 204 8.000 3.000 -52 0 TGAT
   1 SG CP F
   0 SG
   NP
      212 204 8.000 3.000 -52 0 TGAT
   CP F
GR

% POLY/OPEN-SPLINE
0 SG
GS
   NP
      224 368 M
      0 -20 atan DU cos 8.000 MU 204 exch SU
      exch sin 8.000 MU 368 exch SU L
   TGSM
   1 W
   S
GR
GS
   TGSM
   NP
      204 368 8.000 3.000 -20 0 TGAT
   1 SG CP F
   0 SG
   NP
      204 368 8.000 3.000 -20 0 TGAT
   CP F
GR

% POLY/OPEN-SPLINE
0 SG
GS
   NP
      240 340 M
      240 360 L
   TGSM
   1 W
   S
GR

% TEXT
NP
0 SG
   GS
      1 W
      184 204 M
      GS
        GS
        0
            /Helvetica FF [12 0 0 -12 0 0] MS
            (Input) TGSW 
        AD
        GR
      2 DI NE 0 RM
            0 SG
            /Helvetica FF [12 0 0 -12 0 0] MS
            (Input) SH
      GR
      0 15 RM
      GS
        GS
        0
            /Helvetica FF [12 0 0 -12 0 0] MS
            (program) TGSW 
        AD
        GR
      2 DI NE 0 RM
            0 SG
            /Helvetica FF [12 0 0 -12 0 0] MS
            (program) SH
      GR
   GR

% BOX
0 SG
GS
   10 SM
   GS
      NP 156 188 M 288 188 L 288 388 L 156 388 L CP
      [2 2] 0 SD
      S
   GR
GR

% POLY/OPEN-SPLINE
0 SG
GS
   NP
      488 196 M
      488 232 L
      652 232 L
   TGSM
   1 W
   S
GR

% POLY/OPEN-SPLINE
0 SG
GS
   NP
      488 196 M
      652 196 L
   TGSM
   1 W
   S
GR

% POLY/OPEN-SPLINE
0 SG
GS
   NP
      520 196 M
      520 232 L
   TGSM
   1 W
   S
GR

% POLY/OPEN-SPLINE
0 SG
GS
   NP
      568 196 M
      568 232 L
   TGSM
   1 W
   S
GR

% POLY/OPEN-SPLINE
0 SG
GS
   NP
      608 196 M
      608 232 L
   TGSM
   1 W
   S
GR

% TEXT
NP
0 SG
   GS
      1 W
      344 288 M
      GS
        GS
        0
            /Helvetica FF [12 0 0 -12 0 0] MS
            (Symbolic) TGSW 
        AD
        GR
      2 DI NE 0 RM
            0 SG
            /Helvetica FF [12 0 0 -12 0 0] MS
            (Symbolic) SH
      GR
      0 15 RM
      GS
        GS
        0
            /Helvetica FF [12 0 0 -12 0 0] MS
            (simulator) TGSW 
        AD
        GR
      2 DI NE 0 RM
            0 SG
            /Helvetica FF [12 0 0 -12 0 0] MS
            (simulator) SH
      GR
   GR

% BOX
0 SG
GS
   10 SM
   GS
      NP 316 268 M 376 268 L 376 312 L 316 312 L CP
      S
   GR
GR

% POLY/OPEN-SPLINE
0 SG
GS
   NP
      288 288 M
      0 28 atan DU cos 8.000 MU exch sin 8.000 MU RM
      0 28 atan DU cos 8.000 MU 316 exch SU
      exch sin 8.000 MU 288 exch SU L
   TGSM
   1 W
   S
GR
GS
   TGSM
   NP
      288 288 8.000 3.000 -28 0 TGAT
   1 SG CP F
   0 SG
   NP
      288 288 8.000 3.000 -28 0 TGAT
   CP F
GR
GS
   TGSM
   NP
      316 288 8.000 3.000 28 0 TGAT
   1 SG CP F
   0 SG
   NP
      316 288 8.000 3.000 28 0 TGAT
   CP F
GR

% POLY/OPEN-SPLINE
0 SG
GS
   NP
      488 216 M
      360 216 L
      52 0 atan DU cos 8.000 MU 360 exch SU
      exch sin 8.000 MU 268 exch SU L
   TGSM
   1 W
   S
GR
GS
   TGSM
   NP
      360 268 8.000 3.000 0 52 TGAT
   1 SG CP F
   0 SG
   NP
      360 268 8.000 3.000 0 52 TGAT
   CP F
GR

% TEXT
NP
0 SG
   GS
      1 W
      380 212 M
      GS
        GS
        0
            /Helvetica FF [14 0 0 -14 0 0] MS
            (Input Activation) TGSW 
        AD
        GR
      2 DI NE 0 RM
            0 SG
            /Helvetica FF [14 0 0 -14 0 0] MS
            (Input Activation) SH
      GR
   GR

% POLY/OPEN-SPLINE
0 SG
GS
   NP
      708 132 M
      708 208 L
      0 -80 atan DU cos 8.000 MU 628 exch SU
      exch sin 8.000 MU 208 exch SU L
   TGSM
   1 W
   S
GR
GS
   TGSM
   NP
      628 208 8.000 3.000 -80 0 TGAT
   1 SG CP F
   0 SG
   NP
      628 208 8.000 3.000 -80 0 TGAT
   CP F
GR

% TEXT
NP
0 SG
   GS
      1 W
      708 112 M
      GS
        GS
        0
            /Helvetica FF [14 0 0 -14 0 0] MS
            (Entry point) TGSW 
        AD
        GR
      2 DI NE 0 RM
            0 SG
            /Helvetica FF [14 0 0 -14 0 0] MS
            (Entry point) SH
      GR
      0 17 RM
      GS
        GS
        0
            /Helvetica FF [14 0 0 -14 0 0] MS
            (for each thread) TGSW 
        AD
        GR
      2 DI NE 0 RM
            0 SG
            /Helvetica FF [14 0 0 -14 0 0] MS
            (for each thread) SH
      GR
   GR

% POLY/OPEN-SPLINE
0 SG
GS
   NP
      360 312 M
      360 344 L
      0 44 atan DU cos 14.000 MU 404 exch SU
      exch sin 14.000 MU 344 exch SU L
   TGSM
   4 W
   S
   1 W
GR
GS
   TGSM
   NP
      404 344 14.000 6.000 44 0 TGAT
   1 SG CP F
   0 SG
   NP
      404 344 14.000 6.000 44 0 TGAT
   CP F
GR

% TEXT
NP
0 SG
   GS
      1 W
      348 360 M
      GS
        GS
        0
            /Helvetica FF [12 0 0 -12 0 0] MS
            (0, 1, or 2) TGSW 
        AD
        GR
      2 DI NE 0 RM
            0 SG
            /Helvetica FF [12 0 0 -12 0 0] MS
            (0, 1, or 2) SH
      GR
      0 15 RM
      GS
        GS
        0
            /Helvetica FF [12 0 0 -12 0 0] MS
            (output activations) TGSW 
        AD
        GR
      2 DI NE 0 RM
            0 SG
            /Helvetica FF [12 0 0 -12 0 0] MS
            (output activations) SH
      GR
   GR

% BOX
0 SG
GS
   10 SM
   GS
      NP 404 328 M 476 328 L 476 392 L 404 392 L CP
      S
   GR
GR

% TEXT
NP
0 SG
   GS
      1 W
      440 344 M
      GS
        GS
        0
            /Helvetica FF [12 0 0 -12 0 0] MS
            (Blocking) TGSW 
        AD
        GR
      2 DI NE 0 RM
            0 SG
            /Helvetica FF [12 0 0 -12 0 0] MS
            (Blocking) SH
      GR
      0 15 RM
      GS
        GS
        0
            /Helvetica FF [12 0 0 -12 0 0] MS
            (activation or) TGSW 
        AD
        GR
      2 DI NE 0 RM
            0 SG
            /Helvetica FF [12 0 0 -12 0 0] MS
            (activation or) SH
      GR
      0 15 RM
      GS
        GS
        0
            /Helvetica FF [12 0 0 -12 0 0] MS
            (budget) TGSW 
        AD
        GR
      2 DI NE 0 RM
            0 SG
            /Helvetica FF [12 0 0 -12 0 0] MS
            (budget) SH
      GR
      0 15 RM
      GS
        GS
        0
            /Helvetica FF [12 0 0 -12 0 0] MS
            (consumed ?) TGSW 
        AD
        GR
      2 DI NE 0 RM
            0 SG
            /Helvetica FF [12 0 0 -12 0 0] MS
            (consumed ?) SH
      GR
   GR

% POLY/OPEN-SPLINE
0 SG
GS
   NP
      476 376 M
      0 64 atan DU cos 12.000 MU 540 exch SU
      exch sin 12.000 MU 376 exch SU L
   TGSM
   3 W
   S
   1 W
GR
GS
   TGSM
   NP
      540 376 12.000 5.000 64 0 TGAT
   1 SG CP F
   0 SG
   NP
      540 376 12.000 5.000 64 0 TGAT
   CP F
GR

% POLY/OPEN-SPLINE
0 SG
GS
   NP
      628 376 M
      684 376 L
      20 0 atan DU cos 8.000 MU 684 exch SU
      exch sin 8.000 MU 396 exch SU L
   TGSM
   1 W
   S
GR
GS
   TGSM
   NP
      684 396 8.000 3.000 0 20 TGAT
   1 SG CP F
   0 SG
   NP
      684 396 8.000 3.000 0 20 TGAT
   CP F
GR

% POLY/OPEN-SPLINE
0 SG
GS
   NP
      652 324 M
      708 324 L
      708 220 L
      0 -80 atan DU cos 12.000 MU 628 exch SU
      exch sin 12.000 MU 220 exch SU L
   TGSM
   3 W
   S
   1 W
GR
GS
   TGSM
   NP
      628 220 12.000 5.000 -80 0 TGAT
   1 SG CP F
   0 SG
   NP
      628 220 12.000 5.000 -80 0 TGAT
   CP F
GR

% POLY/OPEN-SPLINE
0 SG
GS
   NP
      488 276 M
      488 300 L
      652 300 L
   TGSM
   1 W
   S
GR

% POLY/OPEN-SPLINE
0 SG
GS
   NP
      488 276 M
      652 276 L
   TGSM
   1 W
   S
GR

% POLY/OPEN-SPLINE
0 SG
GS
   NP
      520 276 M
      520 300 L
   TGSM
   1 W
   S
GR

% POLY/OPEN-SPLINE
0 SG
GS
   NP
      568 276 M
      568 300 L
   TGSM
   1 W
   S
GR

% POLY/OPEN-SPLINE
0 SG
GS
   NP
      608 276 M
      608 300 L
   TGSM
   1 W
   S
GR

% POLY/OPEN-SPLINE
0 SG
GS
   NP
      464 216 M
      464 252 L
      680 252 L
      680 288 L
      0 -64 atan DU cos 8.000 MU 616 exch SU
      exch sin 8.000 MU 288 exch SU L
   TGSM
   1 W
   S
GR
GS
   TGSM
   NP
      616 288 8.000 3.000 -64 0 TGAT
   1 SG CP F
   0 SG
   NP
      616 288 8.000 3.000 -64 0 TGAT
   CP F
GR

% TEXT
NP
0 SG
   GS
      1 W
      500 268 M
      GS
            0 SG
            /Helvetica FF [14 0 0 -14 0 0] MS
            (Completed activation list) SH
      GR
   GR

% TEXT
NP
0 SG
   GS
      1 W
      400 96 M
      GS
        GS
        0
            /Helvetica FF [14 0 0 -14 0 0] MS
            (Unwind) TGSW 
        AD
        GR
      NE 0 RM
            0 SG
            /Helvetica FF [14 0 0 -14 0 0] MS
            (Unwind) SH
      GR
      0 17 RM
      GS
        GS
        0
            /Helvetica FF [14 0 0 -14 0 0] MS
            (budget) TGSW 
        AD
        GR
      NE 0 RM
            0 SG
            /Helvetica FF [14 0 0 -14 0 0] MS
            (budget) SH
      GR
   GR

% BOX
0 SG
GS
   10 SM
   GS
      NP 540 320 M 652 320 L 652 352 L 540 352 L CP
      S
   GR
GR

% POLY/OPEN-SPLINE
0 SG
GS
   NP
      476 336 M
      0 64 atan DU cos 12.000 MU 540 exch SU
      exch sin 12.000 MU 336 exch SU L
   TGSM
   3 W
   S
   1 W
GR
GS
   TGSM
   NP
      540 336 12.000 5.000 64 0 TGAT
   1 SG CP F
   0 SG
   NP
      540 336 12.000 5.000 64 0 TGAT
   CP F
GR

% TEXT
NP
0 SG
   GS
      1 W
      596 332 M
      GS
        GS
        0
            /Helvetica FF [12 0 0 -12 0 0] MS
            (Already processed ) TGSW 
        AD
        GR
      2 DI NE 0 RM
            0 SG
            /Helvetica FF [12 0 0 -12 0 0] MS
            (Already processed ) SH
      GR
      0 15 RM
      GS
        GS
        0
            /Helvetica FF [12 0 0 -12 0 0] MS
            (checker ?) TGSW 
        AD
        GR
      2 DI NE 0 RM
            0 SG
            /Helvetica FF [12 0 0 -12 0 0] MS
            (checker ?) SH
      GR
   GR

% POLY/OPEN-SPLINE
0 SG
GS
   NP
      652 344 M
      0 28 atan DU cos 12.000 MU 680 exch SU
      exch sin 12.000 MU 344 exch SU L
   TGSM
   3 W
   S
   1 W
GR
GS
   TGSM
   NP
      680 344 12.000 5.000 28 0 TGAT
   1 SG CP F
   0 SG
   NP
      680 344 12.000 5.000 28 0 TGAT
   CP F
GR

% TEXT
NP
0 SG
   GS
      1 W
      708 348 M
      GS
        GS
        0
            /Helvetica FF [14 0 0 -14 0 0] MS
            (Discard) TGSW 
        AD
        GR
      2 DI NE 0 RM
            0 SG
            /Helvetica FF [14 0 0 -14 0 0] MS
            (Discard) SH
      GR
   GR

% POLY/OPEN-SPLINE
0 SG
GS
   [2 2] 0 SD
   NP
      512 300 M
      20 44 atan DU cos 8.000 MU 556 exch SU
      exch sin 8.000 MU 320 exch SU L
   TGSM
   1 W
   S
   [] 0 SD
GR
GS
   TGSM
   NP
      556 320 8.000 3.000 44 20 TGAT
   1 SG CP F
   0 SG
   NP
      556 320 8.000 3.000 44 20 TGAT
   CP F
GR

% POLY/OPEN-SPLINE
0 SG
GS
   [2 2] 0 SD
   NP
      644 300 M
      20 -24 atan DU cos 8.000 MU 620 exch SU
      exch sin 8.000 MU 320 exch SU L
   TGSM
   1 W
   S
   [] 0 SD
GR
GS
   TGSM
   NP
      620 320 8.000 3.000 -24 20 TGAT
   1 SG CP F
   0 SG
   NP
      620 320 8.000 3.000 -24 20 TGAT
   CP F
GR

% TEXT
NP
0 SG
   GS
      1 W
      496 372 M
      GS
        GS
        0
            /Helvetica FF [14 0 0 -14 0 0] MS
            (yes) TGSW 
        AD
        GR
      2 DI NE 0 RM
            0 SG
            /Helvetica FF [14 0 0 -14 0 0] MS
            (yes) SH
      GR
   GR

% TEXT
NP
0 SG
   GS
      1 W
      496 332 M
      GS
        GS
        0
            /Helvetica FF [14 0 0 -14 0 0] MS
            (no) TGSW 
        AD
        GR
      2 DI NE 0 RM
            0 SG
            /Helvetica FF [14 0 0 -14 0 0] MS
            (no) SH
      GR
   GR

% TEXT
NP
0 SG
   GS
      1 W
      668 320 M
      GS
        GS
        0
            /Helvetica FF [12 0 0 -12 0 0] MS
            (no) TGSW 
        AD
        GR
      2 DI NE 0 RM
            0 SG
            /Helvetica FF [12 0 0 -12 0 0] MS
            (no) SH
      GR
   GR

% TEXT
NP
0 SG
   GS
      1 W
      664 356 M
      GS
        GS
        0
            /Helvetica FF [12 0 0 -12 0 0] MS
            (yes) TGSW 
        AD
        GR
      2 DI NE 0 RM
            0 SG
            /Helvetica FF [12 0 0 -12 0 0] MS
            (yes) SH
      GR
   GR

% POLY/OPEN-SPLINE
0 SG
GS
   NP
      440 128 M
      440 192 L
   TGSM
   1 W
   S
GR

% POLY/OPEN-SPLINE
0 SG
GS
   [2 2] 0 SD
   NP
      440 176 M
      440 268 L
   TGSM
   1 W
   S
   [] 0 SD
GR

% OVAL
0 SG
NP 464 216 2 2 TGEL F
GS
   GS
      NP 464 216 2 2 TGEL
      S
   GR
GR

GR
tgifsavedpage restore
end
showpage

%%Trailer
%MatchingCreationDate: Tue Mar 27 09:01:49 2018
%%DocumentFonts: Helvetica
%%EOF
