%!PS-Adobe-3.0 EPSF-3.0
%%BoundingBox: 23 361 586 708
%%Title: ksi-bridges
%%CreationDate: Wed May 31 14:06:01 2017
%%Creator: Tgif-4.2.5-QPL written by William Chia-Wei Cheng (bill.cheng@acm.org)
%%ProducedBy: (unknown)
%%Pages: 1
%%DocumentFonts: (atend)
%%EndComments
%%BeginProlog

/tgifdict 54 dict def
tgifdict begin

/tgifarrowtipdict 8 dict def
tgifarrowtipdict /mtrx matrix put

/TGAT % tgifarrowtip
 { tgifarrowtipdict begin
      /dy exch def
      /dx exch def
      /h exch def
      /w exch def
      /y exch def
      /x exch def
      /savematrix mtrx currentmatrix def
      x y translate
      dy dx atan rotate
      0 0 moveto
      w neg h lineto
      w neg h neg lineto
      savematrix setmatrix
   end
 } def

/TGMAX
 { exch dup 3 1 roll exch dup 3 1 roll gt { pop } { exch pop } ifelse
 } def
/TGMIN
 { exch dup 3 1 roll exch dup 3 1 roll lt { pop } { exch pop } ifelse
 } def
/TGSW { stringwidth pop } def
/tgifstrw 0 def

/bd { bind def } bind def

/GS { gsave } bd
/GR { grestore } bd
/NP { newpath } bd
/CP { closepath } bd
/CHP { charpath } bd
/CT { curveto } bd
/L { lineto } bd
/RL { rlineto } bd
/M { moveto } bd
/RM { rmoveto } bd
/S { stroke } bd
/F { fill } bd
/TR { translate } bd
/RO { rotate } bd
/SC { scale } bd
/MU { mul } bd
/DI { div } bd
/DU { dup } bd
/NE { neg } bd
/AD { add } bd
/SU { sub } bd
/PO { pop } bd
/EX { exch } bd
/CO { concat } bd
/CL { clip } bd
/EC { eoclip } bd
/EF { eofill } bd
/IM { image } bd
/IMM { imagemask } bd
/ARY { array } bd
/SG { setgray } bd
/RG { setrgbcolor } bd
/SD { setdash } bd
/W { setlinewidth } bd
/SM { setmiterlimit } bd
/SLC { setlinecap } bd
/SLJ { setlinejoin } bd
/SH { show } bd
/FF { findfont } bd
/MS { makefont setfont } bd
/AR { arcto 4 {pop} repeat } bd
/CURP { currentpoint } bd
/FLAT { flattenpath strokepath clip newpath } bd
/TGSM { tgiforigctm setmatrix } def
/TGRM { savematrix setmatrix } def

end

%%EndProlog
%%Page: 1 1

%%PageBoundingBox: 23 361 586 708
tgifdict begin
/tgifsavedpage save def

1 SM
1 W

0 SG

72 0 MU 72 11 MU TR
72 128 DI 100.000 MU 100 DI DU NE SC

GS

/tgiforigctm matrix currentmatrix def

% POLYGON/CLOSED-SPLINE
0 SG
NP
   420 468 M
   420 532 L
   444 512 L
   444 488 L
CP
GS
GR
GS
   2 W
   S
GR

% TEXT
NP
0 SG
   GS
      1 W
      448 192 M
      GS
        GS
        0
            /Helvetica FF [18 0 0 -18 0 0] MS
            (Tagging Mux/Demux Pair) TGSW 
        AD
        GR
      2 DI NE 0 RM
            0 SG
            /Helvetica FF [18 0 0 -18 0 0] MS
            (Tagging Mux/Demux Pair) SH
      GR
   GR

% POLY/OPEN-SPLINE
0 SG
GS
   NP
      444 500 M
      0 20 atan DU cos 10.000 MU 464 exch SU
      exch sin 10.000 MU 500 exch SU L
   TGSM
   2 W
   S
   1 W
GR
GS
   TGSM
   NP
      464 500 10.000 4.000 20 0 TGAT
   1 SG CP F
   0 SG
   NP
      464 500 10.000 4.000 20 0 TGAT
   CP F
GR

% TEXT
NP
0 SG
   GS
      1 W
      240 192 M
      GS
        GS
        0
            /Helvetica FF [25 0 0 -25 0 0] MS
            (Key) TGSW 
        AD
        GR
      2 DI NE 0 RM
            0 SG
            /Helvetica FF [25 0 0 -25 0 0] MS
            (Key) DU TGSW EX SH
            GS CURP M 0 2 RM NE 0 RL S GR
      GR
   GR

% POLYGON/CLOSED-SPLINE
0 SG
NP
   356 212 M
   356 276 L
   380 256 L
   380 232 L
CP
GS
GR
GS
   2 W
   S
GR

% POLY/OPEN-SPLINE
0 SG
GS
   NP
      320 228 M
      0 36 atan DU cos 10.000 MU 356 exch SU
      exch sin 10.000 MU 228 exch SU L
   TGSM
   2 W
   S
   1 W
GR
GS
   TGSM
   NP
      356 228 10.000 4.000 36 0 TGAT
   1 SG CP F
   0 SG
   NP
      356 228 10.000 4.000 36 0 TGAT
   CP F
GR

% POLY/OPEN-SPLINE
0 SG
GS
   NP
      320 264 M
      0 36 atan DU cos 10.000 MU 356 exch SU
      exch sin 10.000 MU 264 exch SU L
   TGSM
   2 W
   S
   1 W
GR
GS
   TGSM
   NP
      356 264 10.000 4.000 36 0 TGAT
   1 SG CP F
   0 SG
   NP
      356 264 10.000 4.000 36 0 TGAT
   CP F
GR

% POLY/OPEN-SPLINE
0 SG
GS
   NP
      380 244 M
      0 32 atan DU cos 10.000 MU 412 exch SU
      exch sin 10.000 MU 244 exch SU L
   TGSM
   2 W
   S
   1 W
GR
GS
   TGSM
   NP
      412 244 10.000 4.000 32 0 TGAT
   1 SG CP F
   0 SG
   NP
      412 244 10.000 4.000 32 0 TGAT
   CP F
GR

% POLYGON/CLOSED-SPLINE
0 SG
NP
   532 212 M
   532 276 L
   508 256 L
   508 232 L
CP
GS
GR
GS
   2 W
   S
GR

% POLY/OPEN-SPLINE
0 SG
GS
   NP
      532 228 M
      0 36 atan DU cos 10.000 MU 568 exch SU
      exch sin 10.000 MU 228 exch SU L
   TGSM
   2 W
   S
   1 W
GR
GS
   TGSM
   NP
      568 228 10.000 4.000 36 0 TGAT
   1 SG CP F
   0 SG
   NP
      568 228 10.000 4.000 36 0 TGAT
   CP F
GR

% POLY/OPEN-SPLINE
0 SG
GS
   NP
      532 264 M
      0 36 atan DU cos 10.000 MU 568 exch SU
      exch sin 10.000 MU 264 exch SU L
   TGSM
   2 W
   S
   1 W
GR
GS
   TGSM
   NP
      568 264 10.000 4.000 36 0 TGAT
   1 SG CP F
   0 SG
   NP
      568 264 10.000 4.000 36 0 TGAT
   CP F
GR

% POLY/OPEN-SPLINE
0 SG
GS
   NP
      476 244 M
      0 32 atan DU cos 10.000 MU 508 exch SU
      exch sin 10.000 MU 244 exch SU L
   TGSM
   2 W
   S
   1 W
GR
GS
   TGSM
   NP
      508 244 10.000 4.000 32 0 TGAT
   1 SG CP F
   0 SG
   NP
      508 244 10.000 4.000 32 0 TGAT
   CP F
GR

% BOX
0 SG
GS
   10 SM
   GS
      NP 820 212 M 872 212 L 872 276 L 820 276 L CP
      2 W
      S
   GR
GR

% TEXT
NP
0 SG
   GS
      1 W
      780 192 M
      GS
        GS
        0
            /Helvetica FF [18 0 0 -18 0 0] MS
            (Protocol Convertor Pair) TGSW 
        AD
        GR
      2 DI NE 0 RM
            0 SG
            /Helvetica FF [18 0 0 -18 0 0] MS
            (Protocol Convertor Pair) SH
      GR
   GR

% POLY/OPEN-SPLINE
0 SG
GS
   NP
      792 240 M
      0 28 atan DU cos 10.000 MU 820 exch SU
      exch sin 10.000 MU 240 exch SU L
   TGSM
   2 W
   S
   1 W
GR
GS
   TGSM
   NP
      820 240 10.000 4.000 28 0 TGAT
   1 SG CP F
   0 SG
   NP
      820 240 10.000 4.000 28 0 TGAT
   CP F
GR

% POLY/OPEN-SPLINE
0 SG
GS
   NP
      872 240 M
      0 24 atan DU cos 10.000 MU 896 exch SU
      exch sin 10.000 MU 240 exch SU L
   TGSM
   2 W
   S
   1 W
GR
GS
   TGSM
   NP
      896 240 10.000 4.000 24 0 TGAT
   1 SG CP F
   0 SG
   NP
      896 240 10.000 4.000 24 0 TGAT
   CP F
GR

% TEXT
NP
0 SG
   GS
      1 W
      832 248 M
      GS
        GS
        0
            /Helvetica FF [18 0 0 -18 0 0] MS
            (P) TGSW 
        AD
        GR
      2 DI NE 0 RM
            0 SG
            /Helvetica FF [18 0 0 -18 0 0] MS
            (P) SH
      GR
   GR

% TEXT
NP
0 SG
   GS
      1 W
      860 248 M
      GS
        GS
        0
            /Helvetica FF [18 0 0 -18 0 0] MS
            (Q) TGSW 
        AD
        GR
      2 DI NE 0 RM
            0 SG
            /Helvetica FF [18 0 0 -18 0 0] MS
            (Q) SH
      GR
   GR

% BOX
0 SG
GS
   10 SM
   GS
      NP 312 504 M 364 504 L 364 568 L 312 568 L CP
      2 W
      S
   GR
GR

% POLY/OPEN-SPLINE
0 SG
GS
   NP
      276 532 M
      0 36 atan DU cos 10.000 MU 312 exch SU
      exch sin 10.000 MU 532 exch SU L
   TGSM
   2 W
   S
   1 W
GR
GS
   TGSM
   NP
      312 532 10.000 4.000 36 0 TGAT
   1 SG CP F
   0 SG
   NP
      312 532 10.000 4.000 36 0 TGAT
   CP F
GR

% TEXT
NP
0 SG
   GS
      1 W
      324 540 M
      GS
        GS
        0
            /Helvetica FF [18 0 0 -18 0 0] MS
            (P) TGSW 
        AD
        GR
      2 DI NE 0 RM
            0 SG
            /Helvetica FF [18 0 0 -18 0 0] MS
            (P) SH
      GR
   GR

% TEXT
NP
0 SG
   GS
      1 W
      352 540 M
      GS
        GS
        0
            /Helvetica FF [18 0 0 -18 0 0] MS
            (Q) TGSW 
        AD
        GR
      2 DI NE 0 RM
            0 SG
            /Helvetica FF [18 0 0 -18 0 0] MS
            (Q) SH
      GR
   GR

% BOX
0 SG
GS
   10 SM
   GS
      NP 312 412 M 364 412 L 364 476 L 312 476 L CP
      2 W
      S
   GR
GR

% POLY/OPEN-SPLINE
0 SG
GS
   NP
      276 440 M
      0 36 atan DU cos 10.000 MU 312 exch SU
      exch sin 10.000 MU 440 exch SU L
   TGSM
   2 W
   S
   1 W
GR
GS
   TGSM
   NP
      312 440 10.000 4.000 36 0 TGAT
   1 SG CP F
   0 SG
   NP
      312 440 10.000 4.000 36 0 TGAT
   CP F
GR

% TEXT
NP
0 SG
   GS
      1 W
      324 448 M
      GS
        GS
        0
            /Helvetica FF [18 0 0 -18 0 0] MS
            (S) TGSW 
        AD
        GR
      2 DI NE 0 RM
            0 SG
            /Helvetica FF [18 0 0 -18 0 0] MS
            (S) SH
      GR
   GR

% TEXT
NP
0 SG
   GS
      1 W
      352 448 M
      GS
        GS
        0
            /Helvetica FF [18 0 0 -18 0 0] MS
            (Q) TGSW 
        AD
        GR
      2 DI NE 0 RM
            0 SG
            /Helvetica FF [18 0 0 -18 0 0] MS
            (Q) SH
      GR
   GR

% BOX
0 SG
GS
   10 SM
   GS
      NP 144 356 M 196 356 L 196 420 L 144 420 L CP
      2 W
      S
   GR
GR

% POLY/OPEN-SPLINE
0 SG
GS
   NP
      68 384 M
      0 76 atan DU cos 10.000 MU 144 exch SU
      exch sin 10.000 MU 384 exch SU L
   TGSM
   2 W
   S
   1 W
GR
GS
   TGSM
   NP
      144 384 10.000 4.000 76 0 TGAT
   1 SG CP F
   0 SG
   NP
      144 384 10.000 4.000 76 0 TGAT
   CP F
GR

% TEXT
NP
0 SG
   GS
      1 W
      156 392 M
      GS
        GS
        0
            /Helvetica FF [18 0 0 -18 0 0] MS
            (R) TGSW 
        AD
        GR
      2 DI NE 0 RM
            0 SG
            /Helvetica FF [18 0 0 -18 0 0] MS
            (R) SH
      GR
   GR

% TEXT
NP
0 SG
   GS
      1 W
      184 392 M
      GS
        GS
        0
            /Helvetica FF [18 0 0 -18 0 0] MS
            (S) TGSW 
        AD
        GR
      2 DI NE 0 RM
            0 SG
            /Helvetica FF [18 0 0 -18 0 0] MS
            (S) SH
      GR
   GR

% POLY/OPEN-SPLINE
0 SG
GS
   NP
      364 444 M
      380 444 L
      392 484 L
      0 28 atan DU cos 10.000 MU 420 exch SU
      exch sin 10.000 MU 484 exch SU L
   TGSM
   2 W
   S
   1 W
GR
GS
   TGSM
   NP
      420 484 10.000 4.000 28 0 TGAT
   1 SG CP F
   0 SG
   NP
      420 484 10.000 4.000 28 0 TGAT
   CP F
GR

% POLY/OPEN-SPLINE
0 SG
GS
   NP
      364 536 M
      380 536 L
      392 516 L
      0 28 atan DU cos 10.000 MU 420 exch SU
      exch sin 10.000 MU 516 exch SU L
   TGSM
   2 W
   S
   1 W
GR
GS
   TGSM
   NP
      420 516 10.000 4.000 28 0 TGAT
   1 SG CP F
   0 SG
   NP
      420 516 10.000 4.000 28 0 TGAT
   CP F
GR

% POLYGON/CLOSED-SPLINE
0 SG
NP
   252 408 M
   252 472 L
   276 452 L
   276 428 L
CP
GS
GR
GS
   2 W
   S
GR

% POLY/OPEN-SPLINE
0 SG
GS
   NP
      196 384 M
      212 384 L
      224 424 L
      0 28 atan DU cos 10.000 MU 252 exch SU
      exch sin 10.000 MU 424 exch SU L
   TGSM
   2 W
   S
   1 W
GR
GS
   TGSM
   NP
      252 424 10.000 4.000 28 0 TGAT
   1 SG CP F
   0 SG
   NP
      252 424 10.000 4.000 28 0 TGAT
   CP F
GR

% POLYGON/CLOSED-SPLINE
0 SG
NP
   420 652 M
   420 716 L
   444 696 L
   444 672 L
CP
GS
GR
GS
   2 W
   S
GR

% BOX
0 SG
GS
   10 SM
   GS
      NP 312 688 M 364 688 L 364 752 L 312 752 L CP
      2 W
      S
   GR
GR

% POLY/OPEN-SPLINE
0 SG
GS
   NP
      96 716 M
      0 216 atan DU cos 10.000 MU exch sin 10.000 MU RM
      312 716 L
   TGSM
   2 W
   S
   1 W
GR
GS
   TGSM
   NP
      96 716 10.000 4.000 -216 0 TGAT
   1 SG CP F
   0 SG
   NP
      96 716 10.000 4.000 -216 0 TGAT
   CP F
GR

% TEXT
NP
0 SG
   GS
      1 W
      324 724 M
      GS
        GS
        0
            /Helvetica FF [18 0 0 -18 0 0] MS
            (P) TGSW 
        AD
        GR
      2 DI NE 0 RM
            0 SG
            /Helvetica FF [18 0 0 -18 0 0] MS
            (P) SH
      GR
   GR

% TEXT
NP
0 SG
   GS
      1 W
      352 724 M
      GS
        GS
        0
            /Helvetica FF [18 0 0 -18 0 0] MS
            (Q) TGSW 
        AD
        GR
      2 DI NE 0 RM
            0 SG
            /Helvetica FF [18 0 0 -18 0 0] MS
            (Q) SH
      GR
   GR

% BOX
0 SG
GS
   10 SM
   GS
      NP 312 596 M 364 596 L 364 660 L 312 660 L CP
      2 W
      S
   GR
GR

% POLY/OPEN-SPLINE
0 SG
GS
   NP
      276 624 M
      0 36 atan DU cos 10.000 MU exch sin 10.000 MU RM
      312 624 L
   TGSM
   2 W
   S
   1 W
GR
GS
   TGSM
   NP
      276 624 10.000 4.000 -36 0 TGAT
   1 SG CP F
   0 SG
   NP
      276 624 10.000 4.000 -36 0 TGAT
   CP F
GR

% TEXT
NP
0 SG
   GS
      1 W
      324 632 M
      GS
        GS
        0
            /Helvetica FF [18 0 0 -18 0 0] MS
            (S) TGSW 
        AD
        GR
      2 DI NE 0 RM
            0 SG
            /Helvetica FF [18 0 0 -18 0 0] MS
            (S) SH
      GR
   GR

% TEXT
NP
0 SG
   GS
      1 W
      352 632 M
      GS
        GS
        0
            /Helvetica FF [18 0 0 -18 0 0] MS
            (Q) TGSW 
        AD
        GR
      2 DI NE 0 RM
            0 SG
            /Helvetica FF [18 0 0 -18 0 0] MS
            (Q) SH
      GR
   GR

% BOX
0 SG
GS
   10 SM
   GS
      NP 144 540 M 196 540 L 196 604 L 144 604 L CP
      2 W
      S
   GR
GR

% POLY/OPEN-SPLINE
0 SG
GS
   NP
      108 568 M
      0 36 atan DU cos 10.000 MU exch sin 10.000 MU RM
      144 568 L
   TGSM
   2 W
   S
   1 W
GR
GS
   TGSM
   NP
      108 568 10.000 4.000 -36 0 TGAT
   1 SG CP F
   0 SG
   NP
      108 568 10.000 4.000 -36 0 TGAT
   CP F
GR

% TEXT
NP
0 SG
   GS
      1 W
      156 576 M
      GS
        GS
        0
            /Helvetica FF [18 0 0 -18 0 0] MS
            (R) TGSW 
        AD
        GR
      2 DI NE 0 RM
            0 SG
            /Helvetica FF [18 0 0 -18 0 0] MS
            (R) SH
      GR
   GR

% TEXT
NP
0 SG
   GS
      1 W
      184 576 M
      GS
        GS
        0
            /Helvetica FF [18 0 0 -18 0 0] MS
            (S) TGSW 
        AD
        GR
      2 DI NE 0 RM
            0 SG
            /Helvetica FF [18 0 0 -18 0 0] MS
            (S) SH
      GR
   GR

% POLY/OPEN-SPLINE
0 SG
GS
   NP
      364 628 M
      0 16 atan DU cos 10.000 MU exch sin 10.000 MU RM
      380 628 L
      392 668 L
      420 668 L
   TGSM
   2 W
   S
   1 W
GR
GS
   TGSM
   NP
      364 628 10.000 4.000 -16 0 TGAT
   1 SG CP F
   0 SG
   NP
      364 628 10.000 4.000 -16 0 TGAT
   CP F
GR

% POLY/OPEN-SPLINE
0 SG
GS
   NP
      364 720 M
      0 16 atan DU cos 10.000 MU exch sin 10.000 MU RM
      380 720 L
      392 700 L
      420 700 L
   TGSM
   2 W
   S
   1 W
GR
GS
   TGSM
   NP
      364 720 10.000 4.000 -16 0 TGAT
   1 SG CP F
   0 SG
   NP
      364 720 10.000 4.000 -16 0 TGAT
   CP F
GR

% POLYGON/CLOSED-SPLINE
0 SG
NP
   252 592 M
   252 656 L
   276 636 L
   276 612 L
CP
GS
GR
GS
   2 W
   S
GR

% POLY/OPEN-SPLINE
0 SG
GS
   NP
      196 568 M
      0 16 atan DU cos 10.000 MU exch sin 10.000 MU RM
      212 568 L
      224 608 L
      252 608 L
   TGSM
   2 W
   S
   1 W
GR
GS
   TGSM
   NP
      196 568 10.000 4.000 -16 0 TGAT
   1 SG CP F
   0 SG
   NP
      196 568 10.000 4.000 -16 0 TGAT
   CP F
GR

% POLY/OPEN-SPLINE
0 SG
GS
   NP
      444 684 M
      0 20 atan DU cos 10.000 MU exch sin 10.000 MU RM
      464 684 L
   TGSM
   2 W
   S
   1 W
GR
GS
   TGSM
   NP
      444 684 10.000 4.000 -20 0 TGAT
   1 SG CP F
   0 SG
   NP
      444 684 10.000 4.000 -20 0 TGAT
   CP F
GR

% POLY/OPEN-SPLINE
0 SG
GS
   NP
      76 384 M
      120 384 L
   TGSM
   2 W
   S
   1 W
GR

% POLY/OPEN-SPLINE
0 SG
GS
   NP
      128 568 M
      100 568 L
      84 396 L
      0 -20 atan DU cos 10.000 MU 64 exch SU
      exch sin 10.000 MU 396 exch SU L
   TGSM
   2 W
   S
   1 W
GR
GS
   TGSM
   NP
      64 396 10.000 4.000 -20 0 TGAT
   1 SG CP F
   0 SG
   NP
      64 396 10.000 4.000 -20 0 TGAT
   CP F
GR

% TEXT
NP
0 SG
   GS
      1 W
      56 396 M
      GS
        GS
        0
            /Helvetica FF [25 0 0 -25 0 0] MS
            (R) TGSW 
        AD
        GR
      2 DI NE 0 RM
            0 SG
            /Helvetica FF [25 0 0 -25 0 0] MS
            (R) SH
      GR
   GR

% POLY/OPEN-SPLINE
0 SG
GS
   NP
      64 476 M
      216 476 L
      224 456 L
      0 28 atan DU cos 10.000 MU 252 exch SU
      exch sin 10.000 MU 456 exch SU L
   TGSM
   2 W
   S
   1 W
GR
GS
   TGSM
   NP
      252 456 10.000 4.000 28 0 TGAT
   1 SG CP F
   0 SG
   NP
      252 456 10.000 4.000 28 0 TGAT
   CP F
GR

% POLY/OPEN-SPLINE
0 SG
GS
   NP
      252 640 M
      96 640 L
      80 488 L
      0 -16 atan DU cos 10.000 MU 64 exch SU
      exch sin 10.000 MU 488 exch SU L
   TGSM
   2 W
   S
   1 W
GR
GS
   TGSM
   NP
      64 488 10.000 4.000 -16 0 TGAT
   1 SG CP F
   0 SG
   NP
      64 488 10.000 4.000 -16 0 TGAT
   CP F
GR

% TEXT
NP
0 SG
   GS
      1 W
      52 488 M
      GS
        GS
        0
            /Helvetica FF [25 0 0 -25 0 0] MS
            (S) TGSW 
        AD
        GR
      2 DI NE 0 RM
            0 SG
            /Helvetica FF [25 0 0 -25 0 0] MS
            (S) SH
      GR
   GR

% POLY/OPEN-SPLINE
0 SG
GS
   NP
      96 700 M
      184 700 L
      272 532 L
      300 532 L
   TGSM
   2 W
   S
   1 W
GR

% TEXT
NP
0 SG
   GS
      1 W
      80 716 M
      GS
        GS
        0
            /Helvetica FF [25 0 0 -25 0 0] MS
            (P) TGSW 
        AD
        GR
      2 DI NE 0 RM
            0 SG
            /Helvetica FF [25 0 0 -25 0 0] MS
            (P) SH
      GR
   GR

% BOX
0 SG
GS
   10 SM
   GS
      NP 584 440 M 616 440 L 616 560 L 584 560 L CP
      2 W
      S
   GR
GR

% POLYGON/CLOSED-SPLINE
0 SG
NP
   664 468 M
   664 532 L
   640 512 L
   640 488 L
CP
GS
GR
GS
   2 W
   S
GR

% POLY/OPEN-SPLINE
0 SG
GS
   NP
      640 500 M
      0 -24 atan DU cos 10.000 MU exch sin 10.000 MU RM
      616 500 L
   TGSM
   2 W
   S
   1 W
GR
GS
   TGSM
   NP
      640 500 10.000 4.000 24 0 TGAT
   1 SG CP F
   0 SG
   NP
      640 500 10.000 4.000 24 0 TGAT
   CP F
GR

% BOX
0 SG
GS
   10 SM
   GS
      NP 720 504 M 772 504 L 772 568 L 720 568 L CP
      2 W
      S
   GR
GR

% TEXT
NP
0 SG
   GS
      1 W
      760 544 M
      GS
        GS
        0
            /Helvetica FF [18 0 0 -18 0 0] MS
            (P) TGSW 
        AD
        GR
      2 DI NE 0 RM
            0 SG
            /Helvetica FF [18 0 0 -18 0 0] MS
            (P) SH
      GR
   GR

% TEXT
NP
0 SG
   GS
      1 W
      732 544 M
      GS
        GS
        0
            /Helvetica FF [18 0 0 -18 0 0] MS
            (Q) TGSW 
        AD
        GR
      2 DI NE 0 RM
            0 SG
            /Helvetica FF [18 0 0 -18 0 0] MS
            (Q) SH
      GR
   GR

% BOX
0 SG
GS
   10 SM
   GS
      NP 720 412 M 772 412 L 772 476 L 720 476 L CP
      2 W
      S
   GR
GR

% POLY/OPEN-SPLINE
0 SG
GS
   NP
      808 440 M
      0 -36 atan DU cos 10.000 MU exch sin 10.000 MU RM
      772 440 L
   TGSM
   2 W
   S
   1 W
GR
GS
   TGSM
   NP
      808 440 10.000 4.000 36 0 TGAT
   1 SG CP F
   0 SG
   NP
      808 440 10.000 4.000 36 0 TGAT
   CP F
GR

% TEXT
NP
0 SG
   GS
      1 W
      760 448 M
      GS
        GS
        0
            /Helvetica FF [18 0 0 -18 0 0] MS
            (S) TGSW 
        AD
        GR
      2 DI NE 0 RM
            0 SG
            /Helvetica FF [18 0 0 -18 0 0] MS
            (S) SH
      GR
   GR

% TEXT
NP
0 SG
   GS
      1 W
      732 448 M
      GS
        GS
        0
            /Helvetica FF [18 0 0 -18 0 0] MS
            (Q) TGSW 
        AD
        GR
      2 DI NE 0 RM
            0 SG
            /Helvetica FF [18 0 0 -18 0 0] MS
            (Q) SH
      GR
   GR

% BOX
0 SG
GS
   10 SM
   GS
      NP 888 356 M 940 356 L 940 420 L 888 420 L CP
      2 W
      S
   GR
GR

% TEXT
NP
0 SG
   GS
      1 W
      928 392 M
      GS
        GS
        0
            /Helvetica FF [18 0 0 -18 0 0] MS
            (R) TGSW 
        AD
        GR
      2 DI NE 0 RM
            0 SG
            /Helvetica FF [18 0 0 -18 0 0] MS
            (R) SH
      GR
   GR

% TEXT
NP
0 SG
   GS
      1 W
      900 392 M
      GS
        GS
        0
            /Helvetica FF [18 0 0 -18 0 0] MS
            (S) TGSW 
        AD
        GR
      2 DI NE 0 RM
            0 SG
            /Helvetica FF [18 0 0 -18 0 0] MS
            (S) SH
      GR
   GR

% POLY/OPEN-SPLINE
0 SG
GS
   NP
      720 444 M
      0 -16 atan DU cos 10.000 MU exch sin 10.000 MU RM
      704 444 L
      692 484 L
      664 484 L
   TGSM
   2 W
   S
   1 W
GR
GS
   TGSM
   NP
      720 444 10.000 4.000 16 0 TGAT
   1 SG CP F
   0 SG
   NP
      720 444 10.000 4.000 16 0 TGAT
   CP F
GR

% POLY/OPEN-SPLINE
0 SG
GS
   NP
      720 536 M
      0 -16 atan DU cos 10.000 MU exch sin 10.000 MU RM
      704 536 L
      692 516 L
      664 516 L
   TGSM
   2 W
   S
   1 W
GR
GS
   TGSM
   NP
      720 536 10.000 4.000 16 0 TGAT
   1 SG CP F
   0 SG
   NP
      720 536 10.000 4.000 16 0 TGAT
   CP F
GR

% POLYGON/CLOSED-SPLINE
0 SG
NP
   832 408 M
   832 472 L
   808 452 L
   808 428 L
CP
GS
GR
GS
   2 W
   S
GR

% POLY/OPEN-SPLINE
0 SG
GS
   NP
      888 384 M
      0 -16 atan DU cos 10.000 MU exch sin 10.000 MU RM
      872 384 L
      860 424 L
      832 424 L
   TGSM
   2 W
   S
   1 W
GR
GS
   TGSM
   NP
      888 384 10.000 4.000 16 0 TGAT
   1 SG CP F
   0 SG
   NP
      888 384 10.000 4.000 16 0 TGAT
   CP F
GR

% POLYGON/CLOSED-SPLINE
0 SG
NP
   664 652 M
   664 716 L
   640 696 L
   640 672 L
CP
GS
GR
GS
   2 W
   S
GR

% BOX
0 SG
GS
   10 SM
   GS
      NP 720 688 M 772 688 L 772 752 L 720 752 L CP
      2 W
      S
   GR
GR

% POLY/OPEN-SPLINE
0 SG
GS
   NP
      988 716 M
      0 -216 atan DU cos 10.000 MU 772 exch SU
      exch sin 10.000 MU 716 exch SU L
   TGSM
   2 W
   S
   1 W
GR
GS
   TGSM
   NP
      772 716 10.000 4.000 -216 0 TGAT
   1 SG CP F
   0 SG
   NP
      772 716 10.000 4.000 -216 0 TGAT
   CP F
GR

% TEXT
NP
0 SG
   GS
      1 W
      760 724 M
      GS
        GS
        0
            /Helvetica FF [18 0 0 -18 0 0] MS
            (P) TGSW 
        AD
        GR
      2 DI NE 0 RM
            0 SG
            /Helvetica FF [18 0 0 -18 0 0] MS
            (P) SH
      GR
   GR

% TEXT
NP
0 SG
   GS
      1 W
      732 724 M
      GS
        GS
        0
            /Helvetica FF [18 0 0 -18 0 0] MS
            (Q) TGSW 
        AD
        GR
      2 DI NE 0 RM
            0 SG
            /Helvetica FF [18 0 0 -18 0 0] MS
            (Q) SH
      GR
   GR

% BOX
0 SG
GS
   10 SM
   GS
      NP 720 596 M 772 596 L 772 660 L 720 660 L CP
      2 W
      S
   GR
GR

% POLY/OPEN-SPLINE
0 SG
GS
   NP
      808 624 M
      0 -36 atan DU cos 10.000 MU 772 exch SU
      exch sin 10.000 MU 624 exch SU L
   TGSM
   2 W
   S
   1 W
GR
GS
   TGSM
   NP
      772 624 10.000 4.000 -36 0 TGAT
   1 SG CP F
   0 SG
   NP
      772 624 10.000 4.000 -36 0 TGAT
   CP F
GR

% TEXT
NP
0 SG
   GS
      1 W
      760 632 M
      GS
        GS
        0
            /Helvetica FF [18 0 0 -18 0 0] MS
            (S) TGSW 
        AD
        GR
      2 DI NE 0 RM
            0 SG
            /Helvetica FF [18 0 0 -18 0 0] MS
            (S) SH
      GR
   GR

% TEXT
NP
0 SG
   GS
      1 W
      732 632 M
      GS
        GS
        0
            /Helvetica FF [18 0 0 -18 0 0] MS
            (Q) TGSW 
        AD
        GR
      2 DI NE 0 RM
            0 SG
            /Helvetica FF [18 0 0 -18 0 0] MS
            (Q) SH
      GR
   GR

% BOX
0 SG
GS
   10 SM
   GS
      NP 888 540 M 940 540 L 940 604 L 888 604 L CP
      2 W
      S
   GR
GR

% POLY/OPEN-SPLINE
0 SG
GS
   NP
      976 568 M
      0 -36 atan DU cos 10.000 MU 940 exch SU
      exch sin 10.000 MU 568 exch SU L
   TGSM
   2 W
   S
   1 W
GR
GS
   TGSM
   NP
      940 568 10.000 4.000 -36 0 TGAT
   1 SG CP F
   0 SG
   NP
      940 568 10.000 4.000 -36 0 TGAT
   CP F
GR

% TEXT
NP
0 SG
   GS
      1 W
      928 576 M
      GS
        GS
        0
            /Helvetica FF [18 0 0 -18 0 0] MS
            (R) TGSW 
        AD
        GR
      2 DI NE 0 RM
            0 SG
            /Helvetica FF [18 0 0 -18 0 0] MS
            (R) SH
      GR
   GR

% TEXT
NP
0 SG
   GS
      1 W
      900 576 M
      GS
        GS
        0
            /Helvetica FF [18 0 0 -18 0 0] MS
            (S) TGSW 
        AD
        GR
      2 DI NE 0 RM
            0 SG
            /Helvetica FF [18 0 0 -18 0 0] MS
            (S) SH
      GR
   GR

% POLY/OPEN-SPLINE
0 SG
GS
   NP
      720 628 M
      704 628 L
      692 668 L
      0 -28 atan DU cos 10.000 MU 664 exch SU
      exch sin 10.000 MU 668 exch SU L
   TGSM
   2 W
   S
   1 W
GR
GS
   TGSM
   NP
      664 668 10.000 4.000 -28 0 TGAT
   1 SG CP F
   0 SG
   NP
      664 668 10.000 4.000 -28 0 TGAT
   CP F
GR

% POLY/OPEN-SPLINE
0 SG
GS
   NP
      720 720 M
      704 720 L
      692 700 L
      0 -28 atan DU cos 10.000 MU 664 exch SU
      exch sin 10.000 MU 700 exch SU L
   TGSM
   2 W
   S
   1 W
GR
GS
   TGSM
   NP
      664 700 10.000 4.000 -28 0 TGAT
   1 SG CP F
   0 SG
   NP
      664 700 10.000 4.000 -28 0 TGAT
   CP F
GR

% POLYGON/CLOSED-SPLINE
0 SG
NP
   832 592 M
   832 656 L
   808 636 L
   808 612 L
CP
GS
GR
GS
   2 W
   S
GR

% POLY/OPEN-SPLINE
0 SG
GS
   NP
      888 568 M
      872 568 L
      860 608 L
      0 -28 atan DU cos 10.000 MU 832 exch SU
      exch sin 10.000 MU 608 exch SU L
   TGSM
   2 W
   S
   1 W
GR
GS
   TGSM
   NP
      832 608 10.000 4.000 -28 0 TGAT
   1 SG CP F
   0 SG
   NP
      832 608 10.000 4.000 -28 0 TGAT
   CP F
GR

% POLY/OPEN-SPLINE
0 SG
GS
   NP
      640 684 M
      0 -24 atan DU cos 10.000 MU 616 exch SU
      exch sin 10.000 MU 684 exch SU L
   TGSM
   2 W
   S
   1 W
GR
GS
   TGSM
   NP
      616 684 10.000 4.000 -24 0 TGAT
   1 SG CP F
   0 SG
   NP
      616 684 10.000 4.000 -24 0 TGAT
   CP F
GR

% POLY/OPEN-SPLINE
0 SG
GS
   NP
      1016 384 M
      0 -72 atan DU cos 10.000 MU exch sin 10.000 MU RM
      944 384 L
   TGSM
   2 W
   S
   1 W
GR
GS
   TGSM
   NP
      1016 384 10.000 4.000 72 0 TGAT
   1 SG CP F
   0 SG
   NP
      1016 384 10.000 4.000 72 0 TGAT
   CP F
GR

% POLY/OPEN-SPLINE
0 SG
GS
   NP
      952 568 M
      980 568 L
      996 396 L
      1016 396 L
   TGSM
   2 W
   S
   1 W
GR

% TEXT
NP
0 SG
   GS
      1 W
      1028 396 M
      GS
        GS
        0
            /Helvetica FF [25 0 0 -25 0 0] MS
            (R) TGSW 
        AD
        GR
      2 DI NE 0 RM
            0 SG
            /Helvetica FF [25 0 0 -25 0 0] MS
            (R) SH
      GR
   GR

% POLY/OPEN-SPLINE
0 SG
GS
   NP
      1020 476 M
      0 -152 atan DU cos 10.000 MU exch sin 10.000 MU RM
      868 476 L
      860 456 L
      832 456 L
   TGSM
   2 W
   S
   1 W
GR
GS
   TGSM
   NP
      1020 476 10.000 4.000 152 0 TGAT
   1 SG CP F
   0 SG
   NP
      1020 476 10.000 4.000 152 0 TGAT
   CP F
GR

% POLY/OPEN-SPLINE
0 SG
GS
   NP
      832 640 M
      0 156 atan DU cos 10.000 MU exch sin 10.000 MU RM
      988 640 L
      1004 488 L
      1020 488 L
   TGSM
   2 W
   S
   1 W
GR
GS
   TGSM
   NP
      832 640 10.000 4.000 -156 0 TGAT
   1 SG CP F
   0 SG
   NP
      832 640 10.000 4.000 -156 0 TGAT
   CP F
GR

% TEXT
NP
0 SG
   GS
      1 W
      1032 488 M
      GS
        GS
        0
            /Helvetica FF [25 0 0 -25 0 0] MS
            (S) TGSW 
        AD
        GR
      2 DI NE 0 RM
            0 SG
            /Helvetica FF [25 0 0 -25 0 0] MS
            (S) SH
      GR
   GR

% POLY/OPEN-SPLINE
0 SG
GS
   NP
      988 700 M
      0 -88 atan DU cos 10.000 MU exch sin 10.000 MU RM
      900 700 L
      812 532 L
      776 532 L
   TGSM
   2 W
   S
   1 W
GR
GS
   TGSM
   NP
      988 700 10.000 4.000 88 0 TGAT
   1 SG CP F
   0 SG
   NP
      988 700 10.000 4.000 88 0 TGAT
   CP F
GR

% TEXT
NP
0 SG
   GS
      1 W
      1008 716 M
      GS
        GS
        0
            /Helvetica FF [25 0 0 -25 0 0] MS
            (P) TGSW 
        AD
        GR
      2 DI NE 0 RM
            0 SG
            /Helvetica FF [25 0 0 -25 0 0] MS
            (P) SH
      GR
   GR

% POLY/OPEN-SPLINE
0 SG
GS
   NP
      92 328 M
      516 328 L
      516 740 L
   TGSM
   1 W
   S
GR

% POLY/OPEN-SPLINE
0 SG
GS
   NP
      984 328 M
      572 328 L
      572 748 L
   TGSM
   1 W
   S
GR

% BOX
0 SG
GS
   10 SM
   GS
      NP 584 624 M 616 624 L 616 744 L 584 744 L CP
      2 W
      S
   GR
GR

% BOX
0 SG
GS
   10 SM
   GS
      NP 464 440 M 496 440 L 496 560 L 464 560 L CP
      2 W
      S
   GR
GR

% BOX
0 SG
GS
   10 SM
   GS
      NP 464 620 M 496 620 L 496 740 L 464 740 L CP
      2 W
      S
   GR
GR

% TEXT
NP
0 SG
   GS
      1 W
      620 364 M
      GS
        GS
        0
            /Helvetica FF [18 0 0 -18 0 0] MS
            (FPGA 1) TGSW 
        AD
        GR
      2 DI NE 0 RM
            0 SG
            /Helvetica FF [18 0 0 -18 0 0] MS
            (FPGA 1) SH
      GR
   GR

% TEXT
NP
0 SG
   GS
      1 W
      468 360 M
      GS
        GS
        0
            /Helvetica FF [18 0 0 -18 0 0] MS
            (FPGA 0) TGSW 
        AD
        GR
      2 DI NE 0 RM
            0 SG
            /Helvetica FF [18 0 0 -18 0 0] MS
            (FPGA 0) SH
      GR
   GR

% POLY/OPEN-SPLINE
0 SG
GS
   NP
      496 496 M
      508 512 L
      520 496 L
      528 512 L
      540 496 L
      552 512 L
      560 496 L
      568 512 L
      580 496 L
      584 504 L
   TGSM
   3 W
   S
   1 W
GR

% POLY/OPEN-SPLINE
0 SG
GS
   NP
      496 512 M
      508 496 L
      520 512 L
      528 496 L
      540 512 L
      552 496 L
      560 512 L
      568 496 L
      580 512 L
      584 504 L
   TGSM
   3 W
   S
   1 W
GR

% POLY/OPEN-SPLINE
0 SG
GS
   NP
      496 672 M
      508 688 L
      520 672 L
      528 688 L
      540 672 L
      552 688 L
      560 672 L
      568 688 L
      580 672 L
      584 680 L
   TGSM
   3 W
   S
   1 W
GR

% POLY/OPEN-SPLINE
0 SG
GS
   NP
      496 688 M
      508 672 L
      520 688 L
      528 672 L
      540 688 L
      552 672 L
      560 688 L
      568 672 L
      580 688 L
      584 680 L
   TGSM
   3 W
   S
   1 W
GR

% POLY/OPEN-SPLINE
0 SG
GS
   NP
      528 480 M
      0 32 atan DU cos 12.000 MU 560 exch SU
      exch sin 12.000 MU 480 exch SU L
   TGSM
   3 W
   S
   1 W
GR
GS
   TGSM
   NP
      560 480 12.000 5.000 32 0 TGAT
   1 SG CP F
   0 SG
   NP
      560 480 12.000 5.000 32 0 TGAT
   CP F
GR

% POLY/OPEN-SPLINE
0 SG
GS
   NP
      528 660 M
      0 32 atan DU cos 12.000 MU exch sin 12.000 MU RM
      560 660 L
   TGSM
   3 W
   S
   1 W
GR
GS
   TGSM
   NP
      528 660 12.000 5.000 -32 0 TGAT
   1 SG CP F
   0 SG
   NP
      528 660 12.000 5.000 -32 0 TGAT
   CP F
GR

% RCBOX
0 SG
GS
   GS
      NP
         892 152 M
         908 152 908 300 16 AR
         908 284 L
         908 300 188 300 16 AR
         204 300 L
         188 300 188 152 16 AR
         188 168 L
         188 152 908 152 16 AR
      CP
      [2 2] 0 SD
      S
   GR
GR

% TEXT
NP
0 SG
   GS
      1 W
      476 588 M
      GS
        GS
        0
            /Helvetica FF [18 0 0 -18 0 0] MS
            (Serdes) TGSW 
        AD
        GR
      2 DI NE 0 RM
            0 SG
            /Helvetica FF [18 0 0 -18 0 0] MS
            (Serdes) SH
      GR
      0 22 RM
      GS
        GS
        0
            /Helvetica FF [18 0 0 -18 0 0] MS
            (pair) TGSW 
        AD
        GR
      2 DI NE 0 RM
            0 SG
            /Helvetica FF [18 0 0 -18 0 0] MS
            (pair) SH
      GR
   GR

% TEXT
NP
0 SG
   GS
      1 W
      608 588 M
      GS
        GS
        0
            /Helvetica FF [18 0 0 -18 0 0] MS
            (Serdes) TGSW 
        AD
        GR
      2 DI NE 0 RM
            0 SG
            /Helvetica FF [18 0 0 -18 0 0] MS
            (Serdes) SH
      GR
      0 22 RM
      GS
        GS
        0
            /Helvetica FF [18 0 0 -18 0 0] MS
            (pair) TGSW 
        AD
        GR
      2 DI NE 0 RM
            0 SG
            /Helvetica FF [18 0 0 -18 0 0] MS
            (pair) SH
      GR
   GR

% POLY/OPEN-SPLINE
0 SG
GS
   [2 2] 0 SD
   NP
      96 328 M
      48 328 L
   TGSM
   1 W
   S
   [] 0 SD
GR

% POLY/OPEN-SPLINE
0 SG
GS
   [2 2] 0 SD
   NP
      1028 328 M
      984 328 L
   TGSM
   1 W
   S
   [] 0 SD
GR

% POLY/OPEN-SPLINE
0 SG
GS
   [2 2] 0 SD
   NP
      516 744 M
      516 764 L
   TGSM
   1 W
   S
   [] 0 SD
GR

% POLY/OPEN-SPLINE
0 SG
GS
   [2 2] 0 SD
   NP
      572 744 M
      572 764 L
   TGSM
   1 W
   S
   [] 0 SD
GR

% BOX
0 SG
GS
   10 SM
   GS
      NP 700 212 M 752 212 L 752 276 L 700 276 L CP
      2 W
      S
   GR
GR

% POLY/OPEN-SPLINE
0 SG
GS
   NP
      672 240 M
      0 28 atan DU cos 10.000 MU 700 exch SU
      exch sin 10.000 MU 240 exch SU L
   TGSM
   2 W
   S
   1 W
GR
GS
   TGSM
   NP
      700 240 10.000 4.000 28 0 TGAT
   1 SG CP F
   0 SG
   NP
      700 240 10.000 4.000 28 0 TGAT
   CP F
GR

% POLY/OPEN-SPLINE
0 SG
GS
   NP
      752 240 M
      0 24 atan DU cos 10.000 MU 776 exch SU
      exch sin 10.000 MU 240 exch SU L
   TGSM
   2 W
   S
   1 W
GR
GS
   TGSM
   NP
      776 240 10.000 4.000 24 0 TGAT
   1 SG CP F
   0 SG
   NP
      776 240 10.000 4.000 24 0 TGAT
   CP F
GR

% TEXT
NP
0 SG
   GS
      1 W
      740 248 M
      GS
        GS
        0
            /Helvetica FF [18 0 0 -18 0 0] MS
            (P) TGSW 
        AD
        GR
      2 DI NE 0 RM
            0 SG
            /Helvetica FF [18 0 0 -18 0 0] MS
            (P) SH
      GR
   GR

% TEXT
NP
0 SG
   GS
      1 W
      712 248 M
      GS
        GS
        0
            /Helvetica FF [18 0 0 -18 0 0] MS
            (Q) TGSW 
        AD
        GR
      2 DI NE 0 RM
            0 SG
            /Helvetica FF [18 0 0 -18 0 0] MS
            (Q) SH
      GR
   GR

GR
tgifsavedpage restore
end
showpage

%%Trailer
%MatchingCreationDate: Wed May 31 14:06:01 2017
%%DocumentFonts: Helvetica
%%EOF
