%!PS-Adobe-3.0 EPSF-3.0
%%BoundingBox: 149 216 419 478
%%Title: socrender-visualisation
%%CreationDate: Tue Jul  4 11:41:19 2017
%%Creator: Tgif-4.2.5-QPL written by William Chia-Wei Cheng (bill.cheng@acm.org)
%%ProducedBy: (unknown)
%%Pages: 1
%%DocumentFonts: (atend)
%%EndComments
%%BeginProlog

/tgifdict 56 dict def
tgifdict begin

/tgifellipsedict 6 dict def
tgifellipsedict /mtrx matrix put

/TGEL % tgifellipse
 { tgifellipsedict begin
      /yrad exch def
      /xrad exch def
      /y exch def
      /x exch def
      /savematrix mtrx currentmatrix def
      x y translate
      xrad yrad scale
      0 0 1 0 360 arc
      savematrix setmatrix
   end
 } def

/tgifarrowtipdict 8 dict def
tgifarrowtipdict /mtrx matrix put

/TGAT % tgifarrowtip
 { tgifarrowtipdict begin
      /dy exch def
      /dx exch def
      /h exch def
      /w exch def
      /y exch def
      /x exch def
      /savematrix mtrx currentmatrix def
      x y translate
      dy dx atan rotate
      0 0 moveto
      w neg h lineto
      w neg h neg lineto
      savematrix setmatrix
   end
 } def

/TGMAX
 { exch dup 3 1 roll exch dup 3 1 roll gt { pop } { exch pop } ifelse
 } def
/TGMIN
 { exch dup 3 1 roll exch dup 3 1 roll lt { pop } { exch pop } ifelse
 } def
/TGSW { stringwidth pop } def
/tgifstrw 0 def

/bd { bind def } bind def

/GS { gsave } bd
/GR { grestore } bd
/NP { newpath } bd
/CP { closepath } bd
/CHP { charpath } bd
/CT { curveto } bd
/L { lineto } bd
/RL { rlineto } bd
/M { moveto } bd
/RM { rmoveto } bd
/S { stroke } bd
/F { fill } bd
/TR { translate } bd
/RO { rotate } bd
/SC { scale } bd
/MU { mul } bd
/DI { div } bd
/DU { dup } bd
/NE { neg } bd
/AD { add } bd
/SU { sub } bd
/PO { pop } bd
/EX { exch } bd
/CO { concat } bd
/CL { clip } bd
/EC { eoclip } bd
/EF { eofill } bd
/IM { image } bd
/IMM { imagemask } bd
/ARY { array } bd
/SG { setgray } bd
/RG { setrgbcolor } bd
/SD { setdash } bd
/W { setlinewidth } bd
/SM { setmiterlimit } bd
/SLC { setlinecap } bd
/SLJ { setlinejoin } bd
/SH { show } bd
/FF { findfont } bd
/MS { makefont setfont } bd
/AR { arcto 4 {pop} repeat } bd
/CURP { currentpoint } bd
/FLAT { flattenpath strokepath clip newpath } bd
/TGSM { tgiforigctm setmatrix } def
/TGRM { savematrix setmatrix } def

end

%%EndProlog
%%Page: 1 1

%%PageBoundingBox: 149 216 419 478
tgifdict begin
/tgifsavedpage save def

1 SM
1 W

0 SG

72 0 MU 72 11 MU TR
72 128 DI 100.000 MU 100 DI DU NE SC

GS

/tgiforigctm matrix currentmatrix def

% RCBOX
0 SG
NP
   684 832 M
   700 832 700 912 16 AR
   700 896 L
   700 912 528 912 16 AR
   544 912 L
   528 912 528 832 16 AR
   528 848 L
   528 832 700 832 16 AR
CP F
GS
   GS
      NP
         684 832 M
         700 832 700 912 16 AR
         700 896 L
         700 912 528 912 16 AR
         544 912 L
         528 912 528 832 16 AR
         528 848 L
         528 832 700 832 16 AR
      CP
      2 W
      S
   GR
GR

% RCBOX
0 SG
NP
   572 708 M
   588 708 588 788 16 AR
   588 772 L
   588 788 416 788 16 AR
   432 788 L
   416 788 416 708 16 AR
   416 724 L
   416 708 588 708 16 AR
CP F
GS
   GS
      NP
         572 708 M
         588 708 588 788 16 AR
         588 772 L
         588 788 416 788 16 AR
         432 788 L
         416 788 416 708 16 AR
         416 724 L
         416 708 588 708 16 AR
      CP
      2 W
      S
   GR
GR

% BOX
0 SG
NP 564 568 M 700 568 L 700 636 L 564 636 L CP 1 SG F
   0 SG
GS
   10 SM
   GS
      NP 564 568 M 700 568 L 700 636 L 564 636 L CP
      S
   GR
GR

% POLY/OPEN-SPLINE
0 SG
GS
   NP
      568 636 M
      568 640 L
      704 640 L
      704 572 L
      700 572 L
      700 584 L
      700 572 L
   TGSM
   1 W
   S
GR

% POLY/OPEN-SPLINE
0 SG
GS
   NP
      572 640 M
      572 644 L
      708 644 L
      708 576 L
      704 576 L
      704 588 L
      704 576 L
   TGSM
   1 W
   S
GR

% TEXT
NP
0 SG
   GS
      1 W
      348 640 M
      GS
        GS
        0
            /Helvetica FF [18 0 0 -18 0 0] MS
            (Primary) TGSW 
        AD
        GR
      2 DI NE 0 RM
            0 SG
            /Helvetica FF [18 0 0 -18 0 0] MS
            (Primary) SH
      GR
      0 22 RM
      GS
        GS
        0
            /Helvetica FF [18 0 0 -18 0 0] MS
            (IP Block) TGSW 
        AD
        GR
      2 DI NE 0 RM
            0 SG
            /Helvetica FF [18 0 0 -18 0 0] MS
            (IP Block) SH
      GR
   GR

% TEXT
NP
0 SG
   GS
      1 W
      480 596 M
      GS
        GS
        0
            /Helvetica FF [18 0 0 -18 0 0] MS
            (Blade) TGSW 
        AD
        GR
      2 DI NE 0 RM
            0 SG
            /Helvetica FF [18 0 0 -18 0 0] MS
            (Blade) SH
      GR
      0 22 RM
      GS
        GS
        0
            /Helvetica FF [18 0 0 -18 0 0] MS
            (Manifest) TGSW 
        AD
        GR
      2 DI NE 0 RM
            0 SG
            /Helvetica FF [18 0 0 -18 0 0] MS
            (Manifest) SH
      GR
   GR

% TEXT
NP
0 SG
   GS
      1 W
      420 864 M
      GS
        GS
        0
            /Helvetica FF [18 0 0 -18 0 0] MS
            (IP-XACT) TGSW 
        AD
        GR
      2 DI NE 0 RM
            0 SG
            /Helvetica FF [18 0 0 -18 0 0] MS
            (IP-XACT) SH
      GR
      0 22 RM
      GS
        GS
        0
            /Helvetica FF [18 0 0 -18 0 0] MS
            (Design) TGSW 
        AD
        GR
      2 DI NE 0 RM
            0 SG
            /Helvetica FF [18 0 0 -18 0 0] MS
            (Design) SH
      GR
   GR

% TEXT
NP
0 SG
   GS
      1 W
      500 744 M
      GS
        GS
        0
            /Helvetica FF [18 0 0 -18 0 0] MS
            (System Integrator) TGSW 
        AD
        GR
      2 DI NE 0 RM
            0 SG
            /Helvetica FF [18 0 0 -18 0 0] MS
            (System Integrator) SH
      GR
      0 22 RM
      GS
        GS
        0
            /Helvetica FF [18 0 0 -18 0 0] MS
            (Planner) TGSW 
        AD
        GR
      2 DI NE 0 RM
            0 SG
            /Helvetica FF [18 0 0 -18 0 0] MS
            (Planner) SH
      GR
   GR

% POLYGON/CLOSED-SPLINE
0 SG
NP
   356 896 M
   384 832 L
   488 832 L
   464 896 L
CP
GS
GR
GS
   2 W
   S
GR

% RCBOX
0 SG
GS
   GS
      NP
         572 708 M
         588 708 588 788 16 AR
         588 772 L
         588 788 416 788 16 AR
         432 788 L
         416 788 416 708 16 AR
         416 724 L
         416 708 588 708 16 AR
      CP
      2 W
      S
   GR
GR

% POLY/OPEN-SPLINE
0 SG
GS
   NP
      616 912 M
      28 0 atan DU cos 10.000 MU 616 exch SU
      exch sin 10.000 MU 940 exch SU L
   TGSM
   2 W
   S
   1 W
GR
GS
   TGSM
   NP
      616 940 10.000 4.000 0 28 TGAT
   1 SG CP F
   0 SG
   NP
      616 940 10.000 4.000 0 28 TGAT
   CP F
GR

% TEXT
NP
0 SG
   GS
      1 W
      604 968 M
      GS
        GS
        0
            /Helvetica FF [18 0 0 -18 0 0] MS
            (RTL) TGSW 
        AD
        GR
      2 DI NE 0 RM
            0 SG
            /Helvetica FF [18 0 0 -18 0 0] MS
            (RTL) SH
      GR
      0 22 RM
      GS
        GS
        0
            /Helvetica FF [18 0 0 -18 0 0] MS
            (Outputs) TGSW 
        AD
        GR
      2 DI NE 0 RM
            0 SG
            /Helvetica FF [18 0 0 -18 0 0] MS
            (Outputs) SH
      GR
   GR

% POLYGON/CLOSED-SPLINE
0 SG
NP
   540 1004 M
   568 940 L
   672 940 L
   648 1004 L
CP
GS
GR
GS
   2 W
   S
GR

% POLY/OPEN-SPLINE
0 SG
GS
   NP
      564 644 M
      64 -28 atan DU cos 10.000 MU 536 exch SU
      exch sin 10.000 MU 708 exch SU L
   TGSM
   2 W
   S
   1 W
GR
GS
   TGSM
   NP
      536 708 10.000 4.000 -28 64 TGAT
   1 SG CP F
   0 SG
   NP
      536 708 10.000 4.000 -28 64 TGAT
   CP F
GR

% POLY/OPEN-SPLINE
0 SG
GS
   NP
      416 768 M
      12 -32 atan DU cos 10.000 MU 384 exch SU
      exch sin 10.000 MU 780 exch SU L
   TGSM
   2 W
   S
   1 W
GR
GS
   TGSM
   NP
      384 780 10.000 4.000 -32 12 TGAT
   1 SG CP F
   0 SG
   NP
      384 780 10.000 4.000 -32 12 TGAT
   CP F
GR

% POLY/OPEN-SPLINE
0 SG
GS
   NP
      596 676 M
      32 -28 atan DU cos 10.000 MU 568 exch SU
      exch sin 10.000 MU 708 exch SU L
   TGSM
   2 W
   S
   1 W
GR
GS
   TGSM
   NP
      568 708 10.000 4.000 -28 32 TGAT
   1 SG CP F
   0 SG
   NP
      568 708 10.000 4.000 -28 32 TGAT
   CP F
GR

% POLY/OPEN-SPLINE
0 SG
GS
   NP
      480 640 M
      68 0 atan DU cos 10.000 MU 480 exch SU
      exch sin 10.000 MU 708 exch SU L
   TGSM
   2 W
   S
   1 W
GR
GS
   TGSM
   NP
      480 708 10.000 4.000 0 68 TGAT
   1 SG CP F
   0 SG
   NP
      480 708 10.000 4.000 0 68 TGAT
   CP F
GR

% TEXT
NP
0 SG
   GS
      1 W
      664 784 M
      GS
        GS
        0
            /Helvetica FF [18 0 0 -18 0 0] MS
            (Visual) TGSW 
        AD
        GR
      2 DI NE 0 RM
            0 SG
            /Helvetica FF [18 0 0 -18 0 0] MS
            (Visual) SH
      GR
      0 22 RM
      GS
        GS
        0
            /Helvetica FF [18 0 0 -18 0 0] MS
            (Plot) TGSW 
        AD
        GR
      2 DI NE 0 RM
            0 SG
            /Helvetica FF [18 0 0 -18 0 0] MS
            (Plot) SH
      GR
   GR

% POLYGON/CLOSED-SPLINE
0 SG
NP
   600 816 M
   628 752 L
   732 752 L
   708 816 L
CP
GS
GR
GS
   2 W
   S
GR

% POLY/OPEN-SPLINE
0 SG
GS
   NP
      588 748 M
      28 28 atan DU cos 10.000 MU 616 exch SU
      exch sin 10.000 MU 776 exch SU L
   TGSM
   2 W
   S
   1 W
GR
GS
   TGSM
   NP
      616 776 10.000 4.000 28 28 TGAT
   1 SG CP F
   0 SG
   NP
      616 776 10.000 4.000 28 28 TGAT
   CP F
GR

% TEXT
NP
0 SG
   GS
      1 W
      332 772 M
      GS
        GS
        0
            /Helvetica FF [18 0 0 -18 0 0] MS
            (Resource) TGSW 
        AD
        GR
      2 DI NE 0 RM
            0 SG
            /Helvetica FF [18 0 0 -18 0 0] MS
            (Resource) SH
      GR
      0 22 RM
      GS
        GS
        0
            /Helvetica FF [18 0 0 -18 0 0] MS
            (Summary) TGSW 
        AD
        GR
      2 DI NE 0 RM
            0 SG
            /Helvetica FF [18 0 0 -18 0 0] MS
            (Summary) SH
      GR
   GR

% POLYGON/CLOSED-SPLINE
0 SG
NP
   268 804 M
   296 740 L
   400 740 L
   376 804 L
CP
GS
GR
GS
   2 W
   S
GR

% OVAL
0 SG
GS
   GS
      NP 352 644 68 40 TGEL
      2 W
      S
   GR
GR

% OVAL
0 SG
GS
   GS
      NP 480 600 68 40 TGEL
      2 W
      S
   GR
GR

% POLY/OPEN-SPLINE
0 SG
GS
   NP
      400 676 M
      32 32 atan DU cos 10.000 MU 432 exch SU
      exch sin 10.000 MU 708 exch SU L
   TGSM
   2 W
   S
   1 W
GR
GS
   TGSM
   NP
      432 708 10.000 4.000 32 32 TGAT
   1 SG CP F
   0 SG
   NP
      432 708 10.000 4.000 32 32 TGAT
   CP F
GR

% TEXT
NP
0 SG
   GS
      1 W
      632 600 M
      GS
        GS
        0
            /Helvetica FF [18 0 0 -18 0 0] MS
            (Subsidiary) TGSW 
        AD
        GR
      2 DI NE 0 RM
            0 SG
            /Helvetica FF [18 0 0 -18 0 0] MS
            (Subsidiary) SH
      GR
      0 22 RM
      GS
        GS
        0
            /Helvetica FF [18 0 0 -18 0 0] MS
            (IP Blocks) TGSW 
        AD
        GR
      2 DI NE 0 RM
            0 SG
            /Helvetica FF [18 0 0 -18 0 0] MS
            (IP Blocks) SH
      GR
   GR

% TEXT
NP
0 SG
   GS
      1 W
      668 684 M
      GS
        GS
        0
            /Helvetica FF [18 0 0 -18 0 0] MS
            (Library) TGSW 
        AD
        GR
      2 DI NE 0 RM
            0 SG
            /Helvetica FF [18 0 0 -18 0 0] MS
            (Library) SH
      GR
      0 22 RM
      GS
        GS
        0
            /Helvetica FF [18 0 0 -18 0 0] MS
            (IP Blocks) TGSW 
        AD
        GR
      2 DI NE 0 RM
            0 SG
            /Helvetica FF [18 0 0 -18 0 0] MS
            (IP Blocks) SH
      GR
   GR

% POLY/OPEN-SPLINE
0 SG
GS
   NP
      672 944 M
      680 944 L
      656 1012 L
      548 1012 L
      552 1004 L
   TGSM
   2 W
   S
   1 W
GR

% POLY/OPEN-SPLINE
0 SG
GS
   NP
      676 952 M
      684 952 L
      660 1020 L
      552 1020 L
      556 1012 L
   TGSM
   2 W
   S
   1 W
GR

% BOX
0 SG
GS
   10 SM
   GS
      NP 600 652 M 736 652 L 736 720 L 600 720 L CP
      S
   GR
GR

% POLY/OPEN-SPLINE
0 SG
GS
   NP
      604 720 M
      604 724 L
      740 724 L
      740 656 L
      736 656 L
      736 668 L
      736 656 L
   TGSM
   1 W
   S
GR

% POLY/OPEN-SPLINE
0 SG
GS
   NP
      608 724 M
      608 728 L
      744 728 L
      744 660 L
      740 660 L
      740 672 L
      740 660 L
   TGSM
   1 W
   S
GR

% POLY/OPEN-SPLINE
0 SG
GS
   NP
      448 788 M
      44 0 atan DU cos 10.000 MU 448 exch SU
      exch sin 10.000 MU 832 exch SU L
   TGSM
   2 W
   S
   1 W
GR
GS
   TGSM
   NP
      448 832 10.000 4.000 0 44 TGAT
   1 SG CP F
   0 SG
   NP
      448 832 10.000 4.000 0 44 TGAT
   CP F
GR

% TEXT
NP
0 SG
   GS
      1 W
      612 864 M
      GS
        GS
        0
            /Helvetica FF [18 0 0 -18 0 0] MS
            (System Integrator) TGSW 
        AD
        GR
      2 DI NE 0 RM
            0 SG
            /Helvetica FF [18 0 0 -18 0 0] MS
            (System Integrator) SH
      GR
      0 22 RM
      GS
        GS
        0
            /Helvetica FF [18 0 0 -18 0 0] MS
            (Wiring Generator) TGSW 
        AD
        GR
      2 DI NE 0 RM
            0 SG
            /Helvetica FF [18 0 0 -18 0 0] MS
            (Wiring Generator) SH
      GR
   GR

% RCBOX
0 SG
GS
   GS
      NP
         684 832 M
         700 832 700 912 16 AR
         700 896 L
         700 912 528 912 16 AR
         544 912 L
         528 912 528 832 16 AR
         528 848 L
         528 832 700 832 16 AR
      CP
      2 W
      S
   GR
GR

% POLY/OPEN-SPLINE
0 SG
GS
   NP
      564 788 M
      44 0 atan DU cos 10.000 MU 564 exch SU
      exch sin 10.000 MU 832 exch SU L
   TGSM
   2 W
   S
   1 W
GR
GS
   TGSM
   NP
      564 832 10.000 4.000 0 44 TGAT
   1 SG CP F
   0 SG
   NP
      564 832 10.000 4.000 0 44 TGAT
   CP F
GR

GR
tgifsavedpage restore
end
showpage

%%Trailer
%MatchingCreationDate: Tue Jul  4 11:41:19 2017
%%DocumentFonts: Helvetica
%%EOF
