%!PS-Adobe-3.0 EPSF-3.0
%%Creator: graphviz version 2.34.0 (20141125.1709)
%%Title: system_integrator_roger
%%Pages: 1
%%BoundingBox: 36 36 1210 1286
%%EndComments
save
%%BeginProlog
/DotDict 200 dict def
DotDict begin

/setupLatin1 {
mark
/EncodingVector 256 array def
 EncodingVector 0

ISOLatin1Encoding 0 255 getinterval putinterval
EncodingVector 45 /hyphen put

% Set up ISO Latin 1 character encoding
/starnetISO {
        dup dup findfont dup length dict begin
        { 1 index /FID ne { def }{ pop pop } ifelse
        } forall
        /Encoding EncodingVector def
        currentdict end definefont
} def
/Times-Roman starnetISO def
/Times-Italic starnetISO def
/Times-Bold starnetISO def
/Times-BoldItalic starnetISO def
/Helvetica starnetISO def
/Helvetica-Oblique starnetISO def
/Helvetica-Bold starnetISO def
/Helvetica-BoldOblique starnetISO def
/Courier starnetISO def
/Courier-Oblique starnetISO def
/Courier-Bold starnetISO def
/Courier-BoldOblique starnetISO def
cleartomark
} bind def

%%BeginResource: procset graphviz 0 0
/coord-font-family /Times-Roman def
/default-font-family /Times-Roman def
/coordfont coord-font-family findfont 8 scalefont def

/InvScaleFactor 1.0 def
/set_scale {
       dup 1 exch div /InvScaleFactor exch def
       scale
} bind def

% styles
/solid { [] 0 setdash } bind def
/dashed { [9 InvScaleFactor mul dup ] 0 setdash } bind def
/dotted { [1 InvScaleFactor mul 6 InvScaleFactor mul] 0 setdash } bind def
/invis {/fill {newpath} def /stroke {newpath} def /show {pop newpath} def} bind def
/bold { 2 setlinewidth } bind def
/filled { } bind def
/unfilled { } bind def
/rounded { } bind def
/diagonals { } bind def
/tapered { } bind def

% hooks for setting color 
/nodecolor { sethsbcolor } bind def
/edgecolor { sethsbcolor } bind def
/graphcolor { sethsbcolor } bind def
/nopcolor {pop pop pop} bind def

/beginpage {	% i j npages
	/npages exch def
	/j exch def
	/i exch def
	/str 10 string def
	npages 1 gt {
		gsave
			coordfont setfont
			0 0 moveto
			(\() show i str cvs show (,) show j str cvs show (\)) show
		grestore
	} if
} bind def

/set_font {
	findfont exch
	scalefont setfont
} def

% draw text fitted to its expected width
/alignedtext {			% width text
	/text exch def
	/width exch def
	gsave
		width 0 gt {
			[] 0 setdash
			text stringwidth pop width exch sub text length div 0 text ashow
		} if
	grestore
} def

/boxprim {				% xcorner ycorner xsize ysize
		4 2 roll
		moveto
		2 copy
		exch 0 rlineto
		0 exch rlineto
		pop neg 0 rlineto
		closepath
} bind def

/ellipse_path {
	/ry exch def
	/rx exch def
	/y exch def
	/x exch def
	matrix currentmatrix
	newpath
	x y translate
	rx ry scale
	0 0 1 0 360 arc
	setmatrix
} bind def

/endpage { showpage } bind def
/showpage { } def

/layercolorseq
	[	% layer color sequence - darkest to lightest
		[0 0 0]
		[.2 .8 .8]
		[.4 .8 .8]
		[.6 .8 .8]
		[.8 .8 .8]
	]
def

/layerlen layercolorseq length def

/setlayer {/maxlayer exch def /curlayer exch def
	layercolorseq curlayer 1 sub layerlen mod get
	aload pop sethsbcolor
	/nodecolor {nopcolor} def
	/edgecolor {nopcolor} def
	/graphcolor {nopcolor} def
} bind def

/onlayer { curlayer ne {invis} if } def

/onlayers {
	/myupper exch def
	/mylower exch def
	curlayer mylower lt
	curlayer myupper gt
	or
	{invis} if
} def

/curlayer 0 def

%%EndResource
%%EndProlog
%%BeginSetup
14 default-font-family set_font
1 setmiterlimit
% /arrowlength 10 def
% /arrowwidth 5 def

% make sure pdfmark is harmless for PS-interpreters other than Distiller
/pdfmark where {pop} {userdict /pdfmark /cleartomark load put} ifelse
% make '<<' and '>>' safe on PS Level 1 devices
/languagelevel where {pop languagelevel}{1} ifelse
2 lt {
    userdict (<<) cvn ([) cvn load put
    userdict (>>) cvn ([) cvn load put
} if

%%EndSetup
setupLatin1
%%Page: 1 1
%%PageBoundingBox: 36 36 1210 1286
%%PageOrientation: Portrait
0 0 1 beginpage
gsave
36 36 1174 1250 boxprim clip newpath
1 1 set_scale 0 rotate 40 40 translate
% cluster_chip1
gsave
1 setlinewidth
0 0 0 graphcolor
newpath 8 565 moveto
8 1234 lineto
1108 1234 lineto
1108 565 lineto
closepath stroke
0 0 0 graphcolor
14 /Times-Roman set_font
542.5 1218.8 moveto 31 (chip1) alignedtext
grestore
% cluster_chip2
gsave
1 setlinewidth
0 0 0 graphcolor
newpath 507 8 moveto
507 531 lineto
1104 531 lineto
1104 8 lineto
closepath stroke
0 0 0 graphcolor
14 /Times-Roman set_font
790 515.8 moveto 31 (chip2) alignedtext
grestore
% chip1
gsave
1 setlinewidth
0 0.7451 0.64706 nodecolor
newpath 1100 1203 moveto
982 1203 lineto
982 1085 lineto
1100 1085 lineto
closepath stroke
0 0 0 nodecolor
14 /Times-Roman set_font
990 1140.3 moveto 102 (Layout zone chip1) alignedtext
grestore
% axi410_mux
gsave
1 setlinewidth
0.33333 1 1 nodecolor
newpath 783.5 834 moveto
783.5 918 lineto
920.5 918 lineto
920.5 834 lineto
closepath stroke
0 0 0 nodecolor
14 /Times-Roman set_font
817.5 902.8 moveto 69 (axi410_mux) alignedtext
0 0 0 nodecolor
14 /Times-Roman set_font
791.5 887.8 moveto 121 (concen_2_axi4_MUX) alignedtext
1 setlinewidth
0.33333 1 1 nodecolor
newpath 783.5 880 moveto
920.5 880 lineto
stroke
0 0 0 nodecolor
14 /Times-Roman set_font
796 864.8 moveto 56 (childport0) alignedtext
1 setlinewidth
0.33333 1 1 nodecolor
newpath 783.5 857 moveto
864.5 857 lineto
stroke
0 0 0 nodecolor
14 /Times-Roman set_font
796 841.8 moveto 56 (childport1) alignedtext
1 setlinewidth
0.33333 1 1 nodecolor
newpath 864.5 834 moveto
864.5 880 lineto
stroke
0 0 0 nodecolor
14 /Times-Roman set_font
877.5 853.3 moveto 30 (focus) alignedtext
grestore
% axi412_mux
gsave
1 setlinewidth
0.33333 1 1 nodecolor
newpath 671.5 696 moveto
671.5 780 lineto
808.5 780 lineto
808.5 696 lineto
closepath stroke
0 0 0 nodecolor
14 /Times-Roman set_font
705.5 764.8 moveto 69 (axi412_mux) alignedtext
0 0 0 nodecolor
14 /Times-Roman set_font
679.5 749.8 moveto 121 (concen_2_axi4_MUX) alignedtext
1 setlinewidth
0.33333 1 1 nodecolor
newpath 671.5 742 moveto
808.5 742 lineto
stroke
0 0 0 nodecolor
14 /Times-Roman set_font
684 726.8 moveto 56 (childport0) alignedtext
1 setlinewidth
0.33333 1 1 nodecolor
newpath 671.5 719 moveto
752.5 719 lineto
stroke
0 0 0 nodecolor
14 /Times-Roman set_font
684 703.8 moveto 56 (childport1) alignedtext
1 setlinewidth
0.33333 1 1 nodecolor
newpath 752.5 696 moveto
752.5 742 lineto
stroke
0 0 0 nodecolor
14 /Times-Roman set_font
765.5 715.3 moveto 30 (focus) alignedtext
grestore
% axi410_mux->axi412_mux
gsave
1 setlinewidth
0 0 0 edgecolor
newpath 893 833 moveto
893 811.94 878.98 808.12 860 799 curveto
822.07 780.78 699.81 812.14 671.5 781 curveto
646.09 753.05 645.12 723.04 671.5 696 curveto
675.72 691.67 692.55 688.64 703.14 689.85 curveto
stroke
0 0 0 edgecolor
newpath 701.6 693 moveto
712 695 lineto
705.11 686.95 lineto
closepath fill
1 setlinewidth
solid
0 0 0 edgecolor
newpath 701.6 693 moveto
712 695 lineto
705.11 686.95 lineto
closepath stroke
0 0 0 edgecolor
14 /Times-Roman set_font
886 803.3 moveto 120 (axi410.MUX.MUXi1) alignedtext
grestore
% ONE_to_TWOlanding
gsave
1 setlinewidth
0.66667 1 1 nodecolor
newpath 724.5 573.5 moveto
724.5 642.5 lineto
837.5 642.5 lineto
837.5 573.5 lineto
closepath stroke
0 0 0 nodecolor
14 /Times-Roman set_font
741.5 627.3 moveto 79 (ONE-to-TWO) alignedtext
1 setlinewidth
0.66667 1 1 nodecolor
newpath 724.5 619.5 moveto
837.5 619.5 lineto
stroke
0 0 0 nodecolor
14 /Times-Roman set_font
763 604.3 moveto 36 (PortM) alignedtext
1 setlinewidth
0.66667 1 1 nodecolor
newpath 724.5 596.5 moveto
837.5 596.5 lineto
stroke
0 0 0 nodecolor
14 /Times-Roman set_font
732.5 581.3 moveto 97 (STATIC BLOCK) alignedtext
grestore
% axi412_mux->ONE_to_TWOlanding
gsave
1 setlinewidth
0 0 0 edgecolor
newpath 781 695 moveto
781 681.28 781 666.34 781 652.78 curveto
stroke
0 0 0 edgecolor
newpath 784.5 652.71 moveto
781 642.71 lineto
777.5 652.71 lineto
closepath fill
1 setlinewidth
solid
0 0 0 edgecolor
newpath 784.5 652.71 moveto
781 642.71 lineto
777.5 652.71 lineto
closepath stroke
0 0 0 edgecolor
14 /Times-Roman set_font
781 665.3 moveto 73 (axi412.MUX) alignedtext
grestore
% chassoc20_adt_near_0
gsave
1 setlinewidth
0 0.7451 0.64706 nodecolor
newpath 699.5 971.5 moveto
699.5 1032.5 lineto
882.5 1032.5 lineto
882.5 971.5 lineto
closepath stroke
0 0 0 nodecolor
14 /Times-Roman set_font
729.5 1017.3 moveto 123 (chassoc20_adt_near_0) alignedtext
0 0 0 nodecolor
14 /Times-Roman set_font
707.5 1002.3 moveto 167 (adaptor-loadstore10-axi_puber) alignedtext
1 setlinewidth
0 0.7451 0.64706 nodecolor
newpath 699.5 994.5 moveto
882.5 994.5 lineto
stroke
0 0 0 nodecolor
14 /Times-Roman set_font
721 979.3 moveto 52 (port-right) alignedtext
1 setlinewidth
0 0.7451 0.64706 nodecolor
newpath 794.5 971.5 moveto
794.5 994.5 lineto
stroke
0 0 0 nodecolor
14 /Times-Roman set_font
816 979.3 moveto 45 (port-left) alignedtext
grestore
% chassoc20_adt_near_0->axi410_mux
gsave
1 setlinewidth
0 0 0 edgecolor
newpath 839 971 moveto
839 935.86 783.84 980.53 762 953 curveto
757.58 947.43 761 944.04 762 937 curveto
762.86 930.92 769.51 893.34 776.17 876.34 curveto
stroke
0 0 0 edgecolor
newpath 779.14 878.2 moveto
782 868 lineto
773.4 874.19 lineto
closepath fill
1 setlinewidth
solid
0 0 0 edgecolor
newpath 779.14 878.2 moveto
782 868 lineto
773.4 874.19 lineto
closepath stroke
0 0 0 edgecolor
14 /Times-Roman set_font
762 941.3 moveto 158 (chassoc20.LN.0.NY.MUXi0) alignedtext
grestore
% chassoc24_adt_near_0
gsave
1 setlinewidth
0 0.7451 0.64706 nodecolor
newpath 900.5 971.5 moveto
900.5 1032.5 lineto
1039.5 1032.5 lineto
1039.5 971.5 lineto
closepath stroke
0 0 0 nodecolor
14 /Times-Roman set_font
908.5 1017.3 moveto 123 (chassoc24_adt_near_0) alignedtext
0 0 0 nodecolor
14 /Times-Roman set_font
915 1002.3 moveto 110 (adaptor33-axi_unter) alignedtext
1 setlinewidth
0 0.7451 0.64706 nodecolor
newpath 900.5 994.5 moveto
1039.5 994.5 lineto
stroke
0 0 0 nodecolor
14 /Times-Roman set_font
911 979.3 moveto 45 (port-left) alignedtext
1 setlinewidth
0 0.7451 0.64706 nodecolor
newpath 966.5 971.5 moveto
966.5 994.5 lineto
stroke
0 0 0 nodecolor
14 /Times-Roman set_font
977 979.3 moveto 52 (port-right) alignedtext
grestore
% chassoc24_adt_near_0->axi410_mux
gsave
1 setlinewidth
0 0 0 edgecolor
newpath 1003 971 moveto
1003 931.14 958.52 947.25 920 937 curveto
890.43 929.14 803.67 942.01 783.5 919 curveto
758.59 890.59 757.12 861.04 783.5 834 curveto
787.72 829.67 804.55 826.64 815.14 827.85 curveto
stroke
0 0 0 edgecolor
newpath 813.6 831 moveto
824 833 lineto
817.11 824.95 lineto
closepath fill
1 setlinewidth
solid
0 0 0 edgecolor
newpath 813.6 831 moveto
824 833 lineto
817.11 824.95 lineto
closepath stroke
0 0 0 edgecolor
14 /Times-Roman set_font
997 941.3 moveto 158 (chassoc24.LN.0.NY.MUXi1) alignedtext
grestore
% chassoc26_adt_near_0
gsave
1 setlinewidth
0 0.7451 0.64706 nodecolor
newpath 572.5 845.5 moveto
572.5 906.5 lineto
755.5 906.5 lineto
755.5 845.5 lineto
closepath stroke
0 0 0 nodecolor
14 /Times-Roman set_font
602.5 891.3 moveto 123 (chassoc26_adt_near_0) alignedtext
0 0 0 nodecolor
14 /Times-Roman set_font
580.5 876.3 moveto 167 (adaptor-loadstore10-axi_puber) alignedtext
1 setlinewidth
0 0.7451 0.64706 nodecolor
newpath 572.5 868.5 moveto
755.5 868.5 lineto
stroke
0 0 0 nodecolor
14 /Times-Roman set_font
594 853.3 moveto 52 (port-right) alignedtext
1 setlinewidth
0 0.7451 0.64706 nodecolor
newpath 667.5 845.5 moveto
667.5 868.5 lineto
stroke
0 0 0 nodecolor
14 /Times-Roman set_font
689 853.3 moveto 45 (port-left) alignedtext
grestore
% chassoc26_adt_near_0->axi412_mux
gsave
1 setlinewidth
0 0 0 edgecolor
newpath 712 844 moveto
712 810.59 680.82 812.93 671 781 curveto
665.74 763.9 654.04 742.03 660.48 733.57 curveto
stroke
0 0 0 edgecolor
newpath 661.86 736.79 moveto
670 730 lineto
659.41 730.23 lineto
closepath fill
1 setlinewidth
solid
0 0 0 edgecolor
newpath 661.86 736.79 moveto
670 730 lineto
659.41 730.23 lineto
closepath stroke
0 0 0 edgecolor
14 /Times-Roman set_font
698 803.3 moveto 158 (chassoc26.LN.0.NY.MUXi0) alignedtext
grestore
% _top_primary_IP_block
gsave
1 setlinewidth
0 0 0 nodecolor
newpath 768.5 1090.5 moveto
768.5 1197.5 lineto
963.5 1197.5 lineto
963.5 1090.5 lineto
closepath stroke
0 0 0 nodecolor
14 /Times-Roman set_font
801 1182.3 moveto 130 (*top-primary-IP-block*) alignedtext
0 0 0 nodecolor
14 /Times-Roman set_font
846 1167.3 moveto 40 (primex) alignedtext
1 setlinewidth
0 0 0 nodecolor
newpath 768.5 1159.5 moveto
963.5 1159.5 lineto
stroke
0 0 0 nodecolor
14 /Times-Roman set_font
800.5 1144.3 moveto 64 (bram33port) alignedtext
1 setlinewidth
0 0 0 nodecolor
newpath 768.5 1136.5 moveto
896.5 1136.5 lineto
stroke
0 0 0 nodecolor
14 /Times-Roman set_font
782 1121.3 moveto 101 (loadstore10m-port) alignedtext
1 setlinewidth
0 0 0 nodecolor
newpath 768.5 1113.5 moveto
896.5 1113.5 lineto
stroke
0 0 0 nodecolor
14 /Times-Roman set_font
776.5 1098.3 moveto 112 (subsa0-master-port0) alignedtext
1 setlinewidth
0 0 0 nodecolor
newpath 896.5 1090.5 moveto
896.5 1159.5 lineto
stroke
0 0 0 nodecolor
14 /Times-Roman set_font
904.5 1121.3 moveto 51 (dir12port) alignedtext
grestore
% _top_primary_IP_block->chassoc20_adt_near_0
gsave
1 setlinewidth
0 0 0 edgecolor
newpath 767 1125 moveto
757.94 1125 763.54 1092.84 759 1085 curveto
741.4 1054.61 714.02 1064.98 699.5 1033 curveto
693.8 1020.46 689.86 980.84 699.5 971 curveto
704.75 965.64 726.54 962.06 738.7 964.23 curveto
stroke
0 0 0 edgecolor
newpath 736.79 967.16 moveto
747 970 lineto
740.79 961.42 lineto
closepath fill
1 setlinewidth
solid
0 0 0 edgecolor
newpath 736.79 967.16 moveto
747 970 lineto
740.79 961.42 lineto
closepath stroke
0 0 0 edgecolor
14 /Times-Roman set_font
742 1055.3 moveto 112 (chassoc20.LN.0.NX) alignedtext
grestore
% _top_primary_IP_block->chassoc24_adt_near_0
gsave
1 setlinewidth
0 0 0 edgecolor
newpath 930 1089 moveto
930 1060.76 907.15 1060.32 900 1033 curveto
898.02 1025.44 892.84 1003.79 893.8 991.6 curveto
stroke
0 0 0 edgecolor
newpath 896.82 993.37 moveto
899 983 lineto
890.83 989.75 lineto
closepath fill
1 setlinewidth
solid
0 0 0 edgecolor
newpath 896.82 993.37 moveto
899 983 lineto
890.83 989.75 lineto
closepath stroke
0 0 0 edgecolor
14 /Times-Roman set_font
922 1055.3 moveto 112 (chassoc24.LN.0.NX) alignedtext
grestore
% fortopprimaryIPblock12
gsave
1 setlinewidth
0 0 0 nodecolor
newpath 279.5 971.5 moveto
279.5 1032.5 lineto
428.5 1032.5 lineto
428.5 971.5 lineto
closepath stroke
0 0 0 nodecolor
14 /Times-Roman set_font
287.5 1017.3 moveto 133 (fortopprimaryIPblock12) alignedtext
0 0 0 nodecolor
14 /Times-Roman set_font
300 1002.3 moveto 108 (example_BRAM44) alignedtext
1 setlinewidth
0 0 0 nodecolor
newpath 279.5 994.5 moveto
428.5 994.5 lineto
stroke
0 0 0 nodecolor
14 /Times-Roman set_font
304 979.3 moveto 100 (BRAM-slave-port) alignedtext
grestore
% _top_primary_IP_block->fortopprimaryIPblock12
gsave
1 setlinewidth
0 0 0 edgecolor
newpath 767 1148 moveto
752.89 1148 769.27 1094.68 759 1085 curveto
737.28 1064.53 519.34 1076.35 491 1067 curveto
464.42 1058.23 453.33 1056.42 438 1033 curveto
433.62 1026.31 437.11 1003.86 435.45 991.44 curveto
stroke
0 0 0 edgecolor
newpath 438.37 989.5 moveto
430 983 lineto
432.49 993.3 lineto
closepath fill
1 setlinewidth
solid
0 0 0 edgecolor
newpath 438.37 989.5 moveto
430 983 lineto
432.49 993.3 lineto
closepath stroke
0 0 0 edgecolor
14 /Times-Roman set_font
491 1055.3 moveto 56 (chassoc22) alignedtext
grestore
% fortopprimaryIPblock16
gsave
1 setlinewidth
0 0 0 nodecolor
newpath 447 971.5 moveto
447 1032.5 lineto
681 1032.5 lineto
681 971.5 lineto
closepath stroke
0 0 0 nodecolor
14 /Times-Roman set_font
497.5 1017.3 moveto 133 (fortopprimaryIPblock16) alignedtext
0 0 0 nodecolor
14 /Times-Roman set_font
532 1002.3 moveto 64 (primsubs55) alignedtext
1 setlinewidth
0 0 0 nodecolor
newpath 447 994.5 moveto
681 994.5 lineto
stroke
0 0 0 nodecolor
14 /Times-Roman set_font
455 979.3 moveto 96 (subsa0-slave-port) alignedtext
1 setlinewidth
0 0 0 nodecolor
newpath 559 971.5 moveto
559 994.5 lineto
stroke
0 0 0 nodecolor
14 /Times-Roman set_font
567 979.3 moveto 106 (loadstore10-m-port) alignedtext
grestore
% _top_primary_IP_block->fortopprimaryIPblock16
gsave
1 setlinewidth
0 0 0 edgecolor
newpath 767 1102 moveto
758.65 1102 765.66 1090.04 759 1085 curveto
752 1079.7 452.68 1039.7 447 1033 curveto
438.09 1022.49 437.35 980.83 447 971 curveto
453.47 964.41 481.19 960.2 495.04 963.55 curveto
stroke
0 0 0 edgecolor
newpath 493.03 966.42 moveto
503 970 lineto
497.44 960.98 lineto
closepath fill
1 setlinewidth
solid
0 0 0 edgecolor
newpath 493.03 966.42 moveto
503 970 lineto
497.44 960.98 lineto
closepath stroke
0 0 0 edgecolor
14 /Times-Roman set_font
647 1055.3 moveto 56 (chassoc18) alignedtext
grestore
% fortopprimaryIPblock16->chassoc26_adt_near_0
gsave
1 setlinewidth
0 0 0 edgecolor
newpath 620 971 moveto
620 935.58 583.62 940.63 572.5 907 curveto
563.85 880.84 553.22 864.69 572.5 845 curveto
577.75 839.64 599.54 836.06 611.7 838.23 curveto
stroke
0 0 0 edgecolor
newpath 609.79 841.16 moveto
620 844 lineto
613.79 835.42 lineto
closepath fill
1 setlinewidth
solid
0 0 0 edgecolor
newpath 609.79 841.16 moveto
620 844 lineto
613.79 835.42 lineto
closepath stroke
0 0 0 edgecolor
14 /Times-Roman set_font
615 941.3 moveto 112 (chassoc26.LN.0.NX) alignedtext
grestore
% axi412_demux
gsave
1 setlinewidth
0.33333 1 1 nodecolor
newpath 749.5 399 moveto
749.5 483 lineto
904.5 483 lineto
904.5 399 lineto
closepath stroke
0 0 0 nodecolor
14 /Times-Roman set_font
786 467.8 moveto 82 (axi412_demux) alignedtext
0 0 0 nodecolor
14 /Times-Roman set_font
757.5 452.8 moveto 139 (concen_2_axi4_DEMUX) alignedtext
1 setlinewidth
0.33333 1 1 nodecolor
newpath 749.5 445 moveto
904.5 445 lineto
stroke
0 0 0 nodecolor
14 /Times-Roman set_font
766.5 418.3 moveto 30 (focus) alignedtext
1 setlinewidth
0.33333 1 1 nodecolor
newpath 813.5 399 moveto
813.5 445 lineto
stroke
0 0 0 nodecolor
14 /Times-Roman set_font
831 429.8 moveto 56 (childport0) alignedtext
1 setlinewidth
0.33333 1 1 nodecolor
newpath 813.5 422 moveto
904.5 422 lineto
stroke
0 0 0 nodecolor
14 /Times-Roman set_font
831 406.8 moveto 56 (childport1) alignedtext
grestore
% ONE_to_TWOlanding->axi412_demux
gsave
1 setlinewidth
0 0 0 edgecolor
newpath 839 608 moveto
854.56 608 844.16 587.29 838 573 curveto
815.86 521.63 770.82 535.51 749 484 curveto
739.93 462.59 725.83 433.17 738.2 424.5 curveto
stroke
0 0 0 edgecolor
newpath 739.18 427.86 moveto
748 422 lineto
737.45 421.08 lineto
closepath fill
1 setlinewidth
solid
0 0 0 edgecolor
newpath 739.18 427.86 moveto
748 422 lineto
737.45 421.08 lineto
closepath stroke
0 0 0 edgecolor
14 /Times-Roman set_font
827 543.3 moveto 91 (axi412.DEMUX) alignedtext
grestore
% axi_m1
gsave
1 setlinewidth
0.66667 1 1 nodecolor
newpath 602 1109.5 moveto
602 1178.5 lineto
750 1178.5 lineto
750 1109.5 lineto
closepath stroke
0 0 0 nodecolor
14 /Times-Roman set_font
655 1163.3 moveto 42 (axi_m1) alignedtext
1 setlinewidth
0.66667 1 1 nodecolor
newpath 602 1155.5 moveto
750 1155.5 lineto
stroke
0 0 0 nodecolor
14 /Times-Roman set_font
610 1140.3 moveto 132 (axi4-static-master101p0) alignedtext
1 setlinewidth
0.66667 1 1 nodecolor
newpath 602 1132.5 moveto
750 1132.5 lineto
stroke
0 0 0 nodecolor
14 /Times-Roman set_font
627.5 1117.3 moveto 97 (STATIC BLOCK) alignedtext
grestore
% axi_m2
gsave
1 setlinewidth
0.66667 1 1 nodecolor
newpath 436 1109.5 moveto
436 1178.5 lineto
584 1178.5 lineto
584 1109.5 lineto
closepath stroke
0 0 0 nodecolor
14 /Times-Roman set_font
489 1163.3 moveto 42 (axi_m2) alignedtext
1 setlinewidth
0.66667 1 1 nodecolor
newpath 436 1155.5 moveto
584 1155.5 lineto
stroke
0 0 0 nodecolor
14 /Times-Roman set_font
444 1140.3 moveto 132 (axi4-static-master101p0) alignedtext
1 setlinewidth
0.66667 1 1 nodecolor
newpath 436 1132.5 moveto
584 1132.5 lineto
stroke
0 0 0 nodecolor
14 /Times-Roman set_font
461.5 1117.3 moveto 97 (STATIC BLOCK) alignedtext
grestore
% axi_s1
gsave
1 setlinewidth
0.66667 1 1 nodecolor
newpath 278.5 1109.5 moveto
278.5 1178.5 lineto
417.5 1178.5 lineto
417.5 1109.5 lineto
closepath stroke
0 0 0 nodecolor
14 /Times-Roman set_font
330 1163.3 moveto 36 (axi_s1) alignedtext
1 setlinewidth
0.66667 1 1 nodecolor
newpath 278.5 1155.5 moveto
417.5 1155.5 lineto
stroke
0 0 0 nodecolor
14 /Times-Roman set_font
286.5 1140.3 moveto 123 (axi4-static-slave202p0) alignedtext
1 setlinewidth
0.66667 1 1 nodecolor
newpath 278.5 1132.5 moveto
417.5 1132.5 lineto
stroke
0 0 0 nodecolor
14 /Times-Roman set_font
299.5 1117.3 moveto 97 (STATIC BLOCK) alignedtext
grestore
% TWO_to_ONElanding
gsave
1 setlinewidth
0.66667 1 1 nodecolor
newpath 147.5 1109.5 moveto
147.5 1178.5 lineto
260.5 1178.5 lineto
260.5 1109.5 lineto
closepath stroke
0 0 0 nodecolor
14 /Times-Roman set_font
164.5 1163.3 moveto 79 (TWO-to-ONE) alignedtext
1 setlinewidth
0.66667 1 1 nodecolor
newpath 147.5 1155.5 moveto
260.5 1155.5 lineto
stroke
0 0 0 nodecolor
14 /Times-Roman set_font
186 1140.3 moveto 36 (PortM) alignedtext
1 setlinewidth
0.66667 1 1 nodecolor
newpath 147.5 1132.5 moveto
260.5 1132.5 lineto
stroke
0 0 0 nodecolor
14 /Times-Roman set_font
155.5 1117.3 moveto 97 (STATIC BLOCK) alignedtext
grestore
% ONE_to_TWOlaunch
gsave
1 setlinewidth
0.66667 1 1 nodecolor
newpath 16.5 1109.5 moveto
16.5 1178.5 lineto
129.5 1178.5 lineto
129.5 1109.5 lineto
closepath stroke
0 0 0 nodecolor
14 /Times-Roman set_font
33.5 1163.3 moveto 79 (ONE-to-TWO) alignedtext
1 setlinewidth
0.66667 1 1 nodecolor
newpath 16.5 1155.5 moveto
129.5 1155.5 lineto
stroke
0 0 0 nodecolor
14 /Times-Roman set_font
57.5 1140.3 moveto 31 (PortS) alignedtext
1 setlinewidth
0.66667 1 1 nodecolor
newpath 16.5 1132.5 moveto
129.5 1132.5 lineto
stroke
0 0 0 nodecolor
14 /Times-Roman set_font
24.5 1117.3 moveto 97 (STATIC BLOCK) alignedtext
grestore
% chip2
gsave
1 setlinewidth
0 0.7451 0.64706 nodecolor
newpath 1070 500 moveto
952 500 lineto
952 382 lineto
1070 382 lineto
closepath stroke
0 0 0 nodecolor
14 /Times-Roman set_font
960 437.3 moveto 102 (Layout zone chip2) alignedtext
grestore
% axi410_demux
gsave
1 setlinewidth
0.33333 1 1 nodecolor
newpath 645.5 245 moveto
645.5 329 lineto
800.5 329 lineto
800.5 245 lineto
closepath stroke
0 0 0 nodecolor
14 /Times-Roman set_font
682 313.8 moveto 82 (axi410_demux) alignedtext
0 0 0 nodecolor
14 /Times-Roman set_font
653.5 298.8 moveto 139 (concen_2_axi4_DEMUX) alignedtext
1 setlinewidth
0.33333 1 1 nodecolor
newpath 645.5 291 moveto
800.5 291 lineto
stroke
0 0 0 nodecolor
14 /Times-Roman set_font
662.5 264.3 moveto 30 (focus) alignedtext
1 setlinewidth
0.33333 1 1 nodecolor
newpath 709.5 245 moveto
709.5 291 lineto
stroke
0 0 0 nodecolor
14 /Times-Roman set_font
727 275.8 moveto 56 (childport0) alignedtext
1 setlinewidth
0.33333 1 1 nodecolor
newpath 709.5 268 moveto
800.5 268 lineto
stroke
0 0 0 nodecolor
14 /Times-Roman set_font
727 252.8 moveto 56 (childport1) alignedtext
grestore
% chassoc20_adt_far_0
gsave
1 setlinewidth
0 0.7451 0.64706 nodecolor
newpath 515.5 130.5 moveto
515.5 191.5 lineto
702.5 191.5 lineto
702.5 130.5 lineto
closepath stroke
0 0 0 nodecolor
14 /Times-Roman set_font
551.5 176.3 moveto 115 (chassoc20_adt_far_0) alignedtext
0 0 0 nodecolor
14 /Times-Roman set_font
523.5 161.3 moveto 171 (adaptor-loadstore10-axi_punter) alignedtext
1 setlinewidth
0 0.7451 0.64706 nodecolor
newpath 515.5 153.5 moveto
702.5 153.5 lineto
stroke
0 0 0 nodecolor
14 /Times-Roman set_font
538 138.3 moveto 45 (port-left) alignedtext
1 setlinewidth
0 0.7451 0.64706 nodecolor
newpath 605.5 130.5 moveto
605.5 153.5 lineto
stroke
0 0 0 nodecolor
14 /Times-Roman set_font
628 138.3 moveto 52 (port-right) alignedtext
grestore
% axi410_demux->chassoc20_adt_far_0
gsave
1 setlinewidth
0 0 0 edgecolor
newpath 802 279 moveto
809.78 279 806.38 249.62 801 244 curveto
763.43 204.7 607.49 246.17 557 226 curveto
513.83 208.76 483 163.24 515.5 130 curveto
520.31 125.08 539.94 121.74 551.46 123.48 curveto
stroke
0 0 0 edgecolor
newpath 549.7 126.51 moveto
560 129 lineto
553.5 120.63 lineto
closepath fill
1 setlinewidth
solid
0 0 0 edgecolor
newpath 549.7 126.51 moveto
560 129 lineto
553.5 120.63 lineto
closepath stroke
0 0 0 edgecolor
14 /Times-Roman set_font
557 214.3 moveto 172 (chassoc20.LF.0.FX.DEMUXi0) alignedtext
grestore
% chassoc24_adt_far_0
gsave
1 setlinewidth
0 0.7451 0.64706 nodecolor
newpath 720.5 130.5 moveto
720.5 191.5 lineto
851.5 191.5 lineto
851.5 130.5 lineto
closepath stroke
0 0 0 nodecolor
14 /Times-Roman set_font
728.5 176.3 moveto 115 (chassoc24_adt_far_0) alignedtext
0 0 0 nodecolor
14 /Times-Roman set_font
733 161.3 moveto 106 (adaptor33-axi_uber) alignedtext
1 setlinewidth
0 0.7451 0.64706 nodecolor
newpath 720.5 153.5 moveto
851.5 153.5 lineto
stroke
0 0 0 nodecolor
14 /Times-Roman set_font
729 138.3 moveto 52 (port-right) alignedtext
1 setlinewidth
0 0.7451 0.64706 nodecolor
newpath 789.5 130.5 moveto
789.5 153.5 lineto
stroke
0 0 0 nodecolor
14 /Times-Roman set_font
798 138.3 moveto 45 (port-left) alignedtext
grestore
% axi410_demux->chassoc24_adt_far_0
gsave
1 setlinewidth
0 0 0 edgecolor
newpath 755 244 moveto
755 226 743.16 224.86 733 210 curveto
727.43 201.85 723.13 201.36 720 192 curveto
717.52 184.59 712.54 162.88 713.66 150.64 curveto
stroke
0 0 0 edgecolor
newpath 716.73 152.35 moveto
719 142 lineto
710.77 148.67 lineto
closepath fill
1 setlinewidth
solid
0 0 0 edgecolor
newpath 716.73 152.35 moveto
719 142 lineto
710.77 148.67 lineto
closepath stroke
0 0 0 edgecolor
14 /Times-Roman set_font
747 214.3 moveto 172 (chassoc24.LF.0.FX.DEMUXi1) alignedtext
grestore
% axi412_demux->axi410_demux
gsave
1 setlinewidth
0 0 0 edgecolor
newpath 859 398 moveto
859 358.17 718.69 381.7 683 364 curveto
645.29 345.3 605.46 280.58 634.06 269.59 curveto
stroke
0 0 0 edgecolor
newpath 634.68 273.04 moveto
644 268 lineto
633.57 266.12 lineto
closepath fill
1 setlinewidth
solid
0 0 0 edgecolor
newpath 634.68 273.04 moveto
644 268 lineto
633.57 266.12 lineto
closepath stroke
0 0 0 edgecolor
14 /Times-Roman set_font
683 352.3 moveto 156 (axi410.DEMUX.DEMUXi1) alignedtext
grestore
% chassoc26_adt_far_0
gsave
1 setlinewidth
0 0.7451 0.64706 nodecolor
newpath 818.5 256.5 moveto
818.5 317.5 lineto
1005.5 317.5 lineto
1005.5 256.5 lineto
closepath stroke
0 0 0 nodecolor
14 /Times-Roman set_font
854.5 302.3 moveto 115 (chassoc26_adt_far_0) alignedtext
0 0 0 nodecolor
14 /Times-Roman set_font
826.5 287.3 moveto 171 (adaptor-loadstore10-axi_punter) alignedtext
1 setlinewidth
0 0.7451 0.64706 nodecolor
newpath 818.5 279.5 moveto
1005.5 279.5 lineto
stroke
0 0 0 nodecolor
14 /Times-Roman set_font
841 264.3 moveto 45 (port-left) alignedtext
1 setlinewidth
0 0.7451 0.64706 nodecolor
newpath 908.5 256.5 moveto
908.5 279.5 lineto
stroke
0 0 0 nodecolor
14 /Times-Roman set_font
931 264.3 moveto 52 (port-right) alignedtext
grestore
% axi412_demux->chassoc26_adt_far_0
gsave
1 setlinewidth
0 0 0 edgecolor
newpath 906 433 moveto
921.56 433 911.46 412.16 905 398 curveto
883.2 350.21 839.59 365.89 818 318 curveto
814.79 310.88 810.1 289.05 811.47 276.72 curveto
stroke
0 0 0 edgecolor
newpath 814.6 278.32 moveto
817 268 lineto
808.69 274.57 lineto
closepath fill
1 setlinewidth
solid
0 0 0 edgecolor
newpath 814.6 278.32 moveto
817 268 lineto
808.69 274.57 lineto
closepath stroke
0 0 0 edgecolor
14 /Times-Roman set_font
872 352.3 moveto 172 (chassoc26.LF.0.FX.DEMUXi0) alignedtext
grestore
% fortopprimaryIPblock14
gsave
1 setlinewidth
0 1 1 nodecolor
newpath 528 16.5 moveto
528 77.5 lineto
754 77.5 lineto
754 16.5 lineto
closepath stroke
0 0 0 nodecolor
14 /Times-Roman set_font
574.5 62.3 moveto 133 (fortopprimaryIPblock14) alignedtext
0 0 0 nodecolor
14 /Times-Roman set_font
556.5 47.3 moveto 169 (offchip-memory-service-shimr) alignedtext
1 setlinewidth
0 1 1 nodecolor
newpath 528 39.5 moveto
754 39.5 lineto
stroke
0 0 0 nodecolor
14 /Times-Roman set_font
536 24.3 moveto 160 (offchip-memory-service-port) alignedtext
1 setlinewidth
0 1 1 nodecolor
newpath 704 16.5 moveto
704 39.5 lineto
stroke
0 0 0 nodecolor
14 /Times-Roman set_font
712 24.3 moveto 34 (axiout) alignedtext
grestore
% chassoc20_adt_far_0->fortopprimaryIPblock14
gsave
1 setlinewidth
0 0 0 edgecolor
newpath 654 130 moveto
654 69.42 561.69 128.35 528 78 curveto
512.68 55.1 508.63 35.6 528 16 curveto
533.45 10.49 585.59 6.94 606.95 10.58 curveto
stroke
0 0 0 edgecolor
newpath 605.48 13.76 moveto
616 15 lineto
608.55 7.47 lineto
closepath fill
1 setlinewidth
solid
0 0 0 edgecolor
newpath 605.48 13.76 moveto
616 15 lineto
608.55 7.47 lineto
closepath stroke
0 0 0 edgecolor
14 /Times-Roman set_font
649 100.3 moveto 107 (chassoc20.LF.0.FY) alignedtext
grestore
% fortopprimaryIPblock10
gsave
1 setlinewidth
0 0 0 nodecolor
newpath 772 16.5 moveto
772 77.5 lineto
1078 77.5 lineto
1078 16.5 lineto
closepath stroke
0 0 0 nodecolor
14 /Times-Roman set_font
858.5 62.3 moveto 133 (fortopprimaryIPblock10) alignedtext
0 0 0 nodecolor
14 /Times-Roman set_font
888.5 47.3 moveto 73 (axi_dir_shim) alignedtext
1 setlinewidth
0 0 0 nodecolor
newpath 772 39.5 moveto
1078 39.5 lineto
stroke
0 0 0 nodecolor
14 /Times-Roman set_font
780 24.3 moveto 129 (dirshim-axi4-slave-port) alignedtext
1 setlinewidth
0 0 0 nodecolor
newpath 917 16.5 moveto
917 39.5 lineto
stroke
0 0 0 nodecolor
14 /Times-Roman set_font
925 24.3 moveto 145 (dirshim-directorate12-port) alignedtext
grestore
% chassoc24_adt_far_0->fortopprimaryIPblock10
gsave
1 setlinewidth
0 0 0 edgecolor
newpath 853 142 moveto
859.41 142 855.74 133.67 861 130 curveto
942.35 73.27 1016.58 155.87 1078 78 curveto
1095.06 56.36 1097.36 35.61 1078 16 curveto
1073.12 11.06 1027.04 7.8 1007.11 10.85 curveto
stroke
0 0 0 edgecolor
newpath 1005.65 7.67 moveto
998 15 lineto
1008.55 14.04 lineto
closepath fill
1 setlinewidth
solid
0 0 0 edgecolor
newpath 1005.65 7.67 moveto
998 15 lineto
1008.55 14.04 lineto
closepath stroke
0 0 0 edgecolor
14 /Times-Roman set_font
1059 100.3 moveto 107 (chassoc24.LF.0.FY) alignedtext
grestore
% forfortopprimaryIPblock1610
gsave
1 setlinewidth
0 1 1 nodecolor
newpath 870 130.5 moveto
870 191.5 lineto
1096 191.5 lineto
1096 130.5 lineto
closepath stroke
0 0 0 nodecolor
14 /Times-Roman set_font
902 176.3 moveto 162 (forfortopprimaryIPblock1610) alignedtext
0 0 0 nodecolor
14 /Times-Roman set_font
898.5 161.3 moveto 169 (offchip-memory-service-shimr) alignedtext
1 setlinewidth
0 1 1 nodecolor
newpath 870 153.5 moveto
1096 153.5 lineto
stroke
0 0 0 nodecolor
14 /Times-Roman set_font
878 138.3 moveto 160 (offchip-memory-service-port) alignedtext
1 setlinewidth
0 1 1 nodecolor
newpath 1046 130.5 moveto
1046 153.5 lineto
stroke
0 0 0 nodecolor
14 /Times-Roman set_font
1054 138.3 moveto 34 (axiout) alignedtext
grestore
% chassoc26_adt_far_0->forfortopprimaryIPblock1610
gsave
1 setlinewidth
0 0 0 edgecolor
newpath 957 255 moveto
957 229.93 943.32 224.68 923 210 curveto
902.83 195.43 884.49 212.22 870 192 curveto
861.98 180.8 860.31 139.8 870 130 curveto
875.45 124.49 927.59 120.94 948.95 124.58 curveto
stroke
0 0 0 edgecolor
newpath 947.48 127.76 moveto
958 129 lineto
950.55 121.47 lineto
closepath fill
1 setlinewidth
solid
0 0 0 edgecolor
newpath 947.48 127.76 moveto
958 129 lineto
950.55 121.47 lineto
closepath stroke
0 0 0 edgecolor
14 /Times-Roman set_font
944 214.3 moveto 107 (chassoc26.LF.0.FY) alignedtext
grestore
% TWO_to_ONElaunch
gsave
1 setlinewidth
0.66667 1 1 nodecolor
newpath 568.5 406.5 moveto
568.5 475.5 lineto
681.5 475.5 lineto
681.5 406.5 lineto
closepath stroke
0 0 0 nodecolor
14 /Times-Roman set_font
585.5 460.3 moveto 79 (TWO-to-ONE) alignedtext
1 setlinewidth
0.66667 1 1 nodecolor
newpath 568.5 452.5 moveto
681.5 452.5 lineto
stroke
0 0 0 nodecolor
14 /Times-Roman set_font
609.5 437.3 moveto 31 (PortS) alignedtext
1 setlinewidth
0.66667 1 1 nodecolor
newpath 568.5 429.5 moveto
681.5 429.5 lineto
stroke
0 0 0 nodecolor
14 /Times-Roman set_font
576.5 414.3 moveto 97 (STATIC BLOCK) alignedtext
grestore
endpage
showpage
grestore
%%PageTrailer
%%EndPage: 1
%%Trailer
end
restore
%%EOF
